###############################################################################
#
# IAR C/C++ Compiler V3.10.1.2056 for RL78                23/Dec/2019  13:38:05
# Copyright 2011-2017 IAR Systems AB.
# PC-locked license - IAR Embedded Workbench for Renesas RL78, 16K KickStart Edition 4.20
#
#    Core               =  s2
#    Calling convention =  v2
#    Code model         =  Near
#    Data model         =  Near
#                       =   
#    Source file        =  
#        C:\temp\test\firmware\Weifeng_UC8151_EEPROM\i2c_slave.c
#    Command line       =  
#        -f C:\Users\atsai\AppData\Local\Temp\EW81C9.tmp
#        (C:\temp\test\firmware\Weifeng_UC8151_EEPROM\i2c_slave.c
#        --calling_convention v2 --double=32 --core s2 --code_model near
#        --near_const_location rom0 -o
#        C:\temp\test\firmware\Weifeng_UC8151_EEPROM\Release\Obj --dlib_config
#        "C:\Program Files (x86)\IAR Systems\Embedded Workbench
#        8.0_2\rl78\LIB\dlrl78nnf22n.h" -e -Ohs --no_cross_call -D NDEBUG -lC
#        C:\temp\test\firmware\Weifeng_UC8151_EEPROM\Release\List --data_model
#        near)
#    Locale             =  English_United States.1252
#    List file          =  
#        C:\temp\test\firmware\Weifeng_UC8151_EEPROM\Release\List\i2c_slave.lst
#    Object file        =  
#        C:\temp\test\firmware\Weifeng_UC8151_EEPROM\Release\Obj\i2c_slave.o
#
###############################################################################

C:\temp\test\firmware\Weifeng_UC8151_EEPROM\i2c_slave.c
      1          //----------------------------------------------------------------------------
      2          // i2c_slave.c
      3          //----------------------------------------------------------------------------
      4          #include "all_includes.h"

   \                                 In section .sbss.noinit, at 0xfff06
   \   union <unnamed> volatile __saddr _A_P6
   \                     __A_P6:
   \   000000              DS 1

   \                                 In section .bss.noinit, at 0xfff26
   \   union <unnamed> volatile __sfr _A_PM6
   \                     __A_PM6:
   \   000000              DS 1

   \                                 In section .bss.noinit, at 0xfff50
   \   union <unnamed> volatile __sfr __no_bit_access _A_IICA0
   \                     __A_IICA0:
   \   000000              DS 1

   \                                 In section .bss.noinit, at 0xfff51
   \   union <unnamed> const volatile __sfr _A_IICS0
   \                     __A_IICS0:
   \   000000              DS 1

   \                                 In section .bss.noinit, at 0xfff52
   \   union <unnamed> volatile __sfr _A_IICF0
   \                     __A_IICF0:
   \   000000              DS 1

   \                                 In section .bss.noinit, at 0xfffe0
   \   union <unnamed> volatile __sfr _A_IF0
   \                     __A_IF0:
   \   000000              DS 2

   \                                 In section .bss.noinit, at 0xfffe4
   \   union <unnamed> volatile __sfr _A_MK0
   \                     __A_MK0:
   \   000000              DS 2

   \                                 In section .bss.noinit, at 0xfffe8
   \   union <unnamed> volatile __sfr _A_PR00
   \                     __A_PR00:
   \   000000              DS 2

   \                                 In section .bss.noinit, at 0xfffec
   \   union <unnamed> volatile __sfr _A_PR10
   \                     __A_PR10:
   \   000000              DS 2

   \                                 In section .bss.noinit, at 0xf00f0
   \   union <unnamed> volatile _A_PER0
   \                     __A_PER0:
   \   000000              DS 1

   \                                 In section .bss.noinit, at 0xf0230
   \   union <unnamed> volatile _A_IICCTL00
   \                     __A_IICCTL00:
   \   000000              DS 1

   \                                 In section .bss.noinit, at 0xf0231
   \   union <unnamed> volatile _A_IICCTL01
   \                     __A_IICCTL01:
   \   000000              DS 1

   \                                 In section .bss.noinit, at 0xf0232
   \   union <unnamed> volatile __no_bit_access _A_IICWL0
   \                     __A_IICWL0:
   \   000000              DS 1

   \                                 In section .bss.noinit, at 0xf0233
   \   union <unnamed> volatile __no_bit_access _A_IICWH0
   \                     __A_IICWH0:
   \   000000              DS 1

   \                                 In section .bss.noinit, at 0xf0234
   \   union <unnamed> volatile __no_bit_access _A_SVA0
   \                     __A_SVA0:
   \   000000              DS 1
      5          
      6          
      7          
      8          //----------------------------------------------------------------------------
      9          //----------------------------------------------------------------------------

   \                                 In section .bss, align 2
     10          uint32_t volatile i2c_slave_address;
   \                     _i2c_slave_address:
   \   000000              DS 4

   \                                 In section .bss, align 1
     11          uint8_t volatile i2c_slave_state = I2C_SLAVE_STATE_IDLE;
   \                     _i2c_slave_state:
   \   000000              DS 1

   \                                 In section .bss, align 1
     12          uint8_t volatile i2c_slave_transfer_end_count = 0;
   \                     _i2c_slave_transfer_end_count:
   \   000000              DS 1
     13          
     14          
     15          
     16          //----------------------------------------------------------------------------
     17          //----------------------------------------------------------------------------

   \                                 In section .text, align 1, keep-with-next
     18          void i2c_slave_initialize(void) {
     19          
     20          	// supply IICA0 clock
     21          	IICA0EN = 1U;
   \                     _i2c_slave_initialize:
   \   000000 4071 00F0    SET1      0xF00F0.4          ;; 2 cycles
     22          
     23          	// disable IICA0 operation for configuration
     24          	IICE0 = 0U;
   \   000004 7871 0230    CLR1      0xF0230.7          ;; 2 cycles
     25          
     26          	// disable INTIICA0 interrupt
     27          	IICAMK0 = 1U;
   \   000008 5A71 E5      SET1      0xFFFE5.5          ;; 2 cycles
     28          
     29          	// clear INTIICA0 interrupt flag
     30          	IICAIF0 = 0U;
   \   00000B 5B71 E1      CLR1      0xFFFE1.5          ;; 2 cycles
     31          
     32          	// Set INTIICA0 high priority
     33          	IICAPR10 = 0U;
   \   00000E 5B71 ED      CLR1      0xFFFED.5          ;; 2 cycles
     34          	IICAPR00 = 0U;
   \   000011 5B71 E9      CLR1      0xFFFE9.5          ;; 2 cycles
     35          
     36          	// Setup SCLA0, SDAA0 pins
     37          	//
     38          	// Set pin to 0 (bits 0 and 1)
     39          	P6 &= 0xFCU;
   \   000014 5A 06 FC     AND       S:0xFFF06, #0xFC   ;; 2 cycles
     40          
     41          	// Configure pins as inputs
     42          	PM6 |= 0x03U;
   \   000017 8E 26        MOV       A, 0xFFF26         ;; 1 cycle
   \   000019 6C 03        OR        A, #0x3            ;; 1 cycle
   \   00001B 9E 26        MOV       0xFFF26, A         ;; 1 cycle
     43          
     44          	// Operate I2C in fast mode (slow mode only goes to 100 KHz, fast up to 400 KHz)
     45          	SMC0 = 1U;
   \   00001D 36 0231      MOVW      HL, #0x231         ;; 1 cycle
   \   000020 B271         SET1      [HL].3             ;; 2 cycles
     46          
     47          	// configure low/high cycle widths (probably not important for slave mode)
     48          	IICWL0 = 0x26U;
   \   000022 CF 0232 26   MOV       0x232, #0x26       ;; 1 cycle
     49          	IICWH0 = 0x2BU;
   \   000026 CF 0233 2B   MOV       0x233, #0x2B       ;; 1 cycle
     50          
     51          	// run the IICA state machine at the full system clock (not half)
     52          	IICCTL01 &= (uint8_t)~(0x01U);
   \   00002A 8371         CLR1      [HL].0             ;; 2 cycles
     53          
     54          	// assign slave address (shifted left one bit)
     55          		SVA0 = (0x40U);
   \   00002C CF 0234 40   MOV       0x234, #0x40       ;; 1 cycle
     56          
     57          	// after enable, allow start generation without detecting stop condition
     58          	// my guess this is priming the pump and not required for slave mode operation
     59          	STCEN0 = 1U;
   \   000030 1A71 52      SET1      0xFFF52.1          ;; 2 cycles
     60          
     61          	// disable communication reservation (whatever that is...)
     62          	IICRSV0 = 1U;
   \   000033 0A71 52      SET1      0xFFF52.0          ;; 2 cycles
     63          
     64          	// disable interrupt when stop condition detected
     65          	SPIE0 = 0U;
   \   000036 B7           DECW      HL                 ;; 1 cycle
   \   000037 C371         CLR1      [HL].4             ;; 2 cycles
     66          
     67          	// interrupt timing:
     68          	//	0: after data (before ACK)
     69          	//	1: after ACK (1)
     70          	WTIM0 = 1U;
   \   000039 B271         SET1      [HL].3             ;; 2 cycles
     71          
     72          	// ACK generation:
     73          	//	0 disabled (manual)
     74          	//	1 enabled	(automatic)
     75          	ACKE0 = 1U;
   \   00003B A271         SET1      [HL].2             ;; 2 cycles
     76          
     77          	// Interrupt mask flag for IICA
     78          	//	0: enabled
     79          	//	1: disabled
     80          	IICAMK0 = 0U;
   \   00003D 5B71 E5      CLR1      0xFFFE5.5          ;; 2 cycles
     81          
     82          	// enable IICA0 operation for configuration
     83          	IICE0 = 1U;
   \   000040 F271         SET1      [HL].7             ;; 2 cycles
     84          
     85          	// Exit from operations
     86          	// not sure what this is mean to do except reset the interface state
     87          	LREL0 = 1U;
   \   000042 E271         SET1      [HL].6             ;; 2 cycles
     88          
     89          	// Configure SCLA0, SDAA0 pins as outputs
     90          	PM6 &= 0xFCU;
   \   000044 8E 26        MOV       A, 0xFFF26         ;; 1 cycle
   \   000046 5C FC        AND       A, #0xFC           ;; 1 cycle
   \   000048 9E 26        MOV       0xFFF26, A         ;; 1 cycle
     91          }
   \   00004A D7           RET                          ;; 6 cycles
   \   00004B              ; ------------------------------------- Block: 51 cycles
   \   00004B              ; ------------------------------------- Total: 51 cycles
   \   00004B              ; * Stack frame (at entry) *
   \   00004B              ; Param size: 0
   \   00004B              ; Auto size: 0
   \   00004B              REQUIRE __A_PER0
   \   00004B              REQUIRE __A_IICCTL00
   \   00004B              REQUIRE __A_MK0
   \   00004B              REQUIRE __A_IF0
   \   00004B              REQUIRE __A_PR10
   \   00004B              REQUIRE __A_PR00
   \   00004B              REQUIRE __A_P6
   \   00004B              REQUIRE __A_PM6
   \   00004B              REQUIRE __A_IICCTL01
   \   00004B              REQUIRE __A_IICWL0
   \   00004B              REQUIRE __A_IICWH0
   \   00004B              REQUIRE __A_SVA0
   \   00004B              REQUIRE __A_IICF0
     92          
     93          
     94          
     95          //----------------------------------------------------------------------------
     96          //----------------------------------------------------------------------------
     97          //
     98          // IAR RL78 Workbench 2.10.1 has a bug in the ISR code that fails to
     99          //	 save scratchpad registers.	2.10.3 has a fix, but that's only for
    100          //	 paying customers.
    101          //	 The workaround is to force the old call format on it with __v1_call
    102          //		 http://documentation.renesas.com/doc/DocumentServer/R20UT3407ED0104_RL78.pdf 
    103          //
    104          #pragma vector = INTIICA0_vect

   \                                 In section .text, align 1, keep-with-next
    105          __v1_call __interrupt static void i2c_slave_isr(void) {
   \                     ___interrupt_0x1E:
   \   000000 C1           PUSH      AX                 ;; 1 cycle
   \   000001 C3           PUSH      BC                 ;; 1 cycle
   \   000002 C5           PUSH      DE                 ;; 1 cycle
   \   000003 C7           PUSH      HL                 ;; 1 cycle
   \   000004 AE FC        MOVW      AX, 0xFFFFC        ;; 1 cycle
   \   000006 C1           PUSH      AX                 ;; 1 cycle
   \   000007 C1           PUSH      AX                 ;; 1 cycle
    106          	uint8_t value;
    107          	uint8_t status;
    108          
    109          	// The MCU uses clock stretching (they call it "wait") at the end of each byte.
    110          	// The CC4 has a bug in it that cannot handle certain situtations if the clock
    111          	// is stretched out too far. So here we attempt to reduce the amount of clock
    112          	// stretch by reading input bytes as quickly as possible.
    113          	if (i2c_slave_state != I2C_SLAVE_STATE_IDLE &&
    114          			i2c_slave_state != I2C_SLAVE_STATE_READ_DATA) {
   \   000008 D5 ....      CMP0      N:_i2c_slave_state  ;; 1 cycle
   \   00000B DD 0F        BZ        ??i2c_slave_isr_0  ;; 4 cycles
   \   00000D              ; ------------------------------------- Block: 12 cycles
   \   00000D              ; * Stack frame (at entry) *
   \   00000D              ; Param size: 0
   \   00000D              ; Auto size: 2
   \   00000D 40 .... 06   CMP       N:_i2c_slave_state, #0x6  ;; 1 cycle
   \   000011 DD 09        BZ        ??i2c_slave_isr_0  ;; 4 cycles
   \   000013              ; ------------------------------------- Block: 5 cycles
    115          
    116          		value = IICA0;
   \   000013 8E 50        MOV       A, 0xFFF50         ;; 1 cycle
   \   000015 98 01        MOV       [SP+0x01], A       ;; 1 cycle
    117          
    118          		// cancel wait
    119          		WREL0 = 1U;
   \   000017 36 0230      MOVW      HL, #0x230         ;; 1 cycle
   \   00001A D271         SET1      [HL].5             ;; 2 cycles
   \   00001C              ; ------------------------------------- Block: 5 cycles
    120          	}
    121          
    122          	// disable the wake up
    123          	WUP0 = 0; 
   \                     ??i2c_slave_isr_0:
   \   00001C 7871 0231    CLR1      0xF0231.7          ;; 2 cycles
    124          
    125          	// wait 5 clock cycles
    126          	__no_operation();
   \   000020 00           NOP                          ;; 1 cycle
    127          	__no_operation();
   \   000021 00           NOP                          ;; 1 cycle
    128          	__no_operation();
   \   000022 00           NOP                          ;; 1 cycle
    129          	__no_operation();
   \   000023 00           NOP                          ;; 1 cycle
    130          	__no_operation();
   \   000024 00           NOP                          ;; 1 cycle
    131          
    132          	status = IICS0;
   \   000025 8E 51        MOV       A, 0xFFF51         ;; 1 cycle
   \   000027 98 00        MOV       [SP], A            ;; 1 cycle
    133          
    134          	// Check for stop condition
    135          	if ((status & 0x01) != 0) {
   \   000029 F8AE         MOVW      AX, SP             ;; 1 cycle
   \   00002B 16           MOVW      HL, AX             ;; 1 cycle
   \   00002C 8531 21      BF        [HL].0, ??i2c_slave_isr_1  ;; 5 cycles
   \   00002F              ; ------------------------------------- Block: 16 cycles
    136          		// disable interrupt when stop condition detected
    137          		SPIE0 = 0U;
   \   00002F 36 0230      MOVW      HL, #0x230         ;; 1 cycle
   \   000032 C371         CLR1      [HL].4             ;; 2 cycles
    138          
    139          		if (i2c_slave_state == I2C_SLAVE_STATE_WRITE_DATA) {
   \   000034 40 .... 05   CMP       N:_i2c_slave_state, #0x5  ;; 1 cycle
   \   000038 DF 08        BNZ       ??i2c_slave_isr_2  ;; 4 cycles
   \   00003A              ; ------------------------------------- Block: 8 cycles
    140          			communications_transfer_end();
   \   00003A FD ....      CALL      _communications_transfer_end  ;; 3 cycles
    141          			++i2c_slave_transfer_end_count;
   \   00003D A0 ....      INC       N:_i2c_slave_transfer_end_count  ;; 2 cycles
   \   000040 EF 08        BR        S:??i2c_slave_isr_3  ;; 3 cycles
   \   000042              ; ------------------------------------- Block: 8 cycles
    142          
    143          		} else if (i2c_slave_state == I2C_SLAVE_STATE_READ_DATA) {
   \                     ??i2c_slave_isr_2:
   \   000042 40 .... 06   CMP       N:_i2c_slave_state, #0x6  ;; 1 cycle
   \   000046 F861         SKNZ                         ;; 1 cycle
   \   000048              ; ------------------------------------- Block: 2 cycles
    144          			WREL0 = 1U;
   \   000048 D271         SET1      [HL].5             ;; 2 cycles
   \   00004A              ; ------------------------------------- Block: 2 cycles
    145          		}
    146          
    147          		i2c_slave_state = I2C_SLAVE_STATE_IDLE;
   \                     ??i2c_slave_isr_3:
   \   00004A F5 ....      CLRB      N:_i2c_slave_state  ;; 1 cycle
   \   00004D ED ....      BR        N:??i2c_slave_isr_4  ;; 3 cycles
   \   000050              ; ------------------------------------- Block: 4 cycles
    148          
    149          	} else {
    150          
    151          		// Do we already have a matching address?
    152          		if (i2c_slave_state == I2C_SLAVE_STATE_IDLE) {
   \                     ??i2c_slave_isr_1:
   \   000050 D5 ....      CMP0      N:_i2c_slave_state  ;; 1 cycle
   \   000053 DF 2E        BNZ       ??i2c_slave_isr_5  ;; 4 cycles
   \   000055              ; ------------------------------------- Block: 5 cycles
    153          
    154          			// apparently not
    155          			if ((status & 0x20) != 0) {
   \   000055 D531 08      BF        [HL].5, ??i2c_slave_isr_6  ;; 5 cycles
   \   000058              ; ------------------------------------- Block: 5 cycles
    156          				// just stop communications
    157          				LREL0 = 1;
   \   000058 36 0230      MOVW      HL, #0x230         ;; 1 cycle
   \   00005B E271         SET1      [HL].6             ;; 2 cycles
   \   00005D ED ....      BR        N:??i2c_slave_isr_4  ;; 3 cycles
   \   000060              ; ------------------------------------- Block: 6 cycles
    158          
    159          			} else if ((status & 0x10) != 0) {
   \                     ??i2c_slave_isr_6:
   \   000060 C331 03      BT        [HL].4, $+6        ;; 5 cycles
   \   000063 ED ....      BR        N:??i2c_slave_isr_4  ;; 5 cycles
   \   000066              ; ------------------------------------- Block: 5 cycles
    160          				// We have an address match
    161          				// enable interrupt when stop condition detected
    162          				SPIE0 = 1U;
   \   000066 4071 0230    SET1      0xF0230.4          ;; 2 cycles
    163          
    164          				// check for Tx/Rx mode
    165          				//	 0: Write by master (rx by slave)
    166          				//	 1: Read by master	(tx by slave)
    167          				if ((status & 0x08) != 0) {
   \   00006A B531 07      BF        [HL].3, ??i2c_slave_isr_7  ;; 5 cycles
   \   00006D              ; ------------------------------------- Block: 7 cycles
    168          					i2c_slave_state = I2C_SLAVE_STATE_READ_DATA;
   \   00006D CF .... 06   MOV       N:_i2c_slave_state, #0x6  ;; 1 cycle
    169          
    170          					// send the first byte
    171          					IICA0 = communications_get_memory(i2c_slave_address);
   \   000071 ED ....      BR        N:??i2c_slave_isr_8  ;; 3 cycles
   \   000074              ; ------------------------------------- Block: 4 cycles
    172          					i2c_slave_address++;
    173          
    174          				} else {
    175          					// cancel wait
    176          					WREL0 = 1U;
   \                     ??i2c_slave_isr_7:
   \   000074 36 0230      MOVW      HL, #0x230         ;; 1 cycle
   \   000077 D271         SET1      [HL].5             ;; 2 cycles
    177          
    178          					// write by master
    179          					i2c_slave_state = I2C_SLAVE_STATE_ID_WRITE_BY_MASTER;
   \   000079 E5 ....      ONEB      N:_i2c_slave_state  ;; 1 cycle
    180          
    181          					// invalidate I2C memory address
    182          					i2c_slave_address = 0;
   \   00007C F6           CLRW      AX                 ;; 1 cycle
   \   00007D BF ....      MOVW      N:_i2c_slave_address, AX  ;; 1 cycle
   \   000080 ED ....      BR        N:??i2c_slave_isr_9  ;; 3 cycles
   \   000083              ; ------------------------------------- Block: 9 cycles
    183          				}
    184          			}
    185          
    186          		} else if (i2c_slave_state == I2C_SLAVE_STATE_ID_WRITE_BY_MASTER) {
   \                     ??i2c_slave_isr_5:
   \   000083 40 .... 01   CMP       N:_i2c_slave_state, #0x1  ;; 1 cycle
   \   000087 DF 0F        BNZ       ??i2c_slave_isr_10  ;; 4 cycles
   \   000089              ; ------------------------------------- Block: 5 cycles
    187          			i2c_slave_state = I2C_SLAVE_STATE_READ_ADDR_0;
   \   000089 CF .... 02   MOV       N:_i2c_slave_state, #0x2  ;; 1 cycle
    188          			i2c_slave_address = value;
   \   00008D 88 01        MOV       A, [SP+0x01]       ;; 1 cycle
   \   00008F 70           MOV       X, A               ;; 1 cycle
   \   000090 F1           CLRB      A                  ;; 1 cycle
   \   000091 BF ....      MOVW      N:_i2c_slave_address, AX  ;; 1 cycle
   \   000094 F6           CLRW      AX                 ;; 1 cycle
   \   000095 ED ....      BR        N:??i2c_slave_isr_9  ;; 3 cycles
   \   000098              ; ------------------------------------- Block: 9 cycles
    189          
    190          		} else if (i2c_slave_state == I2C_SLAVE_STATE_READ_ADDR_0) {
   \                     ??i2c_slave_isr_10:
   \   000098 40 .... 02   CMP       N:_i2c_slave_state, #0x2  ;; 1 cycle
   \   00009C DF 06        BNZ       ??i2c_slave_isr_11  ;; 4 cycles
   \   00009E              ; ------------------------------------- Block: 5 cycles
    191          			i2c_slave_state = I2C_SLAVE_STATE_READ_ADDR_1;
   \   00009E CF .... 03   MOV       N:_i2c_slave_state, #0x3  ;; 1 cycle
    192          			i2c_slave_address <<= 8;
   \   0000A2 EF 0A        BR        S:??i2c_slave_isr_12  ;; 3 cycles
   \   0000A4              ; ------------------------------------- Block: 4 cycles
    193          			i2c_slave_address += value;
    194          
    195          		} else if (i2c_slave_state == I2C_SLAVE_STATE_READ_ADDR_1) {
   \                     ??i2c_slave_isr_11:
   \   0000A4 40 .... 03   CMP       N:_i2c_slave_state, #0x3  ;; 1 cycle
   \   0000A8 DF 2F        BNZ       ??i2c_slave_isr_13  ;; 4 cycles
   \   0000AA              ; ------------------------------------- Block: 5 cycles
    196          			i2c_slave_state = I2C_SLAVE_STATE_READ_ADDR_2;
   \   0000AA CF .... 04   MOV       N:_i2c_slave_state, #0x4  ;; 1 cycle
    197          			i2c_slave_address <<= 8;
   \   0000AE              ; ------------------------------------- Block: 1 cycles
   \                     ??i2c_slave_isr_12:
   \   0000AE DB ....      MOVW      BC, N:_i2c_slave_address+2  ;; 1 cycle
   \   0000B1 AF ....      MOVW      AX, N:_i2c_slave_address  ;; 1 cycle
   \   0000B4 8C31         SHLW      BC, 0x8            ;; 1 cycle
   \   0000B6 16           MOVW      HL, AX             ;; 1 cycle
   \   0000B7 8E31         SHRW      AX, 0x8            ;; 1 cycle
   \   0000B9 03           ADDW      AX, BC             ;; 1 cycle
   \   0000BA 12           MOVW      BC, AX             ;; 1 cycle
   \   0000BB 17           MOVW      AX, HL             ;; 1 cycle
   \   0000BC 8D31         SHLW      AX, 0x8            ;; 1 cycle
   \   0000BE BF ....      MOVW      N:_i2c_slave_address, AX  ;; 1 cycle
   \   0000C1 13           MOVW      AX, BC             ;; 1 cycle
   \   0000C2 BF ....      MOVW      N:_i2c_slave_address+2, AX  ;; 1 cycle
    198          			i2c_slave_address += value;
   \   0000C5 88 01        MOV       A, [SP+0x01]       ;; 1 cycle
   \   0000C7 FB ....      MOVW      HL, N:_i2c_slave_address+2  ;; 1 cycle
   \   0000CA 70           MOV       X, A               ;; 1 cycle
   \   0000CB F1           CLRB      A                  ;; 1 cycle
   \   0000CC EB ....      MOVW      DE, N:_i2c_slave_address  ;; 1 cycle
   \   0000CF F7           CLRW      BC                 ;; 1 cycle
   \   0000D0 05           ADDW      AX, DE             ;; 1 cycle
   \   0000D1 D861         SKNC
   \   0000D3 A3           INCW      BC                 ;; 5 cycles
   \   0000D4 33           XCHW      AX, BC             ;; 1 cycle
   \   0000D5 07           ADDW      AX, HL             ;; 1 cycle
   \   0000D6 33           XCHW      AX, BC             ;; 1 cycle
   \   0000D7 EF 59        BR        S:??i2c_slave_isr_14  ;; 3 cycles
   \   0000D9              ; ------------------------------------- Block: 30 cycles
    199          
    200          		} else if ((i2c_slave_state == I2C_SLAVE_STATE_READ_ADDR_2) || (i2c_slave_state == I2C_SLAVE_STATE_WRITE_DATA)) {
   \                     ??i2c_slave_isr_13:
   \   0000D9 40 .... 04   CMP       N:_i2c_slave_state, #0x4  ;; 1 cycle
   \   0000DD DD 06        BZ        ??i2c_slave_isr_15  ;; 4 cycles
   \   0000DF              ; ------------------------------------- Block: 5 cycles
   \   0000DF 40 .... 05   CMP       N:_i2c_slave_state, #0x5  ;; 1 cycle
   \   0000E3 DF 2D        BNZ       ??i2c_slave_isr_16  ;; 4 cycles
   \   0000E5              ; ------------------------------------- Block: 5 cycles
    201          			if (i2c_slave_state == I2C_SLAVE_STATE_READ_ADDR_2) {
   \                     ??i2c_slave_isr_15:
   \   0000E5 40 .... 04   CMP       N:_i2c_slave_state, #0x4  ;; 1 cycle
   \   0000E9 DF 09        BNZ       ??i2c_slave_isr_17  ;; 4 cycles
   \   0000EB              ; ------------------------------------- Block: 5 cycles
    202          				communications_transfer_start(i2c_slave_address);
   \   0000EB DB ....      MOVW      BC, N:_i2c_slave_address+2  ;; 1 cycle
   \   0000EE AF ....      MOVW      AX, N:_i2c_slave_address  ;; 1 cycle
   \   0000F1 FD ....      CALL      _communications_transfer_start  ;; 3 cycles
   \   0000F4              ; ------------------------------------- Block: 5 cycles
    203          			}
    204          
    205          			communications_transfer_update(value);
   \                     ??i2c_slave_isr_17:
   \   0000F4 88 01        MOV       A, [SP+0x01]       ;; 1 cycle
   \   0000F6 FD ....      CALL      _communications_transfer_update  ;; 3 cycles
    206          			i2c_slave_address++;
   \   0000F9 DB ....      MOVW      BC, N:_i2c_slave_address+2  ;; 1 cycle
   \   0000FC AF ....      MOVW      AX, N:_i2c_slave_address  ;; 1 cycle
   \   0000FF 04 0001      ADDW      AX, #0x1           ;; 1 cycle
   \   000102 D861         SKNC
   \   000104 A3           INCW      BC                 ;; 5 cycles
   \   000105 BF ....      MOVW      N:_i2c_slave_address, AX  ;; 1 cycle
   \   000108 13           MOVW      AX, BC             ;; 1 cycle
   \   000109 BF ....      MOVW      N:_i2c_slave_address+2, AX  ;; 1 cycle
    207          			i2c_slave_state = I2C_SLAVE_STATE_WRITE_DATA;
   \   00010C CF .... 05   MOV       N:_i2c_slave_state, #0x5  ;; 1 cycle
   \   000110 EF 2E        BR        S:??i2c_slave_isr_4  ;; 3 cycles
   \   000112              ; ------------------------------------- Block: 19 cycles
    208          
    209          		} else if (i2c_slave_state == I2C_SLAVE_STATE_READ_DATA) {
   \                     ??i2c_slave_isr_16:
   \   000112 40 .... 06   CMP       N:_i2c_slave_state, #0x6  ;; 1 cycle
   \   000116 DF 28        BNZ       ??i2c_slave_isr_4  ;; 4 cycles
   \   000118              ; ------------------------------------- Block: 5 cycles
    210          			// check to see if we got an ACK
    211          			if ((status & 0x04) != 0) {
   \   000118 A531 20      BF        [HL].2, ??i2c_slave_isr_18  ;; 5 cycles
   \   00011B              ; ------------------------------------- Block: 5 cycles
    212          				// this automatically cancels the wait
    213          				IICA0 = communications_get_memory(i2c_slave_address);
   \                     ??i2c_slave_isr_8:
   \   00011B DB ....      MOVW      BC, N:_i2c_slave_address+2  ;; 1 cycle
   \   00011E AF ....      MOVW      AX, N:_i2c_slave_address  ;; 1 cycle
   \   000121 FD ....      CALL      _communications_get_memory  ;; 3 cycles
   \   000124 9E 50        MOV       0xFFF50, A         ;; 1 cycle
    214          				i2c_slave_address++;
   \   000126 DB ....      MOVW      BC, N:_i2c_slave_address+2  ;; 1 cycle
   \   000129 AF ....      MOVW      AX, N:_i2c_slave_address  ;; 1 cycle
   \   00012C 04 0001      ADDW      AX, #0x1           ;; 1 cycle
   \   00012F D861         SKNC
   \   000131 A3           INCW      BC                 ;; 5 cycles
   \   000132              ; ------------------------------------- Block: 14 cycles
   \                     ??i2c_slave_isr_14:
   \   000132 BF ....      MOVW      N:_i2c_slave_address, AX  ;; 1 cycle
   \   000135 13           MOVW      AX, BC             ;; 1 cycle
   \   000136              ; ------------------------------------- Block: 2 cycles
   \                     ??i2c_slave_isr_9:
   \   000136 BF ....      MOVW      N:_i2c_slave_address+2, AX  ;; 1 cycle
   \   000139 EF 05        BR        S:??i2c_slave_isr_4  ;; 3 cycles
   \   00013B              ; ------------------------------------- Block: 4 cycles
    215          
    216          			} else {
    217          				// got a NACK
    218          				WREL0 = 1U;
   \                     ??i2c_slave_isr_18:
   \   00013B 36 0230      MOVW      HL, #0x230         ;; 1 cycle
   \   00013E D271         SET1      [HL].5             ;; 2 cycles
   \   000140              ; ------------------------------------- Block: 3 cycles
    219          			}
    220          		}
    221          	}
    222          }
   \                     ??i2c_slave_isr_4:
   \   000140 10 02        ADDW      SP, #0x2           ;; 1 cycle
   \   000142 C0           POP       AX                 ;; 1 cycle
   \   000143 C6           POP       HL                 ;; 1 cycle
   \   000144 C4           POP       DE                 ;; 1 cycle
   \   000145 C2           POP       BC                 ;; 1 cycle
   \   000146 BE FC        MOVW      0xFFFFC, AX        ;; 1 cycle
   \   000148 C0           POP       AX                 ;; 1 cycle
   \   000149 FC61         RETI                         ;; 6 cycles
   \   00014B              ; ------------------------------------- Block: 13 cycles
   \   00014B              ; ------------------------------------- Total: 247 cycles
   \   00014B              REQUIRE __A_IICA0
   \   00014B              REQUIRE __A_IICCTL00
   \   00014B              REQUIRE __A_IICCTL01
   \   00014B              REQUIRE __A_IICS0
   \   00014B              REQUIRE ___interrupt_tab_0x1E

   Maximum stack usage in bytes:

   CSTACK Function
   ------ --------
      4   i2c_slave_initialize
     16   i2c_slave_isr
       16   -> communications_get_memory
       16   -> communications_transfer_end
       16   -> communications_transfer_start
       16   -> communications_transfer_update


   Section sizes:

   Bytes  Function/Label
   -----  --------------
       2  _A_IF0
       1  _A_IICA0
       1  _A_IICCTL00
       1  _A_IICCTL01
       1  _A_IICF0
       1  _A_IICS0
       1  _A_IICWH0
       1  _A_IICWL0
       2  _A_MK0
       1  _A_P6
       1  _A_PER0
       1  _A_PM6
       2  _A_PR00
       2  _A_PR10
       1  _A_SVA0
       4  i2c_slave_address
      75  i2c_slave_initialize
     331  i2c_slave_isr
       1  i2c_slave_state
       1  i2c_slave_transfer_end_count

 
   6 bytes in section .bss
  18 bytes in section .bss.noinit  (abs)
   1 byte  in section .sbss.noinit (abs)
 406 bytes in section .text
 
 406 bytes of CODE memory
   6 bytes of DATA memory (+ 19 bytes shared)

Errors: none
Warnings: none
