:02000000831D5E
:02001E002C1A9A
:02002A00E21CD6
:0400C0007FFFAA0410
:0A00C4000000000000000000000032
:1000D800F6BF18FCBF1AFC200CBF1CFCF528FC71ED
:1000E8007BFA363CFBBB510DBC02717AFA8EA8D163
:1000F8007461F8ED0002717BFAAF40FBB808AF42BB
:10010800FBB80A717AFA12A808318E3316318E3389
:1001180037318D07B80013B802880075A800318EF2
:100128003316318E3337318D07B800F6B802647054
:10013800F1C3C1A804F008C3C1880870F1C3C16144
:100148008D74C3C5A81A12A818318C16318E0312E3
:1001580017318DC40561D8A3C6318C16318E0312B0
:1001680017318DC40561D8A3C6318C16318E0312A0
:1001780017318DC40561D8A3C6F0FD863A618B6C32
:10018800801004618BB80413B806A804318E3316A6
:10019800318E3337318D07B80013B802880074A840
:1001A80000318E3316318E3337318D07B800F6B8EB
:1001B80002717BFAA800F008C3C1880470F1C3C1BA
:1001C800C3C5881070F1318DC40561D8A3C6318CC0
:1001D80016318E031217318DC40561D8A3C6318C30
:1001E80016318E031217318DC40561D8A3C6BF40DE
:1001F800FB13BF42FB717AFA717BFA3664FB30005D
:1002080001BBBC02717AFA717BFA3668FBBBBC028F
:10021800717AFA717BFA366CFBBBBC02717AFA719F
:100228007BFA3670FBBBBC02717AFA717BFA3674C2
:10023800FBBBBC02717AFA717BFA367CFBF6BB30E9
:100248005208BC02717AFA717BFA3680FBF6BB5011
:10025800FFBC02717AFA717BFA3694FBF6BBBC02DA
:10026800717AFA100CD7201A717BFADB96FB717A37
:10027800FA139808ED9D03717BFAAF4CFBB804AFF5
:100288004EFBB806880475A80612A804318E3316EA
:10029800318E3337318D07B80413B806880474A833
:1002A80004318E3316318E3337318D07B804F6B8E2
:1002B80006A804F008C3C1880870F1C3C16470F1CE
:1002C800C3C16570F1318DC40561D8A3C6318C16E0
:1002D800318E031217318DC40561D8A3C6318C162F
:1002E800318E031217318DC40561D8A304FA006159
:1002F800D8A3C6B80013B802880075A800318E3399
:1003080016318E3337318D07B80013B80288007460
:10031800A800318E3316318E3337318D07B800F689
:10032800B802A800F008C3C1880470F1C3C16470A2
:10033800F1C3C16570F1318DC40561D8A3C6318C94
:1003480016318E031217318DC40561D8A3C6318CBE
:1003580016318E031217318DC40561D8A3C6BF4C60
:10036800FB13BF4EFBD530FC61E8B030FCB03AFC63
:10037800717AFAAF00FCDB02FC04010061D8A3BF6C
:1003880000FC13BF02FCA033FCA034FCA220FCA29A
:1003980022FCA226FCD53AFC61E8ED7F02F1ED4291
:1003A80004607CFF7365615B7560311A70D0DF3B58
:1003B8006473AEF8040A0016658461D9644C10DFD2
:1003C80026301000C1AEF8040C0014A80812A806C4
:1003D800FD4C25A80812A80604100061D8A3100235
:1003E8005400B80413B806508055008802D161E85B
:1003F800ED6705880191980161E8ED570564D1DF43
:1004080005604C80DD24604C80DD0C6473AEF8041C
:100418000A00166561D9845500C5AEF8040C0014AD
:10042800A80812A806FD4C251002AF1AFC440001CA
:10043800DC04F6BF1AFC88000C049800717BFA886B
:1004480000765700AF1CFC27BF1CFCAF1CFC717A60
:10045800FA440000DF03101AD7DB1AFC4904FA98A3
:1004680000A21AFCEB1AFCA21AFCFB1AFCA21AFC4A
:10047800DB1AFC4904FAF770F1C3C1C7C24904FA90
:10048800F770F1C3C1C5C24904FA70F1F7318DFDA7
:10049800863A16318E1217318D1004FD863A1004F3
:1004A800B80413B806A21AFCA80424000861D8B33B
:1004B800334400001361F8440008DE34880070F10A
:1004C800C1AF1AFC0404FA14A80812A806240008EC
:1004D80061D8B3FD4C25880270F1021AFCBF1AFCE2
:1004E800AF1AFC440001100261D8ED3E04ED3A0455
:1004F8008808D1DF24A80612A80433440900336110
:10050800F8440000DE71880070F1C1AF1AFC0404E1
:10051800FA14A8062400F8EFB74C0161E8ED3E0490
:10052800A80612A804334401003361F844000061AE
:10053800D8ED3E042400F861D8B3B80413B806888F
:1005480000D150805400550061F8ED32049801DB69
:100558001AFC4904FA98035C7F81A21AFC98028865
:100568000291980216AEF80403003731F303EDA99F
:1005780003656168EDB0032400F861D8B33324083B
:100588000033EFB6BFFCFB13BFFEFBF528FCD770AA
:100598008F28FC4C30DE087360189CFBA028FCD721
:1005A8008F28FCD1200474F528FC61F8EDC008DB25
:1005B800FEFBAFFCFB334400003361F8440008DE67
:1005C8000C3600FA30FFFFBBBC02ED8106AF02FA21
:1005D800C1AF00FAC1AFFCFBFDF23A1004DF48647A
:1005E8004F29FCDF425500EF0D73099CFB7009CCC5
:1005F800FB6140DF328565614CDE2473099CFB702A
:1006080009CCFB6140DF208565614CDE1273099CD3
:10061800FB7009CCFB6140DF0E8565614CDCCA6567
:10062800614C61F8EDC008DBFEFBAFFCFBBF00FAD4
:1006380013BF02FA649F29FC5C03550070DD0C654A
:100648007385099CFB9018CCFBDFF464312A70D0C9
:10065800DD27657385099CFB18CCFB657385099CB0
:10066800FB18CCFB657385099CFB18CCFB6573856F
:10067800099CFB9018CCFBDFD9AFFCFBDBFEFB240D
:10068800000861D8B3334400001361F8440008DC63
:1006980015DBFEFBAFFCFB334400003361F844007C
:1006A800F861D8ED68076470F1021CFC040400448A
:1006B800010161C8EDC008DB18FC644804FAA218FF
:1006C800FCAFFEFBDB18FC604804FAA218FCDB1840
:1006D800FCAFFCFB4804FAA218FCDB18FC8FFCFBFF
:1006E8004804FA645C03A218FC550070DD126573B7
:1006F80085099CFBDB18FC904804FAA218FCDFEE85
:1007080064312A70D0DD3F657385099CFBDB18FCDA
:100718004804FA65A218FC7385099CFBDB18FC48A1
:1007280004FA65A218FC7385099CFBDB18FC4804D5
:10073800FA65A218FC7385099CFBDB18FC90480439
:10074800FAA218FCDFC1AF18FC440001DC04F6BFB4
:1007580018FC640C0470F1021CFCBF1CFCEDC00802
:10076800334400003361F844C060DF2636FCFB30B8
:100778001400BBF6BC028FA0FB9F9CFB8FA1FB9FC4
:100788009DFB8FA2FB9F9EFB8FA3FB54049F9FFBA7
:10079800EF16334400001361F8447C00DF0A36FC8E
:1007A800FB301C00BBF6BC02AFFCFB0438FBB802F4
:1007B800AFFCFB0400205500B800EF40A800168CE1
:1007C800027CFF706573099CFB6158708C0273167C
:1007D800A802378C02615B61689C02AFFCFBDBFE00
:1007E800FB04010061D8A3BFFCFB13BFFEFBA800FC
:1007F80085040300B80017040300B80265614C6162
:10080800C8EDC008DBFEFBAFFCFB334400001361FE
:10081800F844640061C8EDC008A800168B7CFF701E
:100828006573099CFBC76158C27016A802378BC351
:10083800C65D616873A80216639BAFFCFBDBFEFB19
:1008480004010061D8A3BFFCFB33BFFEFB33856105
:100858008D614C618DDE61334400001361F844649E
:1008680000DE55A80016A78B7CFF706573099CFBFA
:1008780061587016A80037C7C216A80237A7A38BFD
:10088800C3C65D616873A80216A7639BAFFCFBDB58
:10089800FEFB04010061D8A3BFFCFB33BFFEFB33A2
:1008A80085618D614C618DDE0F334400001361F862
:1008B80044640061D8EDC4071004D7C3C1C1F198DE
:1008C80000A802334400003361F84400F8DC1E2419
:1008D80000F861D8B3B80213B804AF06FCC1AF047E
:1008E800FCC1A806FDF23A1004DE5AEF33240008D2
:1008F80061D8B3334400001361F8440008A8041217
:10090800A802DE3024000861D8B3B80213B804AFD7
:1009180006FCC1AF04FCC1A806FDF23A1004DE25AE
:10092800E6C1AEF804020014A80612A804FD942635
:100938001002EF11334400001361F8446400DE052F
:100948004938FB9800F529FC88001006D7C3C13345
:1009580044000020041361F8441900DE7CA80E123C
:10096800A80C318E3316318E3337318D07B800130A
:10097800B802880074A800318E3316318E333731AF
:100988008D07B800F6B802717BFAA800F008C3C159
:100998005500880470F1C3C1C3C5881870F1318D42
:1009A800C40561D8A3C6318C16318E031217318D58
:1009B800C40561D8A3C6318C16318E031217318D48
:1009C800C40561D8A3C6C3C1A808312D0438FB16D5
:1009D800C0C2BB13BC02717AFA1008D7C3C1200881
:1009E800F6B804B806A808334400001361F844199F
:1009F80000DE7C717BFA312D0438FB16ABB804ACF1
:100A080002B806717AFA12A804318E3316318E3381
:100A180037318D07B80013B802880074A800318EEA
:100A28003316318E3337318D07B800F6B802A80077
:100A3800F008C3C15500880470F1C3C1C3C588104C
:100A480070F1318DC40561D8A3C6318C16318E037F
:100A58001217318DC40561D8A3C6318C16318E03A7
:100A68001217318DC40561D8A3C6B80413B806A8F7
:100A78000612A804100CD7E6D7200E717BFACF77A0
:100A88000000CF760000CFA80002CEA000717AA1A6
:100A9800714BA4CFF30010710BA1CD0008CE20F04C
:100AA800CF500002CF300002CD0115CE21E2CF3168
:100AB8000000CF510000CF410000CF610000CD02FF
:100AC80007CF760001CE2200CD0404CE24F8CF341F
:100AD8000002CF540002CF640000F406CE2603CFF4
:100AE8003C0011712AE4712BE0713AE4713BE0712A
:100AF8004AE4714BE0715AE4715BE0FD711CFDA39F
:100B08001BFDD800FD7420EBF8FFF6F7FD1221D18C
:100B1800DF07300008F7FD401D712304FDE119FDD2
:100B2800ED24FDF928360CFCF6BBBC023608FCCFD8
:100B380035FCFFF533FCF534FCBF20FCBF22FCBFBD
:100B480024FCBBBC02BF26FCCF780080717AFAFD7A
:100B58003715EF0B36310271F200000061FD00D548
:100B680039FCDD0B717BFAB039FC717AFAEF08D5E4
:100B78003AFC61F8EDF912FD6E028F34FC4CF1DCA1
:100B88004EEBF8FF30A001F7FD1221F6C130230328
:100B9800C1F6C1304502C1F6C130E803C1A80E1242
:100BA800F633F1FDD9392485C061D8B333B1331098
:100BB80004FDD9391004FD423A04204E61D8A3102F
:100BC80004C3C1301100F7FD5509F534FC10043099
:100BD8001800F7FDE4091004C3C188005C07DD2E86
:100BE800AEF81631A505FD7618EF0C318505FD37F1
:100BF80015EF04319501FFA80212A800F0C3C13017
:100C08001800F7FD5509F6BF26FC1004EF16AF26AD
:100C1800FC44100EDC0EAEF816A731A503FD7618BD
:100C2800F6BF26FCAF22FC44600961D8EDC40CF67F
:100C3800BF22FCEBF8FF301812F7FD1221A80212B0
:100C4800A800334400001361F8440000DF06F6BF33
:100C580024FCEF68EBF8FF30AC11F7FD1221AF0A66
:100C6800FCC1AF08FCC1A80612A804FDF23A1004A2
:100C7800AF24FCDF21442001DE36A1442001A22458
:100C8800FCDF2D300006C130CF6AC1301412F7FDE9
:100C98007B201004EF1A442001DC11300006C1301B
:100CA8000E04C1301412F7FD7B201004F6BF24FC9B
:100CB800A80212A800BF08FC13BF0AFCAF20FC441E
:100CC8004138DC2EEBF8FF301812F7FD1221A8028C
:100CD80012A800334400001361F8440000DF0FF647
:100CE800C130A107C1301812F7FD7B201004F6BFF0
:100CF80020FC300400F7FDE4091004C3C1AEF81667
:100D0800318548F19804D52DFCDD31880474300014
:100D180001F7FDA539C3C1A80612A804FDAF3A33EF
:100D280044000010041361F8440000DD058804FD48
:100D38000E3388048198044F2DFCDCCFF6B800B838
:100D480002C1C15004F7FD55091004301300F7FD26
:100D5800E4091004C3C1AEF81631851BA800FDEFE5
:100D680033A80212A800085CFE08B800C3C13013FB
:100D780000F7FD55091004301400F7FDE4091004CC
:100D8800C3C1AEF81631851BA800FDEF36A80212C4
:100D9800A800085CFE08B800C3C1301400F7FD5570
:100DA800091004402EFC01DF0D3600FCF6BBBC0226
:100DB800F52EFCEDF912DB02FCAF00FC3344000019
:100DC8001361F844150061D8EDF912F19804500741
:100DD800F7FDE4091004C3C1AEF816318566880032
:100DE800311A5C0FFD472AA80212A800085CBE0849
:100DF800B800086C2008B800C3C1300700F7FD55DB
:100E080009300500F7FDE409B80813B80A30FF03F4
:100E1800C13000FCC1A80A12A808316E3316316E21
:100E2800333731AD07FDAF3A14A80E16A80C3505B7
:100E380061D8A3330733BF0CFC13BF0EFCE1980C39
:100E48001008EF2231E51F31D5068F35FCFD472A02
:100E5800A80212A800085C9F08B800C3C1300700A8
:100E6800F7FD55091004AEF81631D547300500F7DF
:100E7800FDE409C314AF0CFCDB0EFC2561D8B3C636
:100E880013275C80F27313440000F661F8440000F5
:100E9800DD1E8F35FCFD472AA80212A800085CDF7A
:100EA80008B800C3C1300700F7FD55091004EF0367
:100EB800E19804300300F7FDE4091004C3C1AEF85B
:100EC80016318303ED530F31931DDB02FCAF00FC99
:100ED800334400001361F8447900DE0BE935FCA8BF
:100EE8000070636148DD4E300600F7FDE4091460C8
:100EF8005C21DD1015085CDE08C3C1300600F7FD73
:100F080055091004300800F7FDE40914605C07DD9A
:100F18001015085CF808C3C1300800F7FD55091022
:100F280004A8009F35FCAEF8040400163183068F30
:100F380035FCFD472AA80212A800085CFC08B80086
:100F4800C3C1300300F7FD55091004300600F7FD52
:100F5800E4091004C3C1AEF81631857A300500F7EC
:100F6800FDE409B80613B808A8021613275C80F236
:100F78007313440000F661F8440000DF598800311B
:100F88001A5C0F9F35FCAEF8040400163183068FF7
:100F980035FCFD472AA80212A800085CFE08B80024
:100FA800086C2008B800C3C1300600F7FD550930A9
:100FB8000800F7FDE409B80413B80688045C0610B5
:100FC80004DD13A800085CF908B800C3C1300800A4
:100FD800F7FD55091004300800F7FDE4091004C3B3
:100FE800C1AEF816318303ED7E11300500F7FDE43C
:100FF80009B80613B808A80212A800085CE008BFE0
:1010080010FC13BF12FCA80812A8062210FC61D815
:10101800B3332212FC3316AEF804060037A7B8061D
:1010280013A7B808A731F503EDF912A80212A80012
:10103800085CFE08B800086C0408B800C3C1300892
:1010480000F7FD5509300A00F7FDE409B80413B8A4
:1010580006A80431CE609F36FC88045C0F9F37FCDD
:101068001004EF26C3C6A80827B808FB12FC13070C
:10107800BF12FCA036FCB037FCDF0FA80031CE60F1
:101088009F36FC88005C0F9F37FC8F36FC311A7046
:10109800F1040B001231FF33FDE409B80A33B80C30
:1010A8003636FC318506F6B80A13B80CF6B80AAE1F
:1010B800F804060016A80C4E0312DF0B624E02DF7E
:1010C80006F64E0161F84DDC9B8F36FC4C08DE18A5
:1010D800300900F7FDE409B80613B80851072F36A0
:1010E800FC312974A806EF1CDF0DA80212A80054D1
:1010F8001CFDBD3960EF134036FC09DF12A802124F
:10110800A8005418FDBD39605C0F9F35FCEF04CF73
:1011180035FC0F8F35FC70318D1231FF33C3C1A8F8
:101128000612A8045CF0FD863A1004B80013B80251
:10113800A800C3C1300A00F7FD55091004AEF80431
:101148000400163183068F35FCFD472A300600F768
:10115800FDE4091004C3C1AEF81631D303EDF9124A
:10116800A800085CDF08B800C3C1300600F7FD55C9
:10117800091004EDF91288005C064C0661E8EDF9E7
:10118800128F36FC4C0A61C8EDF512311A70F10461
:101198000B001231FF33FDE409B80633B8083636C0
:1011A800FC318506F6B80613B808A80812F602102E
:1011B800FC330212FC33B80633B808C1C33005004B
:1011C800F7FDE409C42561D8B3C613275C80F27320
:1011D800F633440000F661F844000061E8EDF912C6
:1011E800500AFDE4091004C3C1EF0615B80617B884
:1011F80008A80812A806BF10FC13BF12FCA036FCF2
:10120800B037FCDF0FA80031CE609F36FC88005C49
:101218000F9F37FC8F36FC311A70F1040B00123126
:10122800FF33FDE409B80A33B80C3636FC318506BD
:10123800F6B80A13B80CA80C12F60210FC33021206
:10124800FC33B80A33B80CC1C3300500F7FDE40914
:10125800C42561D8B3C613275C80F273F633440003
:1012680000F661F8440000DD828F36FC4C08DE177A
:10127800300900FDE409B80613B80851072F36FCF9
:10128800312974A806EF1CDF0DA80212A800541C0F
:10129800FDBD3960EF134036FC09DF12A80212A821
:1012A800005418FDBD39605C0F9F35FCEF04CF3545
:1012B800FC0F8F35FC70318D1231FF33C3C1A80686
:1012C80012A8045CF0FD863A1004B80013B802A80E
:1012D80000C3C1300A00F7FD55091004AEF8040434
:1012E800001631830C8F35FCFD472AEF04CF35FCFF
:1012F8000FCEABACF1FD0B25D538FCDF098E515C68
:10130800B261F8ED5C0B61EDED660B2018E1980019
:10131800AEF804020014F6F7FDFF26A802B80CA8E0
:1013280004B80EAEF804020014300800F7FDFF26DA
:10133800F6B804A80214A80E12A80C0561D8A3B820
:101348000C13B80E15F1B808F6B80A88084C3FDE39
:1013580075A80801B80812300C00B810F6B812DDEC
:101368004213B806AEF804020014A81212A810FD21
:10137800FF26A80416A80214A80E12A80C0561D806
:10138800A3330733B80C13B80EA81212A81004041C
:101398000061D8A3B81013B812A806B1440000B869
:1013A80006DFC1AEF804140014A81212A810FDFF3D
:1013B80026A816C1A816C1A81212A810FD303BFD18
:1013C800F23A1004DD03F1980088001018D72018AD
:1013D800E19800AEF804040014300002F7FDFF267F
:1013E800A804B80CA806B80EA804F7F1B80433B8D6
:1013F8000688044C4061C8ED8B14300402B808F626
:10140800B80AB80213440000DD56AEF80410001400
:10141800A80A12A808FDFF26A81216A81014A80EDC
:1014280012A80C0561D8A3330733B80C13B80EA85B
:101438000A12A80804040061D8A3B80813B80AA8B7
:1014480002A1B802AEF804040016A802F7618B4E98
:1014580003DF0B4E02DF07634E01DF02604DDCAA9B
:10146800AEF804140014A80A12A808FDFF26A8164E
:10147800C1A816C1A81212A810FD303BFDF23A10FF
:1014880004DD03F19800EDD113201AF6B80EB81058
:10149800E19800E6C1AEF804060014300302F7FD37
:1014A8009426880670F11002F7A1B80A33B80C1315
:1014B800444000DE72300003B806F6B80813440052
:1014C80000DD41B802AEF804120014A80812A806FC
:1014D800FDFF26A81416A81214A81012A80E05615C
:1014E800D8A3330733B80E13B810A80812A80604F7
:1014F800040061D8A3B80613B808A802B1440000D4
:10150800B802DFC1AEF804160014A80812A806FD38
:10151800FF26A818C1A818C1A81412A812FD303BAC
:10152800FDF23A1004DD03F198008800101AD72064
:101538001E301800F7FDE409B80C13F3B80E13B801
:101548000EFD13134C01980261E8EDDE17A80E1288
:10155800531013B80E300200C1AEF8040200143064
:101568000200F7FD9426880370F1F7318DC3C18816
:101578000670F1318D12F6FD863A1006B80413B8DC
:1015880006A804C3C1F6F7FD7B2088057688047099
:10159800318D08616E08FD1029300200C1AEF804D3
:1015A800060014300400F7FD94268807F770F1C38D
:1015B800C1880A70F1318DFD863A100AB804F6B870
:1015C80006A804C3C1309011FD7B20AEF8040800C2
:1015D80014300600F7FDFF26A80A12A808C3C13078
:1015E8009411F7FD7B20E6C1AEF8040A0014300B15
:1015F80000F7FD9426880A100A70F1F7B81633B878
:1016080018500CB810F6B8121344000061F8EDDD5C
:1016180016B814AEF804080014A81212A810FDFF9A
:1016280026A81212A81004040061D8A3B81013B891
:1016380012AEF804040014A810FDFF26A81212A880
:101648001004040061D8A3B81013B812A80A12A88D
:10165800085418FDBD396075A80A12F313B80A6555
:101668004C41DF13A80612A804C3C1A80E12A80C87
:10167800FD7B201004EF514C20DF45A80612A8047A
:10168800C3C1A80E12A80CFD5509A80E12A80C3348
:1016980044000010041361F8446000DF2B30FF00A1
:1016A800C13000FFC1A80A12A808FDAF3AC3C1A8FB
:1016B8001612A814FD863A1008B80C13B80EEF08D5
:1016C800D1DF05A804FD961CA814B1440000B81485
:1016D80061E8ED1B16E6C1AEF804020014300303FE
:1016E800F7FD94261002AEF816318303EDDE17E6F7
:1016F800C1AEF804020014300302F7FD94268802F4
:10170800100270F1B816FDD6134C019802DF0BA831
:101718000E6C20B80EFD9114980288024C0161E805
:10172800EDDE17A80E6C40B80E300402B810F6B8FB
:1017380012300403B81AF6B81CA81644000061F861
:10174800EDDE17B814AEF804080014A81212A81099
:10175800FDFF26A81212A81004040061D8A3B8102F
:1017680013B812AEF804040014A81C12A81AFDFF3E
:1017780026A81C12A81A04040061D8A3B81A13B822
:101788001CA80A12A8085418FDBD396075A80A12C9
:10179800F313B80A654C41DF11A80612A804C3C1A7
:1017A800A80E12A80CFD7B20EF134C20DF13A8060F
:1017B80012A804C3C1A80E12A80CFD55091004EF05
:1017C80008D1DF05A804FD961CA814B1440000B890
:1017D8001461E8ED4D17AEF8040C0016A7319575A5
:1017E800300200C1AEF804020014300004F7FD9482
:1017F800268803100270F1B808F6B80A8800FD4779
:101808002A301200F7FDE409B80413B806A804F159
:1018180016AEF804040037B804F6B806A80A12A8E9
:1018280008618B4E03DF0C624E02DF07634E01DF57
:1018380002604DDE20A80A16A80814A804F725613E
:10184800D8B333274400001361F8440D00DC06A820
:101858000E6C02B80EA80E12A80C618B6C01618B7D
:10186800C3C1301800F7FD550988061022D7202279
:10187800F6B80AB80CFDD6134C0161E8EDDE19E69E
:10188800C1AEF804060014300302F7FD942688065A
:101898009804FD911498031002300402B81AF6B89F
:1018A8001C300403B806F6B8088802D161F8ED8246
:1018B800199800AEF8040E0014A81C12A81AFDFF0F
:1018C8002688014C01DF0EAEF804160014A8081291
:1018D800A806FDFF26A81012A80E5418FDBD3960F1
:1018E80075A81012F313B810654C41DF0DAEF8045B
:1018F800120014A80EFD1221EF0E4C20DF0AA80ECC
:10190800FDE409B81213B81488014C01DF12A818B5
:10191800C1A818C1A81812A816FDF23A1004DD19BA
:10192800A81412A812C3C1A80C12A80AFDA227A8BD
:1019380016B81AA818B81C1004A81816A81614A8BF
:101948000C12A80A0561D8A3330733B80A13B80CD8
:10195800A81C12A81A04040061D8A3B81A13B81C4A
:10196800A80812A80604040061D8A3B80613B8088A
:10197800880091980061E8EDBB18A80C12A80A0429
:10198800010061D8A3FD303BB80A13B80C88014C9C
:1019980001DF20AEF8041E0014A80812A806FDFFF7
:1019A80026A820C1A820C1A81012A80EFDF23A103E
:1019B80004DD23E19804E6C1AEF804060014300300
:1019C80003F7FD4C25A80E12A80CC3C1A80E12A837
:1019D8000CFDA22710061022D77140F00071783054
:1019E80002715AE5715BE1715BED715BE95A06FCC6
:1019F8008E266C039E2636310271B2CF320226CF74
:101A080033022B7183CF340240711A52710A52B7D4
:101A180071C371B271A2715BE571F271E28E265CDD
:101A2800FC9E26D7C1C3C5C7AEFCC1C1D538FCDDF5
:101A38000F4038FC06DD098E50980136300271D20D
:101A48007178310200000000008E519800AEF8163F
:101A580031852136300271C34038FC05DF08FDA806
:101A680005A039FCEF084038FC0661F871D2F5385A
:101A7800FCED981BD538FCDF3031D50836300271C3
:101A8800E2ED981B31C303ED981B7140300231B56C
:101A980007CF38FC06ED731B3614FC71503002E595
:101AA80038FCF6BBBC02ED981B4038FC01DF0FCFB9
:101AB80038FC02880170F1BF14FCF6ED8E1B40382B
:101AC800FC02DF30CF38FC03DB16FCAF14FC318C92
:101AD80016318E031217318DBF14FC13BF16FC8804
:101AE80001FB16FC70F1EB14FCF70561D8A3330772
:101AF80033ED8A1B4038FC03DF2FCF38FC04DB169C
:101B0800FCAF14FC318C16318E031217318DBF14C3
:101B1800FC13BF16FC8801FB16FC70F1EB14FCF7F4
:101B28000561D8A3330733EF594038FC04DD06407C
:101B380038FC05DF2D4038FC04DF09DB16FCAF1448
:101B4800FCFD8C058801FD9705DB16FCAF14FC0431
:101B5800010061D8A3BF14FC13BF16FCCF38FC05E5
:101B6800EF2E4038FC06DF2831A520DB16FCAF1429
:101B7800FCFDC3089E50DB16FCAF14FC0401006199
:101B8800D8A3BF14FC13BF16FCEF0536300271D280
:101B98001002C0C6C4C2BEFCC061FC7120F000E6E1
:101BA800FD961CF6BF2601E6BF2401710AE5710BFC
:101BB800E15007BF08015020BF10013007F0BF18DF
:101BC80001C9100002AF28015CFE085CFE08BF28AE
:101BD80001E6BF2A01BF2201D74C01DF1F711202A3
:101BE8007100240171020171220171002A01AF18EC
:101BF800016C40BF18013622017182D7710024019F
:101C0800362A017183710301712301711302D7C34D
:101C1800C5C17113026073A80A440000DD3F16A80D
:101C28000437B800A804440000DF04F410EF0D44A2
:101C3800FF00DF05CD10FFEF038B9D1000000000B3
:101C4800AF0001603163F9A8024400008D1061E81B
:101C580099A800B1440000A5A7B800DFC7D361F870
:101C68007112021006CEABACD77170F000CB9000A9
:101C780000713AE6713BE2713AEE713AEACB90FFB5
:101C88000EAE906C80BE90713BE6713BE2D7360693
:101C980000377100F000BFB6011736000037BF905B
:101CA8000117360100C9187D0037BFB2011744007B
:101CB80000DD1EB1FB8001DB8001374317DCEFEB51
:101CC8008001334513DCE7FB8001354715DCDFEF86
:101CD800E6E6BFB4017108F000D7A03AFC61FC1633
:101CE80030FFFFBBBC02D7F3C113318D12F6C3C15D
:101CF800A80416AC0212ABFDC93A13BC0255081071
:101D080004A7A7A731F51D30C104C130B71DC1A86C
:101D18000416AC0212AB0161FEFDC93ABB13BC024A
:101D28001004EF0EA80016AC0212AB0161FEBB1343
:101D3800BC0295DFCC1002D7C3C12004300200F7E3
:101D4800FDE409300200F7FDE4091004C3C133447F
:101D5800ADDE1361F844EFBEDF05F6B800B802A89F
:101D680006C1A806C1A80612A804FD863A1004C335
:101D7800C1300200F7FD5509100CD7717BFA5100EC
:101D8800718C7109FECBF800FA3600F9320001D2E5
:101D980061E88351CD9BA792DFFB93DFF8CEFC006F
:101DA800FD7F0A6168DD0FFCF81D003620FE530434
:101DB800F19BA793DFFBFD810AFDEF1DD2DD040136
:101DC80092DFFC440000D7C7C3C6127066D66073A2
:101DD8001367D6636108731366D6610BF743C7C2EE
:0C1DE800C6D7C1C0FDF21DEDEA1DEFFEE4
:041DF400FFFFFFFFEF
:101DF800C3C52004C8020030163CEF1CA7A7A7A73C
:101E08008EFD08C1C7A80416118C029EFC11AB6197
:101E1800CA1004C7C4980215B800A8001688029E04
:101E2800FD8EFD4C00DF0417443E3CDFCF1004C498
:021E3800C2D70F
:10200000FFFF0000FFFFFFFFFFFFFFFFFFFFF0FCF0
:10201000FF0000FC000000000000FFE00000FFA047
:102020000000001C0000000000FF0FF00000000096
:1020300000000000000000000000000000000000A0
:10204000FFFFFFFF00000000000000000000000094
:1020500000000000FFFFFFFF000000000000000084
:1020600000000000000CC40A8012983A480BC40A11
:042070008012983A08
:10207400711200711204D7C3C12004F198007113C6
:102084000451140091DFFC71130051140091DFFC22
:102094005182FD18244C01DF1FA80660FD18244C52
:1020A40001DF15A804FD18244C01DF0C8804FD1879
:1020B400244C01DF03E19800A80E12A80C5418FD6B
:1020C400BD3960FD18249803A80E60FD18249802F9
:1020D400A80CFD18249801880CFD182471130470B1
:1020E40051140091DFFC71120051140091DFFC7156
:1020F400120451140091DFFC880173880272880372
:10210400758800615D615A615B10086158D7C3C16D
:10211400C52006F19800F6B802B8047113045114EE
:102124000091DFFC71130051140091DFFCF3508027
:10213400605C82DD05711204EF0371130460311ACF
:102144007112007051140091DFFC51140091DFFCF6
:1021540071130051140091DFFCD0DFD471120471AB
:102164001A2451140091DFFC31120401E3711B2481
:1021740071120051140091DFFC51140091DFFC71C5
:10218400130051140091DFFCD361F8EDCC22A80AAE
:102194006073F198015080636158DD05711204EF9A
:1021A4000371130460311A7112007051140091DF2D
:1021B400FC51140091DFFC71130051140091DFFCF9
:1021C400D0DFD4711204711A2451140091DFFC3150
:1021D400120403E19801711B24711200511400913F
:1021E400DFFC51140091DFFC71130051140091DFE6
:1021F400FCAEF816A7318303EDCC22A80873F69839
:10220400015080636158DD05711204EF03711304FA
:1022140060311A7112007051140091DFFC511400E6
:1022240091DFFC71130051140091DFFCD0DFD471F5
:102234001204711A2451140091DFFC31120403E1D9
:102244009801711B2471120051140091DFFC511488
:102254000091DFFC71130051140091DFFC3185689B
:10226400880873F198015080636158DD0571120488
:10227400EF0371130460311A71120070511400914C
:10228400DFFC51140091DFFC71130051140091DF45
:10229400FCD0DFD4711204711A2451140091DFFCB4
:1022A40031120403E19801711B24711200511400CE
:1022B40091DFFC51140091DFFC7113005114009163
:1022C400DFFC318503E1980071130451140091DFA0
:1022D400FC71120051140091DFFC711204511400BE
:1022E40091DFFCAEF816318303EDEB237113045137
:1022F400140091DFFC71130051140091DFFCF1987C
:10230400015080605C83DD05711204EF03711304D6
:1023140060311A7112007051140091DFFC511400E5
:1023240091DFFC71130051140091DFFCD0DFD471F4
:102334001204711A2451140091DFFC31120403E1D8
:102344009801711B2471120051140091DFFC511487
:102354000091DFFC71130051140091DFFCA731835D
:1023640003EDEB23F1DBF8FF9801A3FD76244C0188
:102374009800DF12880170F1318DDBF8FFB804A3F7
:10238400F6FD7624980088004C01DF1E880170F168
:1023940012F6C3C1A80812F6FD863A100413DBF83E
:1023A400FFB804A3F1FD7624980088004C01DF1ED9
:1023B400880170F1F7318DC3C1A80812F6FD863A81
:1023C4001004DBF8FFB802A3E1FD7624980088002E
:1023D4004C01DF138801F770F1C3C1A80812A806E5
:1023E400FD863A1004B80271130451140091DFFC05
:1023F40071120051140091DFFC7112045114009108
:10240400DFFCA80412A80216A80637BB13BC028876
:1024140000100CD772F35080626158DD057112040C
:10242400EF0371130460311A71120070511400919A
:10243400DFFC51140091DFFC71130051140091DF93
:10244400FCD0DFD4711204711A2451140091DFFC02
:1024540031120401E3711B2471120051140091DF45
:10246400FC51140091DFFC71130051140091DFFC46
:1024740063D7C3C6711204711A24755380F0F254E1
:1024840001711200711A203112000880604C40DC86
:10249400F65400711B2051140091DFFC3114040424
:1024A40062616B7263311A7113007351140091DF0E
:1024B400FCD3DFCD65D1711B24DF05711304EF0359
:1024C40071120451140091DFFC71120031120008E2
:1024D40080604C40DCF6540051140091DFFC64D160
:1024E400711300DD02629B64D7CF31FC02F530FC2E
:1024F400717BFA711A22712304F1FDE11B711B2215
:10250400F52FFC717AFAD74C01DF21402FFC01DD55
:1025140016711A22E1FDE11B712204301400FD96AC
:102524001C711B22E52FFCCF30FC0AD7717BFAD536
:1025340030FCDF10711A22712304F1FDE11B711BC1
:1025440022F52FFC717AFAD7C3C1C5402FFC0120B4
:102554000ADD16711A22E1FDE11B71220430140018
:10256400FD961C711B22E52FFCCF30FC0AAF1EFC2C
:10257400B1F7FD303BB80633B808C1C3A81814A896
:102584001212A8100561D8A324010061D8B3FDAFCD
:102594003AC3C1A810C1A810C1A81A12A818FDAF47
:1025A4003A1004FDF23A1008DD4EFB1EFCB7A80CED
:1025B400615F08615E0816AF1EFC27B800C1A80C55
:1025C40014A81012A80EFD4C25A80C4400001002FB
:1025D400DD08A80016A80A07B80AA80016A8142738
:1025E400C1A80CC1C7C4A81212A8100561D8A3C4FD
:1025F400FD4C251002ED912651069802E6C1F61411
:10260400AEF804040012F6E1FD171C5102980440D0
:1026140031FC031002DF12A80E609803A80C980482
:10262400880C9805300400EF0BA80C9803880C98CC
:1026340004300300C1F614AEF804040012E1E0FD16
:10264400171C1002A814C1F614A80C12F6E1FD1709
:102654001C510B98021002EF04E6FD961C510598DC
:102664000251FF9803300200C1AEF804040014AE16
:10267400F804040012F6E1FD171CAEF80405001678
:1026840071841002DE078800919800DFCC1010D707
:10269400C3C1C5402FFC012004DD16711A22E1FDDF
:1026A400E11B712204301400FD961C711B22E52FDE
:1026B400FC5103CF30FC0A98004031FC03DF12A820
:1026C40008609801A806980288069803300400EF71
:1026D4000BA806980188069802300300C1F614AED0
:1026E400F804020012E1E0FD171C1002A80EC1F765
:1026F400A80614F6E1FD171C100CD7C3C1C5402F62
:10270400FC012008DD16711A22E1FDE11B7122048F
:10271400301400FD961C711B22E52FFC5103CF30B1
:10272400FC0A98004031FC03DF12A80C609801A851
:102734000A9802880A9803300400EF0BA80A98014B
:10274400880A9802300300C1F614AEF8040200129D
:10275400E1E0FD171C1002300400C1AEF8040600CD
:1027640014F6F7E1FD171C8809F770F1C3C1880C52
:1027740070F1318DC3C1880F70F112F6C3C1881294
:1027840070F1318D12F6FD863A1004FD863A10047C
:10279400FD863A16A80E371014BB13BC02D7C3C16A
:1027A400200E5418A81812A816FDBD39609806A862
:1027B40018609807A816980888169809402FFC01F5
:1027C400DD16711A22E1FDE11B712204301400FDB3
:1027D400961C711B22E52FFCCF30FC0AAF1EFCB106
:1027E400F7FD303BB80A33B80CC1C3A81412A812C1
:1027F40004030061D8A3FDAF3AC3C1A814C1A8144F
:10280400C1A81C12A81AFDAF3A1004FDF23A100830
:10281400DD47FB1EFCB7A80E615F08615E0816AFBA
:102824001EFC27B800C1AEF804080014A81212A8B0
:1028340010FD4C25A8021630040027C1C7C4AEF809
:10284400040A0005C1C7C4A81612A8140561D8A3B8
:10285400C4FD4C251004EDF62851069802E6C1F695
:1028640014AEF804040012F6E1FD171C510298049A
:102874004031FC031002DF12A810609803A80E98E0
:1028840004880E9805300400EF0BA80E9803880EF8
:102894009804300300C1F614AEF804040012E1E019
:1028A400FD171C1002300400C1F614AEF804080031
:1028B40012F6E1FD171C510B98021002EF04E6FD1D
:1028C400961C5105980251FF9803300200C1AEF8DE
:1028D40004040014AEF804040012F6E1FD171CAE63
:1028E400F80405001671841002DE07880091980030
:1028F400DFCC1012D73600FCF6BBBC02F52EFCF57B
:1029040032FCF52AFCF52BFCF52CFCD724A000DDC9
:102914004B240100DD56240100DD6724020061F828
:10292400ED142A240C00DD2F240100DD3A240100DB
:10293400DD4624020061F8ED0B2A241C00DD12247C
:102944000100DD1D240100DD28240200DD3FED1F10
:102954002AF52AFCED352AF52AFCEF20F52AFCEFAE
:1029640025E52AFCED352AE52AFCEF10E52AFCEFE3
:1029740015CF2AFC02ED352ACF2AFC02E52BFCED0B
:10298400352ACF2AFC02CF2BFC02ED352ACF2AFCB4
:10299400033604FCF6BBA1A1BC02300001BF1EFC3F
:1029A400CF31FC038F2AFC70F10104642016F7ABCD
:1029B400C3C1DB06FCAF04FCFD2C3A609F2DFCD5A3
:1029C4002BFC1004DD05311A9F2DFC8F2DFC4C0BC4
:1029D40061C8CF2DFC0A8F2AFCF770F1C3C18F2B7D
:1029E400FC70F1318DC3C18F2CFC70F116314E1285
:1029F4001731CDFD863A1004FD863A1004C3C1F6A2
:102A0400F7FD55091004D7CF2AFC03E52BFCEF8111
:102A1400CF2AFC03CF2BFC02ED9529300010F7FDE3
:102A2400401D8F2AFC4C03DC0861F8ED9529EDA8C4
:102A3400293604FC300080BBF6BC025040BF1EFCAB
:102A4400EDA829C1203251FF980C88334F2DFC6129
:102A5400C8ED0B33E1FD0B255103980DF6B81AB8F8
:102A64001C713202710202712202713300E6FD967A
:102A74001C713302E6FD961C713202E6FD961C5170
:102A84000698045117980598069807713301710345
:102A9400027123025106FD96337132018805FD96B9
:102AA400337132018806FD96337132018807FD9631
:102AB400337132017102027122025104CEABAC981F
:102AC40004713301710302712302FD9633713201E3
:102AD400710202712202CEABACF93AFC31120C1C29
:102AE40061ED00CEABACC38F3AFCC6570070F12742
:102AF4007C80441080DCE5300040B81C4032FC018E
:102B0400DF2331720D1F61ED00CEABACC38F3AFCF5
:102B1400C6570070F1277C80441080DCE53000400B
:102B2400B81CED3232A81C440000F661F8440000E1
:102B340061E8ED25329804D52BFCDF0451DFEF0268
:102B4400510F9805510B98067133017103027123DB
:102B540002F6FD96337132018805FD963371320118
:102B64008806FD96337132017102027122025161AD
:102B7400CEABAC9804E6148F2AFCD1DD0B91DD13A7
:102B840091DD1B91DD27EF3551989805F698065194
:102B940098EF1451689805F6980651D4EF095180BE
:102BA4009805E19806512898075404EF10E1980518
:102BB40051909806E19807512C98085405713301F7
:102BC40071030264D1712302DD23AEF8040400B85A
:102BD4001015B80EA810168BFD9633713201A8108B
:102BE400A1B810A80EB1440000B80EDFE7710202CC
:102BF4007122025150CEABAC9804D52BFCDF0451AA
:102C040097EF025177980571330171030271230222
:102C14005150FD96337132018805FD9633713201AE
:102C2400710202712202CEABACD52BFCDF0451132E
:102C3400EF02511098047133017103027123028869
:102C440004FD9633713201710202712202CEABACE3
:102C54008F2AFC70F10104642016F7ABB822F6B891
:102C6400248F2AFC70F101046C2016ABB80EF6B860
:102C740010D52BFCDF3BC3A824C1883770F1FDD9E4
:102C8400391004B81613B8184032FC0161E8ED2974
:102C94002DA8160161FEB81613B818A82214A81698
:102CA4000561D8A304000861D8A3B82613B828EF97
:102CB40074A8220161FEC3C1F7883770F1FDD939C8
:102CC4001004B81613B818A82214A8160561D8A3BE
:102CD400B81E13B8204032FC01DF3AA81812A81617
:102CE4000161FEB81613B818A8160561D8A3B81E5A
:102CF40013B820A81E0561D8A304000861D8A3B89E
:102D04002613B828A8260561D8A304000861D8A30F
:102D1400B82E13B830A82012A81E04000861D8A346
:102D2400B81E13B820A81812A81604000861D8A366
:102D3400B81613B818713201A80E44000061F8EDFA
:102D4400CF2D300400C1AEF804020014A81A12A852
:102D540018FD9426A81A12A81804040061D8A31018
:102D640002B81613B81888007CFF980088017CFF0D
:102D7400980188027CFF980288037CFF9803710302
:102D8400028800FD96337132018801FD9633713259
:102D9400018802FD96337132018803FD9633713246
:102DA40001710202712202CEABACA81012A80E244B
:102DB400040061D8B3B80E13B810A80E3344000051
:102DC4001361F844000061E8ED462D4032FC0161D6
:102DD400E8ED7B2E8F2AFC70F101046C2016ABB851
:102DE4000EF6B810A80E44000061F8ED7B2E3004F6
:102DF40000C1AEF804020014A82A12A828FD9426E3
:102E0400A82A12A82804040061D8A31002B8261323
:102E1400B82888007CFF980088017CFF980188020C
:102E24007CFF980288037CFF98037123028800FDCD
:102E340096337132018801FD96337132018802FDA7
:102E440096337132018803FD9633713201710202A7
:102E5400712202CEABACA81012A80E24040061D8D3
:102E6400B3B80E13B810A80E334400001361F8442D
:102E7400000061E8EDF22D402BFC0161E8EDF22F3A
:102E840051139804713301710302712302FD9633C7
:102E9400713201710202712202CEABAC7132018F28
:102EA4002AFC70F101046C2016ABB80EF6B810A819
:102EB4000E44000061F8ED462F300400C1AEF80462
:102EC400020014A82212A820FD9426A82212A820E9
:102ED40004040061D8A31002B81E13B82088007C33
:102EE400FF980088017CFF980188027CFF98028883
:102EF400037CFF98037103028800FD96337132014D
:102F04008801FD96337132018802FD9633713201D6
:102F14008803FD9633713201710202712202CEAB35
:102F2400ACA81012A80E24040061D8B3B80E13B8CC
:102F340010A80E334400001361F844000061E8ED6A
:102F4400BD2E4032FC0161E8EDF22F8F2AFC70F1B6
:102F540001046C2016ABB80EF6B810A80E4400009D
:102F640061F8EDF22F300400C1AEF804020014A899
:102F74003212A830FD9426A83212A830040400614D
:102F8400D8A31002B82E13B83088007CFF980088AC
:102F9400017CFF980188027CFF980288037CFF98DB
:102FA400037123028800FD96337132018801FD9676
:102FB400337132018802FD96337132018803FD9624
:102FC40033713201710202712202CEABACA810122D
:102FD400A80E24040061D8B3B80E13B810A80E3399
:102FE4004400001361F844000061E8ED692F5112B8
:102FF4009804713301710302712302FD9633713217
:1030040001710202712202CEABACE6FD961CAEF851
:1030140004120014308001F7FD12214C01DF2CA8AA
:103024001412A8126C04C3C1308001F7FD7B204C3C
:10303400011004DF16A81412A812618A6C04618AB4
:10304400C3C1308001F7FD7B201004F93AFC311232
:103054000C1C61ED00CEABACC38F3AFCC6570070BC
:10306400F1277C8044F080DCE5300010B81C40324D
:10307400FC01DF2131720D1D61ED00CEABACC38FBD
:103084003AFCC6570070F1277C8044F080DCE5A848
:103094001C6C10B81CA81412A8126C04C3C1308094
:1030A40001F7FD7B20AEF8042E0014308401F7FDF7
:1030B40012214C011004DF15A82CF1B82AF6B82C03
:1030C400882A70880C6140DE04882A980C51519833
:1030D40004713301710302FD9633713201CEABAC3E
:1030E400710302712A20F35080710200F1712400EF
:1030F40061DC72633119616A7360311A70D07103D3
:1031040000DFE663980F712B207102025151CEABA0
:10311400AC9804713301712302FD9633713201CEF0
:10312400ABAC712302712A20F35080710200F1715B
:10313400240061DC72633119616A7360311A70D0E2
:10314400710300DFE663980E712B20712202515047
:10315400CEABAC980451D798057133017103027159
:1031640023025150FD96337132018805FD96337167
:1031740032017102027122025182CEABAC9804F189
:1031840098057133017103027123025182FD963354
:103194007132018805FD9633713201710202712288
:1031A40002CEABAC300A00FD961CE19804F1980500
:1031B40098069807980898097133017103027123DE
:1031C40002E1FD96337132018805FD9633713201B7
:1031D4008806FD96337132018807FD9633713201FA
:1031E4008808FD96337132018809FD9633713201E6
:1031F400710202712202CEABAC300A00FD961C5162
:10320400029804713301710302712302FD96337134
:103214003201710202712202CEABAC300A00FD967B
:103224001CA81C440000F661F8440000DD11880D60
:1032340091980D61E8ED602AA81C12F6FD401D303E
:103244000A00FD961C7123007103007132007103A2
:1032540002712302713301713302301000F7FDE46F
:103264000904010061D8A3C3C1301000F7FD55095A
:10327400301200F7FDE409B81613B81888127088E4
:10328400136158100463DF046CC0EF025CBF731356
:10329400B814A81C440000F661F8440000A814DD2A
:1032A400046C30EF025CEFB814880CF770F1C3C102
:1032B400A81812A816F0FD863A1004B812880C73E8
:1032C400A81270636148DE1370F7318DC3C1A8186A
:1032D40012A816F1FD863A1004B812A81412A81206
:1032E400C3C1301200F7FD55098837980888109833
:1032F40009300200C1AEF8040A0014300004F7FDDE
:103304004C25E52EFC10061034D74F2DFC200672F8
:10331400DE7D8F2AFC70F10104642016ABB800D561
:103324002BFCDD0301B800A80014F6C1F3C513F7A4
:10333400FDD9391004B80213B804FB1EFC1547DC90
:1033440033AF1EFCC1F614A80612A80404000861D9
:10335400D8A3FD4C25A806EB1EFC12A8040561D8D1
:10336400A31002B80213B804A800221EFCB800C5BA
:10337400C647DECDA800440000DD14F1C1F614A850
:103384000612A80404000861D8A3FD4C25100210FD
:1033940006D771FC71210071020071030071EC7198
:1033A400210071020071030071DC712100710200BF
:1033B40071030071CC71210071020071030071BCB2
:1033C40071210071020071030071AC71210071025E
:1033D40000710300719C712100710200710300717E
:1033E4008C712100710200710300D7C3C1136020E6
:1033F40024F05C0F08B810F6B812A824F05C0F088B
:10340400B808F6B80A88104F2DFC61C8EDEC368870
:10341400084F2DFC61C8EDEC36E1FD0B258F2AFC2D
:1034240070F10104642016F7ABB800F6B8028F2AD5
:10343400FC70F101046C2016ABB818F6B81AD52B41
:10344400FCDF2A4032FC01DD61C3A802C1A814FDDF
:10345400D9391004B81413B816F6C1F7A802C1A8D4
:103464000CFDD9391004B81013B812EF714032FCB6
:1034740001DF37A8000161FE0161FEC3C1F7A81492
:10348400FDD9391004B81413B816A800F70161FE69
:103494000161FEC3C1F7A80CFDD9391004B810139B
:1034A400B812A818F70161FEEF2CA8000161FEC351
:1034B400C1F7A814FDD9391004B81413B816A8001C
:1034C400F70161FEC3C1F7A80CFDD9391004B81087
:1034D40013B812F7A8180161FEB81813B81AA81681
:1034E40012A81404000861D8A3B81413B816A800CD
:1034F40014A8140561D8A3B82013B822A81212A8DE
:103504001004000861D8A3B81013B812A8100561FC
:10351400D8A3B81C13B81EA818B808A81AB80A1259
:10352400A808334400001361F844000061F8EDFF7B
:1035340035A808B800A80AB80212A800334400004D
:103544001361F8440500DC08300400B800F6B80242
:10355400A800C1AEF804060014A81812A816FD9419
:10356400261002AEF804240016319534A800C1AE2A
:10357400F8040E0014A81412A812FD9426880E70E4
:10358400880661689806880F16AEF8040700376D40
:10359400A7980788106DA7980888116D98091002DC
:1035A400A800C1AEF804060014A81412A812FD4C19
:1035B40025A80416A80214A81812A8160561D8A3F1
:1035C4003307100233B81413B816A81212A8100542
:1035D40061D8A3330733B81013B812A80A12A80885
:1035E4002561D8B3332733B80813B80ACEABACA8D7
:1035F4000861F844000061E8ED35354032FC0161B2
:10360400E8EDEC36A818B808A81AB80A12A80833C6
:103614004400001361F844000061F8EDEC36A8089A
:10362400B800A80AB80212A800334400001361F8D5
:10363400440500DC08300400B800F6B802A800C154
:10364400AEF804060014A82412A822FD9426100241
:10365400AEF804240016319534A800C1AEF8040E67
:103664000014A82012A81EFD9426880E70880661F6
:10367400689806880F16AEF8040700376DA79807F8
:1036840088106DA7980888116D98091002A800C1C8
:10369400AEF804060014A82012A81EFD4C25A804A8
:1036A40016A80214A82412A8220561D8A33307106F
:1036B4000233B82013B822A81E12A81C0561D8A38F
:1036C400330733B81C13B81EA80A12A8082561D8FA
:1036D400B3332733B80813B80ACEABACA80861F8E3
:1036E40044000061E8ED22361028D7C3C12022AE81
:1036F400F8041A00FDE71CE1FD0B25F6B80EB8101E
:103704008F2DFC70F144000061F8ED9439880E723D
:10371400300001FDC41D16A822615F08615E0844E3
:10372400000061F8ED6D398F2AFC70F1010464200A
:1037340016F7ABB800F6B8028F2AFC70F101046CDE
:103744002016ABB812F6B814D52BFCDF1B4032FCA4
:1037540001DD3CC3A802C1A81412A812FDD9391076
:1037640004B80A13B80CEF484032FC01DF21A8006A
:103774000161FE0161FEC3C1A81412A812FDD9396A
:103784001004B80A13B80CA812F70161FEEF19A8C7
:10379400000161FEC3C1A81412A812FDD939100496
:1037A400B80A13B80CF7A8120161FEB81213B814C2
:1037B400A80C12A80A04000861D8A3B80A13B80C0C
:1037C400A80014A80A0561D8A3B81E13B820A8122B
:1037D400B806A814B80812A806334400001361F808
:1037E40044000061F8ED9B38A806B802A808B804A4
:1037F40012A802334400001361F8440500DC0830C9
:103804000400B802F6B804A802C1AEF80418001403
:10381400A80E12A80CFD9426F19802A80612A8047A
:103824003344000010021361F8440000DD358800C1
:1038340076AEF8570004160007168B72AEF8041A19
:1038440000FDEF1C8800819800AEF8040200168881
:103854000070F14E03DF0A4E02DF064E01DF026004
:103864004DDCCBA80416A80214A80C12A80A056102
:10387400D8A3330733B80A13B80CA80812A806252E
:1038840061D8B3332733B80613B808A80661F844DF
:10389400000061E8EDEC374032FC0161E8ED6D3980
:1038A400A812B806A814B80812A8063344000013D6
:1038B40061F844000061F8ED6D39A806B802A80863
:1038C400B80412A802334400001361F8440500DC74
:1038D40008300400B802F6B804A802C1AEF804180F
:1038E4000014A82212A820FD9426F19802A806121A
:1038F400A8043344000010021361F8440000DD35CD
:10390400880076AEF8570004160007168B72AEF8DE
:10391400041A00FDEF1C8800819800AEF804020030
:1039240016880070F14E03DF0A4E02DF064E01DFF7
:1039340002604DDCCBA80416A80214A82012A81E0D
:103944000561D8A3330733B81E13B820A80812A8FA
:10395400062561D8B3332733B80613B808A806611F
:10396400F844000061E8EDBE38A81012A80E040166
:103974000061D8A3B80E13B8108F2DFCF770F1C3F3
:10398400C1A81412A812FDF23A100461D8ED11373F
:10399400A81C12A81AC3C1301500F7FD5509102A36
:1039A400D7C5618CD1618CDD060161FE94DFFA1408
:1039B4006168616B616A15C4D7C58494DD0D3331C8
:1039C4001E3361FB0861FB0894DFF3146168616BCB
:1039D400616A15C4D7C5C72004C3C1AEF814041066
:1039E4000016AD20C1AD22C1F422F7F4208D208150
:1039F4009D218BB77089A5D6031261D8A422B42166
:103A0400DFF0C7AEF8062016629C0A6372E822F45F
:103A14002215C416A5A420312420D2C0BD22C0BDC5
:103A2400201004C0C2C6C4D7C53335C7FD493BFD09
:103A3400883B65616C616A616B3533C6C4D7C53335
:103A440035C7FD493BC1C7C1AEF816C0617D61AD44
:103A540005C6618D61DCDE0A61FB618DFD593BEEBB
:103A6400040061FB618D317503FD703BFD883BC033
:103A7400317503FD593B65616C616A616B3533C611
:103A8400C4D7C53335C7AEF816618A6E08618A613A
:103A94008B6E09618B618C6E0A618C618D6E0B7506
:103AA400616C616A616B3533C6C4D7C53335C7FBF6
:103AB400F8FF625E0872635E0973645E0A70655E95
:103AC4000B33C6C4D7C53335C7AEF816618A7E0832
:103AD400618A618B7E09618B618C7E0A618C618D48
:103AE4007E0B75616C616A616B3533C6C4D7C533AF
:103AF40035C7AEF816622E0870633E096160643EF5
:103B04000A6160653E0B61603533C6C4D7C5353084
:103B1400000008612C08613D3530000008613A0856
:103B2400613B126168616D616C15C4D7C5087CFF87
:103B3400087CFF1413087CFF087CFF126168616D28
:103B4400616C15C4D7AEF8168C0C088C0DC18C0EA4
:103B5400708C0FC6D7C130000008612A08613B127F
:103B640030000008613C08613D14C0D7C312300026
:103B74000008612E08613F16706178613A706178BF
:103B8400613BC2D7C1C7C5C3AEF8168C046E056EBF
:103B9400066E07DF0B320000340000C6C6EE6E006E
:103BA40052203000001461AC610161AC61AD01616F
:103BB400DC61AD0161AD0261DC61AD0261AD036147
:103BC400DC61AD03618C61DC618C618D61DC618DD4
:103BD4000861DC0861DC4E07DF04084E0608DC29B6
:103BE400DF10618D4E05618DDF06618C4E04618CA2
:103BF400DC17618C2E04618C618D3E05618D083E5D
:103C040006083E0761AC8161AC92DF9AC2C4C6C6A5
:013C1400D7D8
:103C1600DC3C00000400000020FE0F00DC3C00003D
:103C26003702000004FA0F003E3C000004000000CA
:083C3600F41D000000FA0F006C
:103C3E00C3C5200CA8141688169EFD11ABB808112A
:103C4E00AC02B80AC7C4118A06980611AA04B804B1
:103C5E00118A0A980211AA08B800EF4FA804168814
:103C6E00069EFD118B73A8001688029EFD63119BA4
:103C7E00A8041488069EFDE605A561D8A0FDFF8E5A
:103C8E00FD980615B804C7C488029EFDE605A56119
:103C9E00D8A0FDFF8EFD980215B800A80A12A8083C
:103CAE0024010061D8B3B80813B80AA80A12A808EC
:103CBE003344000013DF02F743DFA1A81416881661
:103CCE009EFD17040C00168EFD100CC4C2D7C3C582
:103CDE002008A8101688129EFD11ABB80411AC0274
:103CEE00B806C7C4118A06980211AA04B800A80023
:103CFE001688029EFDF1119BC7C4E605A561D8A0EA
:103D0E00FDFF8EFD980215B800A80612A804240126
:103D1E000061D8B3B80413B806A8043344000013E6
:103D2E00DF02F743DFC8A8101688129EFD1704089D
:093D3E0000168EFD1008C4C2D766
:0400000500001D8357
:00000001FF
