:02000000961D4B
:02001E003F1A87
:02002A00F51CC3
:0400C0007FFFAA0410
:0A00C4000000000000000000000032
:1000D800F6BF18FCBF1AFC200CBF1CFCF528FC71ED
:1000E8007BFA363CFBBB510CBC02717AFA8EA8D164
:1000F8007461F8ED0002717BFAAF40FBB808AF42BB
:10010800FBB80A717AFA12A808318E3316318E3389
:1001180037318D07B80013B802880075A800318EF2
:100128003316318E3337318D07B800F6B802647054
:10013800F1C3C1A804F008C3C1880870F1C3C16144
:100148008D74C3C5A81A12A818318C16318E0312E3
:1001580017318DC40561D8A3C6318C16318E0312B0
:1001680017318DC40561D8A3C6318C16318E0312A0
:1001780017318DC40561D8A3C6F0FDA13A618B6C17
:10018800801004618BB80413B806A804318E3316A6
:10019800318E3337318D07B80013B802880074A840
:1001A80000318E3316318E3337318D07B800F6B8EB
:1001B80002717BFAA800F008C3C1880470F1C3C1BA
:1001C800C3C5881070F1318DC40561D8A3C6318CC0
:1001D80016318E031217318DC40561D8A3C6318C30
:1001E80016318E031217318DC40561D8A3C6BF40DE
:1001F800FB13BF42FB717AFA717BFA3664FB30005D
:1002080001BBBC02717AFA717BFA3668FBBBBC028F
:10021800717AFA717BFA366CFBBBBC02717AFA719F
:100228007BFA3670FBBBBC02717AFA717BFA3674C2
:10023800FBBBBC02717AFA717BFA367CFBF6BB30E9
:100248005208BC02717AFA717BFA3680FBF6BB5011
:10025800FFBC02717AFA717BFA3694FBF6BBBC02DA
:10026800717AFA100CD7201A717BFADB96FB717A37
:10027800FA139808ED9D03717BFAAF4CFBB804AFF5
:100288004EFBB806880475A80612A804318E3316EA
:10029800318E3337318D07B80413B806880474A833
:1002A80004318E3316318E3337318D07B804F6B8E2
:1002B80006A804F008C3C1880870F1C3C16470F1CE
:1002C800C3C16570F1318DC40561D8A3C6318C16E0
:1002D800318E031217318DC40561D8A3C6318C162F
:1002E800318E031217318DC40561D8A304FA006159
:1002F800D8A3C6B80013B802880075A800318E3399
:1003080016318E3337318D07B80013B80288007460
:10031800A800318E3316318E3337318D07B800F689
:10032800B802A800F008C3C1880470F1C3C16470A2
:10033800F1C3C16570F1318DC40561D8A3C6318C94
:1003480016318E031217318DC40561D8A3C6318CBE
:1003580016318E031217318DC40561D8A3C6BF4C60
:10036800FB13BF4EFBD530FC61E8B030FCB03AFC63
:10037800717AFAAF00FCDB02FC04010061D8A3BF6C
:1003880000FC13BF02FCA033FCA034FCA220FCA29A
:1003980022FCA226FCD53AFC61E8ED7F02F1ED4291
:1003A80004607CFF7365615B7560311A70D0DF3B58
:1003B8006473AEF8040A0016658461D9644C10DFD2
:1003C80026301000C1AEF8040C0014A80812A806C4
:1003D800FD4C25A80812A80604100061D8A3100235
:1003E8005400B80413B806508055008802D161E85B
:1003F800ED6705880191980161E8ED570564D1DF43
:1004080005604C80DD24604C80DD0C6473AEF8041C
:100418000A00166561D9845500C5AEF8040C0014AD
:10042800A80812A806FD4C251002AF1AFC440001CA
:10043800DC04F6BF1AFC88000C049800717BFA886B
:1004480000765700AF1CFC27BF1CFCAF1CFC717A60
:10045800FA440000DF03101AD7DB1AFC4904FA98A3
:1004680000A21AFCEB1AFCA21AFCFB1AFCA21AFC4A
:10047800DB1AFC4904FAF770F1C3C1C7C24904FA90
:10048800F770F1C3C1C5C24904FA70F1F7318DFDA7
:10049800A13A16318E1217318D1004FDA13A1004BD
:1004A800B80413B806A21AFCA80424000861D8B33B
:1004B800334400001361F8440008DE34880070F10A
:1004C800C1AF1AFC0404FA14A80812A806240008EC
:1004D80061D8B3FD4C25880270F1021AFCBF1AFCE2
:1004E800AF1AFC440001100261D8ED3E04ED3A0455
:1004F8008808D1DF24A80612A80433440900336110
:10050800F8440000DE71880070F1C1AF1AFC0404E1
:10051800FA14A8062400F8EFB74C0161E8ED3E0490
:10052800A80612A804334401003361F844000061AE
:10053800D8ED3E042400F861D8B3B80413B806888F
:1005480000D150805400550061F8ED32049801DB69
:100558001AFC4904FA98035C7F81A21AFC98028865
:100568000291980216AEF80403003731F303EDA99F
:1005780003656168EDB0032400F861D8B33324083B
:100588000033EFB6BFFCFB13BFFEFBF528FCD770AA
:100598008F28FC4C30DE087360189CFBA028FCD721
:1005A8008F28FCD1200474F528FC61F8EDC008DB25
:1005B800FEFBAFFCFB334400003361F8440008DE67
:1005C8000C3600FA30FFFFBBBC02ED8106AF02FA21
:1005D800C1AF00FAC1AFFCFBFD0D3B1004DF48645E
:1005E8004F29FCDF425500EF0D73099CFB7009CCC5
:1005F800FB6140DF328565614CDE2473099CFB702A
:1006080009CCFB6140DF208565614CDE1273099CD3
:10061800FB7009CCFB6140DF0E8565614CDCCA6567
:10062800614C61F8EDC008DBFEFBAFFCFBBF00FAD4
:1006380013BF02FA649F29FC5C03550070DD0C654A
:100648007385099CFB9018CCFBDFF464312A70D0C9
:10065800DD27657385099CFB18CCFB657385099CB0
:10066800FB18CCFB657385099CFB18CCFB6573856F
:10067800099CFB9018CCFBDFD9AFFCFBDBFEFB240D
:10068800000861D8B3334400001361F8440008DC63
:1006980015DBFEFBAFFCFB334400003361F844007C
:1006A800F861D8ED68076470F1021CFC040400448A
:1006B800010161C8EDC008DB18FC644804FAA218FF
:1006C800FCAFFEFBDB18FC604804FAA218FCDB1840
:1006D800FCAFFCFB4804FAA218FCDB18FC8FFCFBFF
:1006E8004804FA645C03A218FC550070DD126573B7
:1006F80085099CFBDB18FC904804FAA218FCDFEE85
:1007080064312A70D0DD3F657385099CFBDB18FCDA
:100718004804FA65A218FC7385099CFBDB18FC48A1
:1007280004FA65A218FC7385099CFBDB18FC4804D5
:10073800FA65A218FC7385099CFBDB18FC90480439
:10074800FAA218FCDFC1AF18FC440001DC04F6BFB4
:1007580018FC640C0470F1021CFCBF1CFCEDC00802
:10076800334400003361F844C060DF2636FCFB30B8
:100778001400BBF6BC028FA0FB9F9CFB8FA1FB9FC4
:100788009DFB8FA2FB9F9EFB8FA3FB54049F9FFBA7
:10079800EF16334400001361F8447C00DF0A36FC8E
:1007A800FB301C00BBF6BC02AFFCFB0438FBB802F4
:1007B800AFFCFB0400205500B800EF40A800168CE1
:1007C800027CFF706573099CFB6158708C0273167C
:1007D800A802378C02615B61689C02AFFCFBDBFE00
:1007E800FB04010061D8A3BFFCFB13BFFEFBA800FC
:1007F80085040300B80017040300B80265614C6162
:10080800C8EDC008DBFEFBAFFCFB334400001361FE
:10081800F844640061C8EDC008A800168B7CFF701E
:100828006573099CFBC76158C27016A802378BC351
:10083800C65D616873A80216639BAFFCFBDBFEFB19
:1008480004010061D8A3BFFCFB33BFFEFB33856105
:100858008D614C618DDE61334400001361F844649E
:1008680000DE55A80016A78B7CFF706573099CFBFA
:1008780061587016A80037C7C216A80237A7A38BFD
:10088800C3C65D616873A80216A7639BAFFCFBDB58
:10089800FEFB04010061D8A3BFFCFB33BFFEFB33A2
:1008A80085618D614C618DDE0F334400001361F862
:1008B80044640061D8EDC4071004D7C3C1C1F198DE
:1008C80000A802334400003361F84400F8DC1E2419
:1008D80000F861D8B3B80213B804AF06FCC1AF047E
:1008E800FCC1A806FD0D3B1004DE5AEF33240008B6
:1008F80061D8B3334400001361F8440008A8041217
:10090800A802DE3024000861D8B3B80213B804AFD7
:1009180006FCC1AF04FCC1A806FD0D3B1004DE2592
:10092800E6C1AEF804020014A80612A804FD942635
:100938001002EF11334400001361F8446400DE052F
:100948004938FB9800F529FC88001006D7C3C13345
:1009580044000020041361F8441900DE7CA80E123C
:10096800A80C318E3316318E3337318D07B800130A
:10097800B802880074A800318E3316318E333731AF
:100988008D07B800F6B802717BFAA800F008C3C159
:100998005500880470F1C3C1C3C5881870F1318D42
:1009A800C40561D8A3C6318C16318E031217318D58
:1009B800C40561D8A3C6318C16318E031217318D48
:1009C800C40561D8A3C6C3C1A808312D0438FB16D5
:1009D800C0C2BB13BC02717AFA1008D7C3C1200881
:1009E800F6B804B806A808334400001361F844199F
:1009F80000DE7C717BFA312D0438FB16ABB804ACF1
:100A080002B806717AFA12A804318E3316318E3381
:100A180037318D07B80013B802880074A800318EEA
:100A28003316318E3337318D07B800F6B802A80077
:100A3800F008C3C15500880470F1C3C1C3C588104C
:100A480070F1318DC40561D8A3C6318C16318E037F
:100A58001217318DC40561D8A3C6318C16318E03A7
:100A68001217318DC40561D8A3C6B80413B806A8F7
:100A78000612A804100CD7E6D7200E717BFACF77A0
:100A88000000CF760000CFA80002CEA000717AA1A6
:100A9800714BA4CFF30010710BA1CD0008CE20F04C
:100AA800CF500002CF300002CD0115CE21E2CF3168
:100AB8000000CF510000CF410000CF610000CD02FF
:100AC80007CF760001CE2200CD0404CE24F8CF341F
:100AD8000002CF540002CF640000F406CE2603CFF4
:100AE8003C0011712AE4712BE0713AE4713BE0712A
:100AF8004AE4714BE0715AE4715BE0FD841CFDB679
:100B08001BFDD800FD7420EBF8FFF6F7FD1221D18C
:100B1800DF07300008F7FD531D712304FDF419FDAC
:100B2800ED24FDF928360CFCF6BBBC023608FCCFD8
:100B380035FCFFF533FCF534FCBF20FCBF22FCBFBD
:100B480024FCBBBC02BF26FCCF780080717AFAFD7A
:100B58005E15EF0B36310271F200000061FD00D521
:100B680039FCDD0B717BFAB039FC717AFAEF08D5E4
:100B78003AFC61F8EDF912FD6E028F34FC4CF1DCA1
:100B88004EEBF8FF30A001F7FD1221F6C130230328
:100B9800C1F6C1304502C1F6C130E803C1A80E1242
:100BA800F633F1FDF4392485C061D8B333B133107D
:100BB80004FDF4391004FD5D3A04204E61D8A310F9
:100BC80004C3C1301100F7FD5509F534FC10043099
:100BD8001800F7FDE4091004C3C188005C07DD2E86
:100BE800AEF81631A505FD8918EF0C318505FD5EB7
:100BF80015EF04319501FFA80212A800F0C3C13017
:100C08001800F7FD5509F6BF26FC1004EF16AF26AD
:100C1800FC44100EDC0EAEF816A731A503FD8918AA
:100C2800F6BF26FCAF22FC44600961D8EDC40CF67F
:100C3800BF22FCEBF8FF301812F7FD1221A80212B0
:100C4800A800334400001361F8440000DF06F6BF33
:100C580024FCEF68EBF8FF30AC11F7FD1221AF0A66
:100C6800FCC1AF08FCC1A80612A804FD0D3B100486
:100C7800AF24FCDF21442001DE36A1442001A22458
:100C8800FCDF2D300006C130CF6AC1301412F7FDE9
:100C98007B201004EF1A442001DC11300006C1301B
:100CA8000E04C1301412F7FD7B201004F6BF24FC9B
:100CB800A80212A800BF08FC13BF0AFCAF20FC441E
:100CC8004138DC2EEBF8FF301812F7FD1221A8028C
:100CD80012A800334400001361F8440000DF0FF647
:100CE800C130A107C1301812F7FD7B201004F6BFF0
:100CF80020FC300400F7FDE4091004C3C1AEF81667
:100D0800318548F19804D52DFCDD31880474300014
:100D180001F7FDC039C3C1A80612A804FDCA3A33B9
:100D280044000010041361F8440000DD058804FD48
:100D3800293388048198044F2DFCDCCFF6B800B81D
:100D480002C1C15004F7FD55091004301300F7FD26
:100D5800E4091004C3C1AEF81631851BA800FD0ACA
:100D680034A80212A800085CFE08B800C3C13013FA
:100D780000F7FD55091004301400F7FDE4091004CC
:100D8800C3C1AEF81631851BA800FD0A37A80212A8
:100D9800A800085CFE08B800C3C1301400F7FD5570
:100DA800091004402EFC01DF0D3600FCF6BBBC0226
:100DB800F52EFCEDF912DB02FCAF00FC3344000019
:100DC8001361F844150061D8EDF912F19804500741
:100DD800F7FDE4091004C3C1AEF816318566880032
:100DE800311A5C0FFD4C2AA80212A800085CBE0844
:100DF800B800086C2008B800C3C1300700F7FD55DB
:100E080009300500F7FDE409B80813B80A30FF03F4
:100E1800C13000FCC1A80A12A808316E3316316E21
:100E2800333731AD07FDCA3A14A80E16A80C35059C
:100E380061D8A3330733BF0CFC13BF0EFCE1980C39
:100E48001008EF2231E51F31D5068F35FCFD4C2AFD
:100E5800A80212A800085C9F08B800C3C1300700A8
:100E6800F7FD55091004AEF81631D547300500F7DF
:100E7800FDE409C314AF0CFCDB0EFC2561D8B3C636
:100E880013275C80F27313440000F661F8440000F5
:100E9800DD1E8F35FCFD4C2AA80212A800085CDF75
:100EA80008B800C3C1300700F7FD55091004EF0367
:100EB800E19804300300F7FDE4091004C3C1AEF85B
:100EC80016318303ED530F31931DDB02FCAF00FC99
:100ED800334400001361F8447900DE0BE935FCA8BF
:100EE8000070636148DD4E300600F7FDE4091460C8
:100EF8005C21DD1015085CDE08C3C1300600F7FD73
:100F080055091004300800F7FDE40914605C07DD9A
:100F18001015085CF808C3C1300800F7FD55091022
:100F280004A8009F35FCAEF8040400163183068F30
:100F380035FCFD4C2AA80212A800085CFC08B80081
:100F4800C3C1300300F7FD55091004300600F7FD52
:100F5800E4091004C3C1AEF81631857A300500F7EC
:100F6800FDE409B80613B808A8021613275C80F236
:100F78007313440000F661F8440000DF598800311B
:100F88001A5C0F9F35FCAEF8040400163183068FF7
:100F980035FCFD4C2AA80212A800085CFE08B8001F
:100FA800086C2008B800C3C1300600F7FD550930A9
:100FB8000800F7FDE409B80413B80688045C0610B5
:100FC80004DD13A800085CF908B800C3C1300800A4
:100FD800F7FD55091004300800F7FDE4091004C3B3
:100FE800C1AEF816318303ED7E11300500F7FDE43C
:100FF80009B80613B808A80212A800085CE008BFE0
:1010080010FC13BF12FCA80812A8062210FC61D815
:10101800B3332212FC3316AEF804060037A7B8061D
:1010280013A7B808A731F503EDF912A80212A80012
:10103800085CFE08B800086C0408B800C3C1300892
:1010480000F7FD5509300A00F7FDE409B80413B8A4
:1010580006A80431CE609F36FC88045C0F9F37FCDD
:101068001004EF26C3C6A80827B808FB12FC13070C
:10107800BF12FCA036FCB037FCDF0FA80031CE60F1
:101088009F36FC88005C0F9F37FC8F36FC311A7046
:10109800F1040B001231FF33FDE409B80A33B80C30
:1010A8003636FC318506F6B80A13B80CF6B80AAE1F
:1010B800F804060016A80C4E0312DF0B624E02DF7E
:1010C80006F64E0161F84DDC9B8F36FC4C08DE18A5
:1010D800300900F7FDE409B80613B80851072F36A0
:1010E800FC312974A806EF1CDF0DA80212A80054D1
:1010F8001CFDD83960EF134036FC09DF12A8021234
:10110800A8005418FDD839605C0F9F35FCEF04CF58
:1011180035FC0F8F35FC70318D1231FF33C3C1A8F8
:101128000612A8045CF0FDA13A1004B80013B80236
:10113800A800C3C1300A00F7FD55091004AEF80431
:101148000400163183068F35FCFD4C2A300600F763
:10115800FDE4091004C3C1AEF81631D303EDF9124A
:10116800A800085CDF08B800C3C1300600F7FD55C9
:10117800091004EDF91288005C064C0661E8EDF9E7
:10118800128F36FC4C0A61C8EDF512311A70F10461
:101198000B001231FF33FDE409B80633B8083636C0
:1011A800FC318506F6B80613B808A80812F602102E
:1011B800FC330212FC33B80633B808C1C33005004B
:1011C800F7FDE409C42561D8B3C613275C80F27320
:1011D800F633440000F661F844000061E8EDF912C6
:1011E800500AFDE4091004C3C1EF0615B80617B884
:1011F80008A80812A806BF10FC13BF12FCA036FCF2
:10120800B037FCDF0FA80031CE609F36FC88005C49
:101218000F9F37FC8F36FC311A70F1040B00123126
:10122800FF33FDE409B80A33B80C3636FC318506BD
:10123800F6B80A13B80CA80C12F60210FC33021206
:10124800FC33B80A33B80CC1C3300500F7FDE40914
:10125800C42561D8B3C613275C80F273F633440003
:1012680000F661F8440000DD828F36FC4C08DE177A
:10127800300900FDE409B80613B80851072F36FCF9
:10128800312974A806EF1CDF0DA80212A800541C0F
:10129800FDD83960EF134036FC09DF12A80212A806
:1012A800005418FDD839605C0F9F35FCEF04CF352A
:1012B800FC0F8F35FC70318D1231FF33C3C1A80686
:1012C80012A8045CF0FDA13A1004B80013B802A8F3
:1012D80000C3C1300A00F7FD55091004AEF8040434
:1012E800001631830C8F35FCFD4C2AEF04CF35FCFA
:1012F8000FCEABACF1FD0B25D538FCDF098E515C68
:10130800B261F8ED5C0B61EDED660B2018E1980019
:10131800AEF804020014F6F7FDFF26A802B808A8E4
:1013280004B80AAEF804020014300400F7FDFF26E2
:10133800A80416A80214A80A12A8080561D8A3339D
:101348000733B80813B80AAEF804020014300800CE
:10135800F7FDFF26A80416A80214A80A12A8080573
:1013680061D8A3330733B80813B80A15F1B80CF6D7
:10137800B80E880C4C3FDE75A80C01B80C12300C66
:1013880000B810F6B812DD4213B806AEF804020031
:1013980014A81212A810FDFF26A80416A80214A863
:1013A8000A12A8080561D8A3330733B80813B80A86
:1013B800A81212A81004040061D8A3B81013B81218
:1013C800A806B1440000B806DFC1AEF80414001442
:1013D800A81212A810FDFF26A816C1A816C1A80EAB
:1013E80012A80CFD4B3BFD0D3B1004DD03F19800EA
:1013F80088001018D72018E19800AEF804040014EB
:10140800300002F7FDFF26A804B80CA806B80EA8FD
:1014180004F7F1B80433B80688044C4061C8EDB24B
:1014280014300402B808F6B80AB80213440000DD04
:1014380056AEF804100014A80A12A808FDFF26A842
:101448001216A81014A80E12A80C0561D8A3330709
:1014580033B80C13B80EA80A12A80804040061D8FF
:10146800A3B80813B80AA802A1B802AEF804040089
:1014780016A802F7618B4E03DF0B4E02DF07634E9F
:1014880001DF02604DDCAAAEF804140014A80A12A9
:10149800A808FDFF26A816C1A816C1A81212A810F0
:1014A800FD4B3BFD0D3B1004DD03F19800EDF813F7
:1014B800201AF6B80EB810E19800E6C1AEF8040696
:1014C8000014300302F7FD9426880670F11002F725
:1014D800A1B80A33B80C13444000DE72300003B8D8
:1014E80006F6B80813440000DD41B802AEF804124D
:1014F8000014A80812A806FDFF26A81416A812149E
:10150800A81012A80E0561D8A3330733B80E13B874
:1015180010A80812A80604040061D8A3B80613B8D6
:1015280008A802B1440000B802DFC1AEF8041600F2
:1015380014A80812A806FDFF26A818C1A818C1A853
:101548001412A812FD4B3BFD0D3B1004DD03F1986E
:10155800008800101AD7201E301800F7FDE409B8DB
:101568000C13F3B80E13B80EFD13134C0198026157
:10157800E8EDF117A80E12531013B80E300200C18F
:10158800AEF804020014300200F7FD9426880370B8
:10159800F1F7318DC3C1880670F1318D12F6FDA1C6
:1015A8003A1006B80413B806A804C3C1F6F7FD7BC1
:1015B80020880576880470318D08616E08FD102931
:1015C800300200C1AEF804060014300400F7FD94A0
:1015D800268807F770F1C3C1880A70F1318DFDA123
:1015E8003A100AB804F6B806A804C3C1309011FD31
:1015F8007B20AEF804080014300600F7FDFF26A88B
:101608000A12A808C3C1309411F7FD7B20E6C1AEC9
:10161800F8040A0014300B00F7FD9426880A100A13
:1016280070F1F7B81633B818500CB810F6B8121392
:1016380044000061F8EDFA16B814AEF80408001476
:10164800A81212A810FDFF26A81212A81004040060
:1016580061D8A3B81013B812AEF804040014A81087
:10166800FDFF26A81212A81004040061D8A3B81020
:1016780013B812A80A12A8085418FDD8396075A81A
:101688000A12F313B80A654C41DF13A80612A8041E
:10169800C3C1A80E12A80CFD7B201004EF474C20F4
:1016A800DF43A80612A804C3C1A80E12A80CFD5552
:1016B80009A80E12A80C3344000010041361F84462
:1016C8006000DF2130FF00C13000FFC1A80A12A866
:1016D80008FDCA3AC3C1A81612A814FDA13A1008F9
:1016E800B80C13B80EA814B1440000B81461E8EDA2
:1016F8004216E6C1AEF804020014300303F7FD9465
:10170800261002AEF816318303EDF117E6C1AEF8E4
:1017180004020014300302F7FD94268802100270B8
:10172800F1B816FDFD134C019802DF0BA80E6C20D2
:10173800B80EFDB814980288024C0161E8EDF11763
:10174800A80E6C40B80E300402B810F6B812300477
:1017580003B81AF6B81CA81644000061F8EDF11792
:10176800B814AEF804080014A81212A810FDFF2639
:10177800A81212A81004040061D8A3B81013B81254
:10178800AEF804040014A81C12A81AFDFF26A81C11
:1017980012A81A04040061D8A3B81A13B81CA80A1E
:1017A80012A8085418FDD8396075A80A12F313B89E
:1017B8000A654C41DF11A80612A804C3C1A80E127D
:1017C800A80CFD7B20EF134C20DF11A80612A804FB
:1017D800C3C1A80E12A80CFD55091004A814B144E1
:1017E8000000B81461E8ED6A17AEF8040C0016A7FB
:1017F800319575300200C1AEF804020014300004BF
:10180800F7FD94268803100270F1B808F6B80A8824
:1018180000FD4C2A301200F7FDE409B80413B8069D
:10182800A804F116AEF804040037B804F6B806A800
:101838000A12A808618B4E03DF0C624E02DF0763B1
:101848004E01DF02604DDE20A80A16A80814A8047D
:10185800F72561D8B333274400001361F8440D001D
:10186800DC06A80E6C02B80EA80E12A80C618B6CD0
:1018780001618BC3C1301800F7FD55098806102295
:10188800D72022F6B80AB80CFDFD134C0161E8ED2B
:10189800F119E6C1AEF804060014300302F7FD940E
:1018A8002688069804FDB81498031002300402B87C
:1018B8001AF6B81C300403B806F6B8088802D161D5
:1018C800F8ED95199800AEF8040E0014A81C12A89B
:1018D8001AFDFF2688014C01DF0EAEF8041600142D
:1018E800A80812A806FDFF26A81012A80E5418FD75
:1018F800D8396075A81012F313B810654C41DF0D84
:10190800AEF804120014A80EFD1221EF0E4C20DFD1
:101918000AA80EFDE409B81213B81488014C01DFB7
:1019280012A818C1A818C1A81812A816FD0D3B10B6
:1019380004DD19A81412A812C3C1A80C12A80AFD24
:10194800A227A816B81AA818B81C1004A81816A810
:101958001614A80C12A80A0561D8A3330733B80ACD
:1019680013B80CA81C12A81A04040061D8A3B81A4A
:1019780013B81CA80812A80604040061D8A3B80666
:1019880013B808880091980061E8EDCE18A80C12E9
:10199800A80A04010061D8A3FD4B3BB80A13B80C90
:1019A80088014C01DF20AEF8041E0014A80812A814
:1019B80006FDFF26A820C1A820C1A81012A80EFD68
:1019C8000D3B1004DD23E19804E6C1AEF8040600DF
:1019D80014300303F7FD4C25A80E12A80CC3C1A8A8
:1019E8000E12A80CFDA22710061022D77140F00095
:1019F80071783002715AE5715BE1715BED715BE9F9
:101A08005A06FC8E266C039E2636310271B2CF32FE
:101A18000226CF33022B7183CF340240711A5271E0
:101A28000A52B771C371B271A2715BE571F271E2CA
:101A38008E265CFC9E26D7C1C3C5C7AEFCC1C1D5E6
:101A480038FCDD0F4038FC06DD098E509801363031
:101A58000271D27178310200000000008E519800A6
:101A6800AEF81631852136300271C34038FC05DFE7
:101A780008FDA805A039FCEF084038FC0661F8719C
:101A8800D2F538FCEDAB1BD538FCDF3031D5083644
:101A9800300271E2EDAB1B31C303EDAB1B7140307B
:101AA8000231B507CF38FC06ED861B3614FC7150A1
:101AB8003002E538FCF6BBBC02EDAB1B4038FC013C
:101AC800DF0FCF38FC02880170F1BF14FCF6EDA1DE
:101AD8001B4038FC02DF30CF38FC03DB16FCAF14A8
:101AE800FC318C16318E031217318DBF14FC13BFD5
:101AF80016FC8801FB16FC70F1EB14FCF70561D8A5
:101B0800A3330733ED9D1B4038FC03DF2FCF38FC90
:101B180004DB16FCAF14FC318C16318E031217311E
:101B28008DBF14FC13BF16FC8801FB16FC70F1EB8B
:101B380014FCF70561D8A3330733EF594038FC0488
:101B4800DD064038FC05DF2D4038FC04DF09DB16D4
:101B5800FCAF14FCFD8C058801FD9705DB16FCAF76
:101B680014FC04010061D8A3BF14FC13BF16FCCFFA
:101B780038FC05EF2E4038FC06DF2831A520DB169F
:101B8800FCAF14FCFDC3089E50DB16FCAF14FC042C
:101B9800010061D8A3BF14FC13BF16FCEF05363053
:101BA8000271D21002C0C6C4C2BEFCC061FC712062
:101BB800F000E6FDA91CF6BF2601E6BF2401710A64
:101BC800E5710BE15007BF08015020BF1001300735
:101BD800F0BF1801C9100002AF28015CFE085CFEC6
:101BE80008BF2801E6BF2A01BF2201D74C01DF1F29
:101BF8007112027100240171020171220171002A1F
:101C080001AF18016C40BF18013622017182D771EB
:101C1800002401362A0171837103017123017113B4
:101C280002D7C3C5C17113026073A80A440000DD5E
:101C38003F16A80437B800A804440000DF04F410D5
:101C4800EF0D44FF00DF05CD10FFEF038B9D100063
:101C5800000000AF0001603163F9A8024400008D64
:101C68001061E899A800B1440000A5A7B800DFC733
:101C7800D361F87112021006CEABACD77170F000C8
:101C8800CB900000713AE6713BE2713AEE713AEAA4
:101C9800CB90FF0EAE906C80BE90713BE6713BE23C
:101CA800D7360600377100F000BFB60117360000BE
:101CB80037BF900117360100C9187D0037BFB20140
:101CC80017440000DD1EB1FB8001DB80013743179C
:101CD800DCEFEB8001334513DCE7FB80013547156A
:101CE800DCDFEFE6E6BFB4017108F000D7A03AFCEC
:101CF80061FC1630FFFFBBBC02D7F3C113318D1254
:101D0800F6C3C1A80416AC0212ABFDE43A13BC0238
:101D180055081004A7A7A731F51D30C104C130B775
:101D28001DC1A80416AC0212AB0161FEFDE43ABB6A
:101D380013BC021004EF0EA80016AC0212AB01612E
:101D4800FEBB13BC0295DFCC1002D7C3C120043000
:101D58000200F7FDE409300200F7FDE4091004C3AE
:101D6800C13344ADDE1361F844EFBEDF05F6B800B9
:101D7800B802A806C1A806C1A80612A804FDA13A7F
:101D88001004C3C1300200F7FD5509100CD7717B50
:101D9800FA5100718C7109FECBF800FA3600F9325D
:101DA8000001D261E88351CD9BA792DFFB93DFF856
:101DB800CEFC00FD7F0A6168DD0FFC0C1E0036209A
:101DC800FE5304F19BA793DFFBFD810AFD021ED29F
:101DD800DD040192DFFC440000D7C7C3C612706659
:101DE800D660731367D6636108731366D6610BF701
:0F1DF80043C7C2C6D7C1C0FD051EEDFD1DEFFEDE
:041E0800FFFFFFFFDA
:101E0C00C3C52004C8020030303CEF1CA7A7A7A70D
:101E1C008EFD08C1C7A80416118C029EFC11AB6183
:101E2C00CA1004C7C4980215B800A8001688029EF0
:101E3C00FD8EFD4C00DF041744583CDFCF1004C46A
:021E4C00C2D7FB
:10200000FFFF0000FFFFFFFFFFFFFFFFFFFFF0FCF0
:10201000FF0000FC000000000000FFE00000FFA047
:102020000000001C0000000000FF0FF00000000096
:1020300000000000000000000000000000000000A0
:10204000FFFFFFFF00000000000000000000000094
:1020500000000000FFFFFFFF000000000000000084
:1020600000000000000CC40A8012983A480BC40A11
:042070008012983A08
:10207400711200711204D7C3C12004F198007113C6
:102084000451140091DFFC71130051140091DFFC22
:102094005182FD18244C01DF1FA80660FD18244C52
:1020A40001DF15A804FD18244C01DF0C8804FD1879
:1020B400244C01DF03E19800A80E12A80C5418FD6B
:1020C400D83960FD18249803A80E60FD18249802DE
:1020D400A80CFD18249801880CFD182471130470B1
:1020E40051140091DFFC71120051140091DFFC7156
:1020F400120451140091DFFC880173880272880372
:10210400758800615D615A615B10086158D7C3C16D
:10211400C52006F19800F6B802B8047113045114EE
:102124000091DFFC71130051140091DFFCF3508027
:10213400605C82DD05711204EF0371130460311ACF
:102144007112007051140091DFFC51140091DFFCF6
:1021540071130051140091DFFCD0DFD471120471AB
:102164001A2451140091DFFC31120401E3711B2481
:1021740071120051140091DFFC51140091DFFC71C5
:10218400130051140091DFFCD361F8EDCC22A80AAE
:102194006073F198015080636158DD05711204EF9A
:1021A4000371130460311A7112007051140091DF2D
:1021B400FC51140091DFFC71130051140091DFFCF9
:1021C400D0DFD4711204711A2451140091DFFC3150
:1021D400120403E19801711B24711200511400913F
:1021E400DFFC51140091DFFC71130051140091DFE6
:1021F400FCAEF816A7318303EDCC22A80873F69839
:10220400015080636158DD05711204EF03711304FA
:1022140060311A7112007051140091DFFC511400E6
:1022240091DFFC71130051140091DFFCD0DFD471F5
:102234001204711A2451140091DFFC31120403E1D9
:102244009801711B2471120051140091DFFC511488
:102254000091DFFC71130051140091DFFC3185689B
:10226400880873F198015080636158DD0571120488
:10227400EF0371130460311A71120070511400914C
:10228400DFFC51140091DFFC71130051140091DF45
:10229400FCD0DFD4711204711A2451140091DFFCB4
:1022A40031120403E19801711B24711200511400CE
:1022B40091DFFC51140091DFFC7113005114009163
:1022C400DFFC318503E1980071130451140091DFA0
:1022D400FC71120051140091DFFC711204511400BE
:1022E40091DFFCAEF816318303EDEB237113045137
:1022F400140091DFFC71130051140091DFFCF1987C
:10230400015080605C83DD05711204EF03711304D6
:1023140060311A7112007051140091DFFC511400E5
:1023240091DFFC71130051140091DFFCD0DFD471F4
:102334001204711A2451140091DFFC31120403E1D8
:102344009801711B2471120051140091DFFC511487
:102354000091DFFC71130051140091DFFCA731835D
:1023640003EDEB23F1DBF8FF9801A3FD76244C0188
:102374009800DF12880170F1318DDBF8FFB804A3F7
:10238400F6FD7624980088004C01DF1E880170F168
:1023940012F6C3C1A80812F6FDA13A100413DBF823
:1023A400FFB804A3F1FD7624980088004C01DF1ED9
:1023B400880170F1F7318DC3C1A80812F6FDA13A66
:1023C4001004DBF8FFB802A3E1FD7624980088002E
:1023D4004C01DF138801F770F1C3C1A80812A806E5
:1023E400FDA13A1004B80271130451140091DFFCEA
:1023F40071120051140091DFFC7112045114009108
:10240400DFFCA80412A80216A80637BB13BC028876
:1024140000100CD772F35080626158DD057112040C
:10242400EF0371130460311A71120070511400919A
:10243400DFFC51140091DFFC71130051140091DF93
:10244400FCD0DFD4711204711A2451140091DFFC02
:1024540031120401E3711B2471120051140091DF45
:10246400FC51140091DFFC71130051140091DFFC46
:1024740063D7C3C6711204711A24755380F0F254E1
:1024840001711200711A203112000880604C40DC86
:10249400F65400711B2051140091DFFC3114040424
:1024A40062616B7263311A7113007351140091DF0E
:1024B400FCD3DFCD65D1711B24DF05711304EF0359
:1024C40071120451140091DFFC71120031120008E2
:1024D40080604C40DCF6540051140091DFFC64D160
:1024E400711300DD02629B64D7CF31FC02F530FC2E
:1024F400717BFA711A22712304F1FDF41B711B2202
:10250400F52FFC717AFAD74C01DF21402FFC01DD55
:1025140016711A22E1FDF41B712204301400FDA986
:102524001C711B22E52FFCCF30FC0AD7717BFAD536
:1025340030FCDF10711A22712304F1FDF41B711BAE
:1025440022F52FFC717AFAD7C3C1C5402FFC0120B4
:102554000ADD16711A22E1FDF41B71220430140005
:10256400FDA91C711B22E52FFCCF30FC0AAF1EFC19
:10257400B1F7FD4B3BB80633B808C1C3A81814A87B
:102584001212A8100561D8A324010061D8B3FDCAB2
:102594003AC3C1A810C1A810C1A81A12A818FDCA2C
:1025A4003A1004FD0D3B1008DD4EFB1EFCB7A80CD1
:1025B400615F08615E0816AF1EFC27B800C1A80C55
:1025C40014A81012A80EFD4C25A80C4400001002FB
:1025D400DD08A80016A80A07B80AA80016A8142738
:1025E400C1A80CC1C7C4A81212A8100561D8A3C4FD
:1025F400FD4C251002ED912651069802E6C1F61411
:10260400AEF804040012F6E1FD2A1C5102980440BD
:1026140031FC031002DF12A80E609803A80C980482
:10262400880C9805300400EF0BA80C9803880C98CC
:1026340004300300C1F614AEF804040012E1E0FD16
:102644002A1C1002A814C1F614A80C12F6E1FD2AE3
:102654001C510B98021002EF04E6FDA91C510598C9
:102664000251FF9803300200C1AEF804040014AE16
:10267400F804040012F6E1FD2A1CAEF80405001665
:1026840071841002DE078800919800DFCC1010D707
:10269400C3C1C5402FFC012004DD16711A22E1FDDF
:1026A400F41B712204301400FDA91C711B22E52FB8
:1026B400FC5103CF30FC0A98004031FC03DF12A820
:1026C40008609801A806980288069803300400EF71
:1026D4000BA806980188069802300300C1F614AED0
:1026E400F804020012E1E0FD2A1C1002A80EC1F752
:1026F400A80614F6E1FD2A1C100CD7C3C1C5402F4F
:10270400FC012008DD16711A22E1FDF41B7122047C
:10271400301400FDA91C711B22E52FFC5103CF309E
:10272400FC0A98004031FC03DF12A80C609801A851
:102734000A9802880A9803300400EF0BA80A98014B
:10274400880A9802300300C1F614AEF8040200129D
:10275400E1E0FD2A1C1002300400C1AEF8040600BA
:1027640014F6F7E1FD2A1C8809F770F1C3C1880C3F
:1027740070F1318DC3C1880F70F112F6C3C1881294
:1027840070F1318D12F6FDA13A1004FDA13A100446
:10279400FDA13A16A80E371014BB13BC02D7C3C14F
:1027A400200E5418A81812A816FDD839609806A847
:1027B40018609807A816980888169809402FFC01F5
:1027C400DD16711A22E1FDF41B712204301400FDA0
:1027D400A91C711B22E52FFCCF30FC0AAF1EFCB1F3
:1027E400F7FD4B3BB80A33B80CC1C3A81412A812A6
:1027F40004030061D8A3FDCA3AC3C1A814C1A81434
:10280400C1A81C12A81AFDCA3A1004FD0D3B1008F9
:10281400DD47FB1EFCB7A80E615F08615E0816AFBA
:102824001EFC27B800C1AEF804080014A81212A8B0
:1028340010FD4C25A8021630040027C1C7C4AEF809
:10284400040A0005C1C7C4A81612A8140561D8A3B8
:10285400C4FD4C251004EDF62851069802E6C1F695
:1028640014AEF804040012F6E1FD2A1C5102980487
:102874004031FC031002DF12A810609803A80E98E0
:1028840004880E9805300400EF0BA80E9803880EF8
:102894009804300300C1F614AEF804040012E1E019
:1028A400FD2A1C1002300400C1F614AEF80408001E
:1028B40012F6E1FD2A1C510B98021002EF04E6FD0A
:1028C400A91C5105980251FF9803300200C1AEF8CB
:1028D40004040014AEF804040012F6E1FD2A1CAE50
:1028E400F80405001671841002DE07880091980030
:1028F400DFCC1012D73600FCF6BBBC02F52EFCF57B
:1029040032FCF52AFCF52BFCF52CFCD724A000DDC9
:1029140050240100DD5B240100DD6C24020061F819
:10292400ED192A240C00DD34240100DD3F240100CC
:10293400DD4B24020061F8ED102A241C00DD17246D
:102944000100DD22240100DD2D240100DD08240125
:1029540000DD3FED242AF52AFCED3A2AF52AFCEFA6
:1029640020F52AFCEF25E52AFCED3A2AE52AFCEFBE
:1029740010E52AFCEF15CF2AFC02ED3A2ACF2AFCF7
:1029840002E52BFCED3A2ACF2AFC02CF2BFC02ED08
:102994003A2ACF2AFC033604FCF6BBA1A1BC0230C0
:1029A4000001BF1EFCCF31FC038F2AFC70F101042F
:1029B400642016F7ABC3C1DB06FCAF04FCFD473A49
:1029C400609F2DFCD52BFC1004DD05311A9F2DFCD6
:1029D4008F2DFC4C0B61C8CF2DFC0A8F2AFCF7709D
:1029E400F1C3C18F2BFC70F1318DC3C18F2CFC70EE
:1029F400F116314E121731CDFDA13A1004FDA13A62
:102A04001004C3C1F6F7FD55091004D7CF2AFC03FF
:102A1400E52BFCEF81CF2AFC03CF2BFC02ED9A2996
:102A2400300010F7FD531D8F2AFC4C03DC0861F8BD
:102A3400ED9A29EDAD293604FC300080BBF6BC02CA
:102A44005040BF1EFCEDAD29C1203251FF3600FCC1
:102A5400980CF6BBBC02F52EFCF532FCF52AFCF50D
:102A64002BFCF52CFC88334F2DFC61C8ED2633E19B
:102A7400FD0B255103980DF6B81AB81C713202717A
:102A84000202712202713300E6FDA91C713302E6D1
:102A9400FDA91C713202E6FDA91C510698045117C8
:102AA4009805980698077133017103027123025146
:102AB40006FDB1337132018805FDB13371320188ED
:102AC40006FDB1337132018807FDB13371320171F2
:102AD40002027122025104CEABAC9804713301712D
:102AE4000302712302FDB1337132017102027122BA
:102AF40002CEABACF93AFC31120C1C61ED00CEAB4A
:102B0400ACC38F3AFCC6570070F1277C8044108018
:102B1400DCE5300040B81C4032FC01DF2331720D8B
:102B24001F61ED00CEABACC38F3AFCC6570070F109
:102B3400277C80441080DCE5300040B81CED4D3229
:102B4400A81C440000F661F844000061E8ED40323E
:102B54009804D52BFCDF0451DFEF02510F98055187
:102B64000B9806713301710302712302F6FDB13330
:102B74007132018805FDB1337132018806FDB1332C
:102B84007132017102027122025161CEABAC980420
:102B9400E6148F2AFCD1DD0B91DD1391DD1B91DD51
:102BA40027EF3551989805F698065198EF14516817
:102BB4009805F6980651D4EF0951809805E19806D6
:102BC400512898075404EF10E1980551909806E1B4
:102BD4009807512C9808540571330171030264D18C
:102BE400712302DD23AEF8040400B81015B80EA852
:102BF40010168BFDB133713201A810A1B810A80EC4
:102C0400B1440000B80EDFE7710202712202515094
:102C1400CEABAC9804D52BFCDF045197EF0251776F
:102C240098057133017103027123025150FDB133D0
:102C34007132018805FDB1337132017102027122D2
:102C440002CEABACD52BFCDF045113EF025110982C
:102C5400047133017103027123028804FDB13371DD
:102C64003201710202712202CEABAC8F2AFC70F1E8
:102C74000104642016F7ABB822F6B8248F2AFC703E
:102C8400F101046C2016ABB80EF6B810D52BFCDF9E
:102C94003BC3A824C1883770F1FDF4391004B81679
:102CA40013B8184032FC0161E8ED442DA816016107
:102CB400FEB81613B818A82214A8160561D8A304E0
:102CC400000861D8A3B82613B828EF74A8220161BC
:102CD400FEC3C1F7883770F1FDF4391004B8161338
:102CE400B818A82214A8160561D8A3B81E13B820D2
:102CF4004032FC01DF3AA81812A8160161FEB8168A
:102D040013B818A8160561D8A3B81E13B820A81EB6
:102D14000561D8A304000861D8A3B82613B828A86D
:102D2400260561D8A304000861D8A3B82E13B830CF
:102D3400A82012A81E04000861D8A3B81E13B82046
:102D4400A81812A81604000861D8A3B81613B81856
:102D5400713201A80E44000061F8EDEA2D30040040
:102D6400C1AEF804020014A81A12A818FD9426A8EB
:102D74001A12A81804040061D8A31002B81613B8D4
:102D84001888007CFF980088017CFF980188027CE9
:102D9400FF980288037CFF98037103028800FDB149
:102DA400337132018801FDB1337132018802FDB102
:102DB400337132018803FDB1337132017102027142
:102DC4002202CEABACA81012A80E24040061D8B322
:102DD400B80E13B810A80E334400001361F8440071
:102DE4000061E8ED612D4032FC0161E8ED962E8F23
:102DF4002AFC70F101046C2016ABB80EF6B810A8CA
:102E04000E44000061F8ED962E300400C1AEF804C3
:102E1400020014A82A12A828FD9426A82A12A82879
:102E240004040061D8A31002B82613B82888007CD3
:102E3400FF980088017CFF980188027CFF98028833
:102E4400037CFF98037123028800FDB133713201C2
:102E54008801FDB1337132018802FDB13371320151
:102E64008803FDB133713201710202712202CEABCB
:102E7400ACA81012A80E24040061D8B3B80E13B87D
:102E840010A80E334400001361F844000061E8ED1B
:102E94000D2E402BFC0161E8ED0D305113980471A7
:102EA4003301710302712302FDB1337132017102E6
:102EB40002712202CEABAC7132018F2AFC70F10197
:102EC400046C2016ABB80EF6B810A80E44000061CE
:102ED400F8ED612F300400C1AEF804020014A822FA
:102EE40012A820FD9426A82212A82004040061D868
:102EF400A31002B81E13B82088007CFF9800880134
:102F04007CFF980188027CFF980288037CFF980369
:102F14007103028800FDB1337132018801FDB133C0
:102F24007132018802FDB1337132018803FDB1337E
:102F3400713201710202712202CEABACA81012A848
:102F44000E24040061D8B3B80E13B810A80E33448D
:102F540000001361F844000061E8EDD82E4032FC13
:102F64000161E8ED0D308F2AFC70F101046C20162C
:102F7400ABB80EF6B810A80E44000061F8ED0D30A1
:102F8400300400C1AEF804020014A83212A830FDC7
:102F94009426A83212A83004040061D8A31002B801
:102FA4002E13B83088007CFF980088017CFF9801BC
:102FB40088027CFF980288037CFF980371230288AF
:102FC40000FDB1337132018801FDB13371320188E2
:102FD40002FDB1337132018803FDB13371320171E5
:102FE4000202712202CEABACA81012A80E24040077
:102FF40061D8B3B80E13B810A80E3344000013619F
:10300400F844000061E8ED842F51129804713301F3
:10301400710302712302FDB1337132017102027135
:103024002202CEABACE6FDA91CAEF80412001430AB
:103034008001F7FD12214C01DF2CA81412A8126C98
:1030440004C3C1308001F7FD7B204C011004DF165E
:10305400A81412A812618A6C04618AC3C130800169
:10306400F7FD7B201004F93AFC31120C1C61ED00D1
:10307400CEABACC38F3AFCC6570070F1277C8044BA
:10308400F080DCE5300010B81C4032FC01DF213157
:10309400720D1D61ED00CEABACC38F3AFCC6570078
:1030A40070F1277C8044F080DCE5A81C6C10B81C0F
:1030B400A81412A8126C04C3C1308001F7FD7B2050
:1030C400AEF8042E0014308401F7FD12214C0110D7
:1030D40004DF15A82CF1B82AF6B82C882A70880CBD
:1030E4006140DE04882A980C5151980471330171AF
:1030F4000302FDB133713201CEABAC710302712A0C
:1031040020F35080710200F171240061DC7263319C
:1031140019616A7360311A70D0710300DFE6639835
:103124000F712B207102025151CEABAC9804713354
:1031340001712302FDB133713201CEABAC712302B4
:10314400712A20F35080710200F171240061DC7255
:10315400633119616A7360311A70D0710300DFE65C
:1031640063980E712B207122025150CEABAC98049F
:1031740051D798057133017103027123025150FD37
:10318400B1337132018805FDB1337132017102022C
:103194007122025182CEABAC9804F19805713301CF
:1031A4007103027123025182FDB13371320188052A
:1031B400FDB133713201710202712202CEABAC3027
:1031C4000A00FDA91CE19804F1980598069807984F
:1031D400089809713301710302712302E1FDB133CF
:1031E4007132018805FDB1337132018806FDB133B6
:1031F4007132018807FDB1337132018808FDB133A2
:103204007132018809FDB1337132017102027122F8
:1032140002CEABAC300A00FDA91C510298047133F4
:1032240001710302712302FDB13371320171020293
:10323400712202CEABAC300A00FDA91CA81C4400CC
:1032440000F661F8440000DD11880D91980D61E8E5
:10325400ED7B2AA81C12F6FD531D300A00FDA91CA3
:103264007123007103007132007103027123027132
:103274003301713302301000F7FDE40904010061E9
:10328400D8A3C3C1301000F7FD5509301200F7FD73
:10329400E409B81613B8188812708813615810041A
:1032A40063DF046CC0EF025CBF7313B814A81C4442
:1032B4000000F661F8440000A814DD046C30EF024D
:1032C4005CEFB814880CF770F1C3C1A81812A816E3
:1032D400F0FDA13A1004B812880C73A8127063614F
:1032E40048DE1370F7318DC3C1A81812A816F1FD7A
:1032F400A13A1004B812A81412A812C3C1301200C3
:10330400F7FD55098837980888109809300200C1DC
:10331400AEF8040A0014300004F7FD4C25E52EFC39
:1033240010061034D74F2DFC200672DE7D8F2AFC48
:1033340070F10104642016ABB800D52BFCDD030149
:10334400B800A80014F6C1F3C513F7FDF43910044E
:10335400B80213B804FB1EFC1547DC33AF1EFCC1D6
:10336400F614A80612A80404000861D8A3FD4C258D
:10337400A806EB1EFC12A8040561D8A31002B8022B
:1033840013B804A800221EFCB800C5C647DECDA8A9
:1033940000440000DD14F1C1F614A80612A80404C8
:1033A400000861D8A3FD4C2510021006D771FC71EA
:1033B400210071020071030071EC7121007102009F
:1033C40071030071DC71210071020071030071CC82
:1033D40071210071020071030071BC71210071023E
:1033E4000071030071AC712100710200710300715E
:1033F4009C712100710200710300718C71210071B4
:103404000200710300D7C3C113602024F05C0F08CD
:10341400B810F6B812A824F05C0F08B808F6B80A79
:1034240088104F2DFC61C8ED073788084F2DFC61CB
:10343400C8ED0737E1FD0B258F2AFC70F101046408
:103444002016F7ABB800F6B8028F2AFC70F101041D
:103454006C2016ABB818F6B81AD52BFCDF2A40320C
:10346400FC01DD61C3A802C1A814FDF4391004B83D
:103474001413B816F6C1F7A802C1A80CFDF439104C
:1034840004B81013B812EF714032FC01DF37A80002
:103494000161FE0161FEC3C1F7A814FDF4391004F3
:1034A400B81413B816A800F70161FE0161FEC3C188
:1034B400F7A80CFDF4391004B81013B812A818F7C3
:1034C4000161FEEF2CA8000161FEC3C1F7A814FD41
:1034D400F4391004B81413B816A800F70161FEC338
:1034E400C1F7A80CFDF4391004B81013B812F7A8EA
:1034F400180161FEB81813B81AA81612A81404000B
:103504000861D8A3B81413B816A80014A814056148
:10351400D8A3B82013B822A81212A8100400086176
:10352400D8A3B81013B812A8100561D8A3B81C13F7
:10353400B81EA818B808A81AB80A12A80833440074
:10354400001361F844000061F8ED1A36A808B800C9
:10355400A80AB80212A800334400001361F8440515
:1035640000DC08300400B800F6B802A800C1AEF8C8
:1035740004060014A81812A816FD94261002AEF82A
:1035840004240016319534A800C1AEF8040E0014CA
:10359400A81412A812FD9426880E708806616898F3
:1035A40006880F16AEF8040700376DA79807881031
:1035B4006DA7980888116D98091002A800C1AEF88B
:1035C40004060014A81412A812FD4C25A80416A879
:1035D4000214A81812A8160561D8A33307100233E1
:1035E400B81413B816A81212A8100561D8A333078B
:1035F40033B81013B812A80A12A8082561D8B33337
:103604002733B80813B80ACEABACA80861F8440055
:103614000061E8ED50354032FC0161E8ED0737A860
:1036240018B808A81AB80A12A8083344000013618D
:10363400F844000061F8ED0737A808B800A80AB8F4
:103644000212A800334400001361F8440500DC08AA
:10365400300400B800F6B802A800C1AEF8040600B1
:1036640014A82412A822FD94261002AEF804240003
:1036740016319534A800C1AEF8040E0014A8201227
:10368400A81EFD9426880E70880661689806880F27
:1036940016AEF8040700376DA7980788106DA79831
:1036A4000888116D98091002A800C1AEF80406003C
:1036B40014A82012A81EFD4C25A80416A80214A8BC
:1036C4002412A8220561D8A33307100233B82013AB
:1036D400B822A81E12A81C0561D8A3330733B81C4E
:1036E40013B81EA80A12A8082561D8B3332733B823
:1036F4000813B80ACEABACA80861F844000061E82E
:10370400ED3D361028D7C3C12022AEF8041A00FDBF
:10371400FA1CE1FD0B25F6B80EB8108F2DFC70F1E4
:1037240044000061F8EDAF39880E72300001FDD716
:103734001D16A822615F08615E0844000061F8ED6F
:1037440088398F2AFC70F10104642016F7ABB800A5
:10375400F6B8028F2AFC70F101046C2016ABB81283
:10376400F6B814D52BFCDF1B4032FC01DD3CC3A8AA
:1037740002C1A81412A812FDF4391004B80A13B82F
:103784000CEF484032FC01DF21A8000161FE016119
:10379400FEC3C1A81412A812FDF4391004B80A1308
:1037A400B80CA812F70161FEEF19A8000161FEC36D
:1037B400C1A81412A812FDF4391004B80A13B80CE5
:1037C400F7A8120161FEB81213B814A80C12A80AC3
:1037D40004000861D8A3B80A13B80CA80014A80AF6
:1037E4000561D8A3B81E13B820A812B806A814B847
:1037F4000812A806334400001361F844000061F87D
:10380400EDB638A806B802A808B80412A8023344D2
:1038140000001361F8440500DC08300400B802F627
:10382400B804A802C1AEF804180014A80E12A80C1B
:10383400FD9426F19802A80612A80433440000104F
:10384400021361F8440000DD35880076AEF85700B5
:1038540004160007168B72AEF8041A00FD021D88C8
:1038640000819800AEF804020016880070F14E033F
:10387400DF0A4E02DF064E01DF02604DDCCBA804F6
:1038840016A80214A80C12A80A0561D8A33307339A
:10389400B80A13B80CA80812A8062561D8B33327B0
:1038A40033B80613B808A80661F844000061E8EDCF
:1038B40007384032FC0161E8ED8839A812B806A83F
:1038C40014B80812A806334400001361F844000039
:1038D40061F8ED8839A806B802A808B80412A8024D
:1038E400334400001361F8440500DC08300400B8D8
:1038F40002F6B804A802C1AEF804180014A82212F3
:10390400A820FD9426F19802A80612A804334400C6
:103914000010021361F8440000DD35880076AEF82B
:10392400570004160007168B72AEF8041A00FD0245
:103934001D8800819800AEF804020016880070F11A
:103944004E03DF0A4E02DF064E01DF02604DDCCB80
:10395400A80416A80214A82012A81E0561D8A3332F
:103964000733B81E13B820A80812A8062561D8B3D7
:10397400332733B80613B808A80661F84400006179
:10398400E8EDD938A81012A80E04010061D8A3B834
:103994000E13B8108F2DFCF770F1C3C1A81412A830
:1039A40012FD0D3B100461D8ED2C37A81C12A81A87
:1039B400C3C1301500F7FD5509102AD7C5618CD154
:1039C400618CDD060161FE94DFFA146168616B614C
:1039D4006A15C4D7C58494DD0D33311E3361FB08E9
:1039E40061FB0894DFF3146168616B616A15C4D7E5
:1039F400C5C72004C3C1AEF81404100016AD20C11D
:103A0400AD22C1F422F7F4208D20819D218BB77063
:103A140089A5D6031261D8A422B421DFF0C7AEF879
:103A2400062016629C0A6372E822F42215C416A5C5
:103A3400A420312420D2C0BD22C0BD201004C0C2A5
:103A4400C6C4D7C53335C7FD643BFDA33B65616C74
:103A5400616A616B3533C6C4D7C53335C7FD643B72
:103A6400C1C7C1AEF816C0617D61AD05C6618D6187
:103A7400DCDE0A61FB618DFD743BEE040061FB61D9
:103A84008D317503FD8B3BFDA33BC0317503FD7484
:103A94003B65616C616A616B3533C6C4D7C5333528
:103AA400C7AEF816618A6E08618A618B6E09618BF4
:103AB400618C6E0A618C618D6E0B75616C616A61DB
:103AC4006B3533C6C4D7C53335C7FBF8FF625E0810
:103AD40072635E0973645E0A70655E0B33C6C4D795
:103AE400C53335C7AEF816618A7E08618A618B7E5C
:103AF40009618B618C7E0A618C618D7E0B75616CB2
:103B0400616A616B3533C6C4D7C53335C7AEF816A1
:103B1400622E0870633E096160643E0A6160653E1E
:103B24000B61603533C6C4D7C53530000008612C3D
:103B340008613D3530000008613A08613B12616854
:103B4400616D616C15C4D7C5087CFF087CFF141334
:103B5400087CFF087CFF126168616D616C15C4D735
:103B6400AEF8168C0C088C0DC18C0E708C0FC6D759
:103B7400C130000008612A08613B1230000008616E
:103B84003C08613D14C0D7C31230000008612E0800
:103B9400613F16706178613A706178613BC2D7C148
:103BA400C7C5C3AEF8168C046E056E066E07DF0B30
:103BB400320000340000C6C6EE6E00522030000011
:103BC4001461AC610161AC61AD0161DC61AD0161A5
:103BD400AD0261DC61AD0261AD0361DC61AD036125
:103BE4008C61DC618C618D61DC618D0861DC086154
:103BF400DC4E07DF04084E0608DC29DF10618D4E19
:103C040005618DDF06618C4E04618CDC17618C2E9E
:103C140004618C618D3E05618D083E06083E076196
:0C3C2400AC8161AC92DF9AC2C4C6C6D766
:103C3000F63C00000400000020FE0F00F63C0000EF
:103C40003702000004FA0F00583C00000400000096
:083C5000081E000000FA0F003D
:103C5800C3C5200CA8141688169EFD11ABB8081110
:103C6800AC02B80AC7C4118A06980611AA04B80497
:103C7800118A0A980211AA08B800EF4FA8041688FA
:103C8800069EFD118B73A8001688029EFD63119B8A
:103C9800A8041488069EFDE605A561D8A0FDFF8E40
:103CA800FD980615B804C7C488029EFDE605A561FF
:103CB800D8A0FDFF8EFD980215B800A80A12A80822
:103CC80024010061D8B3B80813B80AA80A12A808D2
:103CD8003344000013DF02F743DFA1A81416881647
:103CE8009EFD17040C00168EFD100CC4C2D7C3C568
:103CF8002008A8101688129EFD11ABB80411AC025A
:103D0800B806C7C4118A06980211AA04B800A80008
:103D18001688029EFDF1119BC7C4E605A561D8A0CF
:103D2800FDFF8EFD980215B800A80612A80424010C
:103D38000061D8B3B80413B806A8043344000013CC
:103D4800DF02F743DFC8A8101688129EFD17040883
:093D580000168EFD1008C4C2D74C
:0400000500001D9644
:00000001FF
