:02000000242DAD
:10000400D02DD02DD02DD02DD02DD02DD02DD02D04
:10001400D02DD02DD02DD02DD02D802BD02DD02D46
:10002400D02DD02DD02D281ED02DD02DD02DD02D9B
:10003400D02DD02DD02DD02DD02DD02DD02DD02DD4
:10004400D02DD02DD02DD02DD02DD02DD02DD02DC4
:10005400D02DD02DD02DD02DD02DD02DD02DD02DB4
:10006400D02DD02DD02DD02DD02DD02DD02DD02DA4
:0C007400D02DD02DD02DD02DD02DD02D92
:0400C0007FFFAA0410
:0A00C4000000000000000000000032
:1000D8002016E19800AEF804020014F6F7FDE626B3
:1000E800A802B806A804B808AEF804020014300440
:1000F80000F7FDE626A80416A80214A80812A80608
:100108000561D8A3330733B80613B808300800B818
:100118000AF6B80C15F1443F00DE7E01DD58B80E32
:10012800F6B810AEF804020014A80C12A80AFDE6EE
:1001380026A80416A80214A80812A8060561D8A3C0
:10014800330733B80613B808A80C12A80A04040029
:1001580061D8A3B80A13B80CA81012A80E2401007D
:1001680061D8B3B80E13B810A80E33440000136159
:10017800F8440000DFADAEF804120014A80C12A871
:100188000AFDE626A814C1A814C1A80C12A80AFDE5
:100198005D2AFD252A1004DD03F198008800101659
:1001A800D72016E19800AEF804020014300004F7D6
:1001B800FDE626A802B806A804B808AEF8040200AE
:1001C80014300404F7FDE626A80416A80214A808AB
:1001D80012A8060561D8A3330733B80613B8083048
:1001E8000804B80AF6B80CC130FE01C1C715C2012F
:1001F80061FEFDE2294400001004DD58B80E13B872
:1002080010AEF804020014A80C12A80AFDE626A8ED
:100218000416A80214A80812A8060561D8A3330773
:1002280033B80613B808A80C12A80A04040061D849
:10023800A3B80A13B80CA81012A80E24010061D89C
:10024800B3B80E13B810A80E334400001361F84475
:100258000000DFADAEF804120014A80C12A80AFDC5
:10026800E626A814C1A814C1A80C12A80AFD5D2A84
:10027800FD252A1004DD03F19800EDA4012018E102
:100288009800AEF804040014300002F7FDE626A832
:1002980004B80CA806B80EA804F7F1B80433B806D9
:1002A8001344400061C8ED3A03300402B808F6B8B8
:1002B8000AB80213440000DD56AEF804100014A872
:1002C8000A12A808FDE626A81216A81014A80E12ED
:1002D800A80C0561D8A3330733B80C13B80EA80AC5
:1002E80012A80804040061D8A3B80813B80AA80221
:1002F800A1B802AEF804040016A802F3618B4E03FD
:10030800DF0B4E02DF07634E01DF02604DDCAAAE51
:10031800F804140014A80A12A808FDE626A816C1B5
:10032800A816C1A81212A810FD5D2AFD252A1004DE
:10033800DD03F1980088001018D7201CF6B810B813
:1003480012E19800E6C1AEF804040014300302F785
:10035800FD7D26880470F11002F7A1B80C33B80EA1
:100368001344400061C8EDFA03300003B804F6B83E
:100378000613440000DD58B808F6B80AAEF80414AD
:100388000014A80612A804FDE626A81616A8141438
:10039800A81212A8100561D8A3330733B81013B8F0
:1003A80012A80612A80404040061D8A3B80413B85C
:1003B80006A80A12A80824010061D8B3B80813B81F
:1003C8000AA808334400001361F8440000DFADAE0A
:1003D800F804180014A80612A804FDE626A81AC1F5
:1003E800A81AC1A81612A814FD5D2AFD252A100412
:1003F800DD03F198008800101CD7201EFD500A303C
:100408001800F7FDC513B80E13F3B81013B810FD94
:10041800D8004C01980061E8ED2208A8101253108A
:1004280013B810300200C1AEF80404001430020002
:10043800F7FD7D26880570F1F7318DC3C1880870F6
:10044800F1318D12F6FDB9291006B80413B806A8C3
:1004580004C3C1F6F7FD7720880776880670318DCA
:1004680008616E08FDE42DAEF8041A00143004008B
:10047800F7FDE6261004300800B812F6B814A816DE
:10048800F1B816F6B818B808A81644000061F8EDD7
:100498007E05AEF8040A0014A81412A812FDE62678
:1004A800A81412A81204040061D8A3B81213B8142F
:1004B800AEF804040014A812FDE626A81412A81227
:1004C80004040061D8A3B81213B814A80C12A80A1F
:1004D8005418FDF0286075A80C12F313B80C654C7D
:1004E80041DF13A80612A804C3C1A81012A80EFD64
:1004F80077201004EF5C4C20DF50A80612A804C334
:10050800C1A81012A80E312E3316312E333731ED13
:1005180007FD2313A81012A80E334400001004137B
:1005280061F8446000DF2B30FF00C13000FFC1A834
:100538000A12A808FDE229C3C1A81812A816FDB915
:10054800291008B80E13B810EF08D1DF05A804FD6C
:10055800DC1DA808A1B808AEF804160016A808F310
:10056800618B4E03DF0B4E02DF07634E01DF026033
:100578004D61D8ED9A04FDA9014C01980061E8EDA0
:10058800EF06A8106C80B810300200C1AEF8040461
:100598000014300004F7FD7D268805F770F1C3C10B
:1005A800880870F1318DFDB9291006B804F6B8062F
:1005B800A804C3C1309011FD7720AEF804080014D8
:1005C800300204F7FDE626A80A12A808C3C1309431
:1005D80011F7FD7720E6C1AEF8040C0014300704CB
:1005E800F7FD7D26100A300804B812F6B814880200
:1005F80070F1B816F6B818B808A81644000061F8E3
:10060800EDEF06AEF8040A0014A81412A812FDE6CD
:1006180026A81412A81204040061D8A3B81213B8AB
:1006280014AEF804040014A812FDE626A81412A8B3
:100638001204040061D8A3B81213B814A80C12A8A5
:100648000A5418FDF0286075A80C12F313B80C654D
:100658004C41DF13A80612A804C3C1A81012A80EA3
:10066800FD77201004EF5C4C20DF50A80612A80488
:10067800C3C1A81012A80E312E3316312E333731CC
:10068800ED07FD2313A81012A80E33440000100430
:100698001361F8446000DF2B30FF00C13000FFC158
:1006A800A80A12A808FDE229C3C1A81812A816FDB5
:1006B800B9291008B80E13B810EF08D1DF05A8043F
:1006C800FDDC1DA808A1B808AEF804160016A80895
:1006D800F3618B4E03DF0B4E02DF07634E01DF022F
:1006E800604D61D8ED0B06E6C1AEF8040400143085
:1006F8000303F7FD7D261002AEF8040200163183CD
:1007080003ED2208E6C1AEF804040014300302F732
:10071800FD7D268804100270F1B816F6B818FD851C
:10072800024C019800DF0BA8106C20B810FD4203A2
:10073800980088004C0161E8ED2208A8106C40B8C8
:1007480010300402B812F6B814300403B81AF6B818
:100758001CB808A81812A816334400001361F844FE
:10076800000061F8ED2208AEF8040A0014A814127B
:10077800A812FDE626A81412A81204040061D8A342
:10078800B81213B814AEF804040014A81C12A81A5E
:10079800FDE626A81C12A81A04040061D8A3B81AFA
:1007A80013B81CA80C12A80A5418FDF0286075A8E4
:1007B8000C12F313B80C654C41DF11A80612A804FB
:1007C800C3C1A81012A80EFD7720EF1E4C20DF1E13
:1007D800A80612A804C3C1A81012A80E312E3316F9
:1007E800312E333731ED07FD23131004EF08D1DF25
:1007F80005A804FDDC1DA808A1B808AEF804160079
:1008080016A808F3618B4E03DF0B4E02DF07634E19
:1008180001DF02604D61D8ED6F07AEF8040E0016D7
:10082800A7319575300200C1AEF8040400143000F9
:1008380005F7FD7D268805100270F1B80AF6B80C98
:100848008802FDE02E301200F7FDC513B80413B876
:1008580006A804F116AEF804040037B804F6B80682
:10086800A80C12A80A618B4E03DF0C624E02DF0748
:10087800634E01DF02604DDE20A80C16A80A14A8FA
:1008880004F72561D8B333274400001361F8440DF9
:1008980000DC06A8106C02B81030FF00C13000FF61
:1008A800C1301800F7FDC513FDE2291004B8043360
:1008B800B806C1C3A81412F6F2FDB929618B6C0100
:1008C8001004618BC3C1301800F7FD23138804108E
:1008D80022D72022F6B80AB80CFD85024C0161E83F
:1008E800ED4D0AE6C1AEF804060014300302F7FD28
:1008F8007D2688069804FD420398031002300402FE
:10090800B81AF6B81C300403B806F6B8088802D13D
:1009180061F8EDF1099800AEF8040E0014A81C1255
:10092800A81AFDE62688014C01DF0EAEF804160071
:1009380014A80812A806FDE626A81012A80E541836
:10094800FDF0286075A81012F313B810654C41DF4C
:100958000DAEF804120014A80EFD0E21EF194C205C
:10096800DF15A80E312E3316312E333731ED07FD42
:10097800C513B81213B81488014C01DF12A818C1A6
:10098800A818C1A81812A816FD252A1004DD19A850
:100998001412A812C3C1A80C12A80AFD8727A8160A
:1009A800B81AA818B81C1004A81816A81614A80C69
:1009B80012A80A0561D8A3330733B80A13B80CA8DC
:1009C8001C12A81A04040061D8A3B81A13B81CA8EA
:1009D8000812A80604040061D8A3B80613B808884A
:1009E8000091980061E8ED1F09A80C12A80A0401FB
:1009F8000061D8A3FD5D2AB80A13B80C88014C0120
:100A0800DF20AEF8041E0014A80812A806FDE6268A
:100A1800A820C1A820C1A81012A80EFD252A1004DC
:100A2800DD23E19804E6C1AEF804060014300303A0
:100A3800F7FD3725A80E12A80CC3C1A80E12A80CE2
:100A4800FD872710061022D72004F198028F18FE80
:100A58009803F1500298009801CF18FE02C1AEF831
:100A680004020014F6F7FD7D2688024C421002DFCE
:100A78000A88014C2ADF045102EF23300200CF1804
:100A8800FE03C1AEF804020014F6F7FD7D268802C5
:100A98004C421002DF0C88014C2ADF0651039802F1
:100AA800EF0588039F18FE88021004D7C12006E6C8
:100AB800B800F6B802B804A80088076158DD2030ED
:100AC8000001C1F614A80612A804FD3725A80612CD
:100AD800A80404000161D8A31002B80213B804A83E
:100AE8000001B800DFD11008D7200E717BFAF6BFDD
:100AF80020FD5119BF22FD717AFAE6C1AEF8040251
:100B08000014300205F7FD7D26880270F1315D146E
:100B18006C80717BFAF0F708C3C16470F1318DC441
:100B28000561D8A3C6318C16318E031217318DBFDB
:100B380024FD33BF26FD717AFA8EA8D198021002DF
:100B480061F8ED560C717BFA13B80AAF26FDB80CA4
:100B5800717AFA12A80A318E3316318E3337318DF5
:100B680007B80633B8086274A80812A806318E338D
:100B780016318E3337318D07B806F6B808880070FD
:100B8800F1C3C1A80AF008C3C1880E70F1C3C1C37C
:100B9800C5A81C12A81A318C16318E031217318D74
:100BA800C4C605318C318DC40561D8A3C6318C16F5
:100BB800318E031217318DC40561D8A3C6F0FDB973
:100BC80029618B6C801004618BB80233B80462749D
:100BD800A80412A802318E3316318E3337318D07AF
:100BE800B80233B80462F770F1C3C115318DC4057A
:100BF80061D8A3C6B80613B808A80412A802318E93
:100C08003316318E3337318D07B80233B804717B10
:100C1800FA13F00814F616C162C570F114C7C5A816
:100C28001012A80E318C16318E031217318DC4059F
:100C380061D8A3C6318C16318E031217318DC405C5
:100C480061D8A3C6BF24FD13BF26FD717AFA717B54
:100C5800FA300001BF48FDBF4AFD717AFA717BFA8C
:100C6800BF4CFDBF4EFD717AFA717BFABF50FDBFD4
:100C780052FD717AFA717BFABF54FDBF56FD717A45
:100C8800FA717BFABF58FDBF5AFD717AFA717BFA87
:100C9800F6BF60FD305208BF62FD717AFA717BFAC7
:100CA800F6BF64FD50FFBF66FD717AFA5004C13487
:100CB8005CFD5105F7FD7D261010D7201A717BFACF
:100CC800DB7AFD717AFA139808EDF30D717BFAAFB0
:100CD80030FDB804AF32FDB806880475A80612A81E
:100CE80004318E3316318E3337318D07B80433B85B
:100CF800066274A80612A804318E3316318E333773
:100D0800318D07B804F6B806A804F008C3C18808EE
:100D180070F1C3C115F1C3C16570F1318DC40561AE
:100D2800D8A3C6318C16318E031217318DC40561D4
:100D3800D8A3C6318C16318E031217318DC40561C4
:100D4800D8A304FA0061D8A3C6B80033B802627504
:100D5800A80212A800318E3316318E3337318D0731
:100D6800B80033B8026274A80212A800318E331694
:100D7800318E3337318D07B800F6B802A800F00875
:100D8800C3C1880470F1C3C115F1C3C16570F131E5
:100D98008DC40561D8A3C6318C16318E0312173164
:100DA8008DC40561D8A3C6318C16318E0312173154
:100DB8008DC40561D8A3C6BF30FD13BF32FDD5175A
:100DC800FE61E8B017FEB01FFE717AFAAFE8FDDBEE
:100DD800EAFD04010061D8A3BFE8FD13BFEAFDA046
:100DE80019FEA208FEA20AFEA20EFED51FFE61E8A9
:100DF800EDD40CF1ED980E607CFF7365615B756056
:100E0800311A70D0DF3B6473AEF8040A00166584AB
:100E180061D9644C10DF26301000C1AEF8040C0014
:100E280014A80812A806FD3725A80812A806041059
:100E38000061D8A310025400B80413B806508055B6
:100E4800008802D161E8EDBD0F880191980161E841
:100E5800EDAD0F64D1DF05604C80DD24604C80DD92
:100E68000C6473AEF8040A00166561D9845500C590
:100E7800AEF8040C0014A80812A806FD37251002C5
:100E8800AF02FE440001DC04F6BF02FE88000C0439
:100E98009800717BFA8800765700AF04FE27BF04DC
:100EA800FEAF04FE717AFA440000DF03101AD7DBA4
:100EB80002FE49E8FB9800A202FEEB02FEA202FE37
:100EC800FB02FEA202FEDB02FE49E8FBF770F1C35B
:100ED800C1C7C249E8FBF770F1C3C1C5C249E8FB05
:100EE80070F1F7318DFDB92916318E1217318D1039
:100EF80004FDB9291004B80413B806A202FEA80418
:100F080024000861D8B3334400001361F844000892
:100F1800DE34880070F1C1AF02FE04E8FB14A808B3
:100F280012A80624000861D8B3FD3725880270F19D
:100F38000202FEBF02FEAF02FE440001100261D8A9
:100F4800ED940EED900E8808D1DF24A80612A804AF
:100F5800334409003361F8440000DE71880070F101
:100F6800C1AF02FE04E8FB14A8062400F8EFB74C52
:100F78000161E8ED940EA80612A804334401003379
:100F880061F844000061D8ED940E2400F861D8B3EC
:100F9800B80413B8068800D150805400550061F891
:100FA800ED880E9801DB02FE49E8FB98035C7F811F
:100FB800A202FE9802880291980216AEF804030075
:100FC8003731F303EDFF0D656168ED060E2400F877
:100FD80061D8B33324080033EFB6BFE4FD13BFE68E
:100FE800FDF510FED7708F10FE4C30DE0AE910FEBA
:100FF800601884FDA010FED720088F10FED198003D
:10100800F510FE61F8EDAC11DBE6FDAFE4FD33440D
:1010180000003361F8440008DE0C30FFFFBF00F920
:10102800BF02F9EDD310AF02F9C1AF00F9C1AFE4C7
:10103800FDFD252A1004DF4E88004F11FEDF4755BD
:1010480000EF0E65730984FD7009B4FD6140DF3659
:101058008588006145DE2865730984FD7009B4FD43
:101068006140DF228588006145DE1465730984FDCF
:101078007009B4FD6140DF0E8588006145DCC461FC
:101088004561F8EDAC11DBE6FDAFE4FDBF00F913F7
:10109800BF02F988009F11FE5C0336B4FD3484FD5D
:1010A80070DD0789909BA5A7DFF98800312A70D0E9
:1010B800DD19899B8A019C018A029C028A039C0390
:1010C800A5A7A5A790A5A7A5A7DFE7AFE4FDDBE641
:1010D800FD24000861D8B3334400001361F84400CC
:1010E80008DC15DBE6FDAFE4FD334400003361F8AE
:1010F8004400F861D8EDAF11880070F10204FE04D5
:10110800040044010161C8EDAC11DB00FE88004811
:10111800E8FBA200FEAFE6FDDB00FE6048E8FBA2AC
:1011280000FEDB00FEAFE4FD48E8FBA200FEDB00AA
:10113800FE8FE4FD48E8FBA200FE88005C033684CD
:10114800FD70DD0EDB00FE8B48E8FB90A200FEA7D9
:10115800DFF28800312A70D0DD32DB00FE8B48E8F0
:10116800FBA200FEDB00FE8C0148E8FBA200FEDBD0
:1011780000FE8C0248E8FBA200FE8C03DB00FEA701
:10118800A748E8FB90A7A200FEA7DFCEAF00FE4469
:101198000001DC04F6BF00FE88000C0470F10204B4
:1011A800FEBF04FE1008D7334400003361F844C082
:1011B80060DF28301400BFE4FDF6BFE6FD51049857
:1011C800008F88FD9F84FD8F89FD9F85FD8F8AFD97
:1011D8009F86FD8F8BFD9F87FDEF1633440000131C
:1011E80061F8447C00DF0A301C00BFE4FDF6BFE66E
:1011F800FD3084FDB806AFE4FD041CFDB804AFE47F
:10120800FD0400205500B802EF49CF18FE02A802DD
:10121800168B7CFF73A80616635D7016A80237C785
:10122800C216A804378BC3C65D616873A804166329
:101238009BAFE4FDDBE6FD04010061D8A3BFE4FD3C
:1012480013BFE6FDA802A1B80217A1B804A806A119
:1012580085B8068800614561C8EDAC11DBE6FDAFD5
:10126800E4FD334400003361F844680061C8EDAC24
:1012780011334400001361F8446200DF91A8061698
:10128800318587CF18FE03EF85C3C1C1F19800A847
:1012980002334400003361F84400F8DC1E2400F8EF
:1012A80061D8B3B80213B804AFEEFDC1AFECFDC10D
:1012B800A806FD252A1004DE5AEF3324000861D859
:1012C800B3334400001361F8440008A80412A802CC
:1012D800DE3024000861D8B3B80213B804AFEEFDBD
:1012E800C1AFECFDC1A806FD252A1004DE25E6C124
:1012F800AEF804020014A80612A804FD7D26100208
:10130800EF11334400001361F8446800DE05491CFE
:10131800FD9800F511FE88001006D7C3C1334400BC
:101328000020041361F8441A0061C8EDC213A80E26
:1013380012A80C318E3316318E3337318D07B80031
:1013480033B8026270F114F6C1C5F7881070F13134
:101358008DC40561D8A3C6B80C13B80EA80212A88C
:1013680000318E3316318E3337318D07B80033B8DC
:1013780002717BFA13F00814F616C162C570F114F5
:10138800C7C5A81612A814318C16318E031217314E
:101398008DC40561D8A3C6318C16318E031217315E
:1013A8008DC40561D8A3C6C3C1A808312D041CFD8E
:1013B80016C0C2BB13BC02717AFA1008D7C3C12089
:1013C80008F6B804B806A808334400001361F844C6
:1013D8001A00DE7E717BFA312D041CFD16ABB804B1
:1013E800AC02B806717AFA12A804318E3316318E1F
:1013F8003337318D07B80033B8026274A80212A8D7
:1014080000318E3316318E3337318D07B800F6B878
:1014180002A800F008C3C15500880470F1C3C1C315
:10142800C5881070F1318DC40561D8A3C6318C16FA
:10143800318E031217318DC40561D8A3C6318C16BD
:10144800318E031217318DC40561D8A3C6B80413B1
:10145800B806A80612A804100CD7E6F504FAD72097
:101468000E717BFACF770000CF760000CFA800027C
:10147800CEA000717AA1714BA4CFF30010710BA11B
:10148800CD0008CE20F0CF500002CF300002CD01B1
:1014980015CE21E2CF310000CF510000CF4100002E
:1014A800CF610000CD0206CF760001CE2200CD0428
:1014B80004CE24F8CF340002CF540002CF640000D9
:1014C800F406CE2603CF3C0011712AE4712BE0719B
:1014D8003AE4713BE0714AE4714BE0715AE4715BA4
:1014E800E0FDB71DFDE91CFD7020EBF8FFF6F7FDE8
:1014F8000E21D1DF07300008F7FD652D712304FDAB
:10150800352BFDD624FDF10AFDD42DCF1AFEFFCFD1
:10151800780080717AFAFD0204EF0B36310271F21D
:1015280000000061FD00D51EFEDD0B717BFAB01EC8
:10153800FE717AFAEF08D51FFE61F8EDCF1CFDC3E6
:101548000C8F19FE4CF1DC4EEBF8FF30A001F7FDD3
:101558000E21F6C1302303C1F6C1304502C1F6C1E0
:1015680030E803C1A80E12F633F1FD0C292485C01A
:1015780061D8B333B1331004FD0C291004FD75296B
:1015880004204E61D8A31004C3C1301100F7FD2315
:1015980013F519FE1004301800F7FDC5131004C325
:1015A800C1605C07DD34AEF81631A505FDDA08EF39
:1015B8000C318505FD0204EF04319501FF30180058
:1015C800F7FDC5131004C3C1F0C3C1301800F7FDFF
:1015D8002313F6BF0EFE1004EF16AF0EFE44100ED6
:1015E800DC0EAEF816A731A503FDDA08F6BF0EFE2D
:1015F800AF0AFE44600961D8ED9016F6BF0AFEEB0B
:10160800F8FF301812F7FD0E21A80212A800334483
:1016180000001361F8440000DF06F6BF0CFEEF6817
:10162800EBF8FF30AC11F7FD0E21AFF2FDC1AFF0C2
:10163800FDC1A80612A804FD252A1004AF0CFEDF80
:1016480021442001DE36A1442001A20CFEDF2D300A
:101658000006C130CF6AC1301412F7FD772010049C
:10166800EF1A442001DC11300006C1300E04C130ED
:101678001412F7FD77201004F6BF0CFEA80212A87A
:1016880000BFF0FD13BFF2FDAF08FE444138DC2E69
:10169800EBF8FF301812F7FD0E21A80212A800334C
:1016A8004400001361F8440000DF0FF6C130A107C1
:1016B800C1301812F7FD77201004F6BF08FE300479
:1016C80000F7FDC5131004C3C1AEF81631855231B9
:1016D800A33BF19804D514FEDD388804743000016A
:1016E800F7FDDB28C3C1A80612A804FDE22933448C
:1016F800000010041361F8440000DD058804FD4F64
:101708003688048198044F14FEDE07EFCDA800FD4B
:10171800B40AF6B800B802C1C15004F7FD2313108B
:1017280004301300F7FDC5131004C3C1AEF8163119
:10173800851BA800FD2F37A80212A800085CFE0828
:10174800B800C3C1301300F7FD2313100430140090
:10175800F7FDC5131004C3C1AEF81631851BA800E8
:10176800FDEA38A80212A800085CFE08B800C3C148
:10177800301400F7FD231310044015FE01DF0DF6A9
:10178800BFE8FDBFEAFDF515FEEDCF1CDBEAFDAFB6
:10179800E8FD334400001361F844150061D8EDCF2B
:1017A8001CF198045007F7FDC5131004C3C1AEF827
:1017B800163185668800311A5C0FFDE02EA80212EA
:1017C800A800085CBE08B800086C2008B800C3C1AF
:1017D800300700F7FD2313300500F7FDC513B808DF
:1017E80013B80A30FF03C13000FCC1A80A12A808C8
:1017F800316E3316316E333731AD07FDE22914A847
:101808000E16A80C350561D8A3330733BFF4FD13B2
:10181800BFF6FDE1980C1008EF2231E51F31D5061F
:101828008F1AFEFDE02EA80212A800085C9F08B8D7
:1018380000C3C1300700F7FD23131004AEF81631BA
:10184800D547300500F7FDC513C314AFF4FDDBF62B
:10185800FD2561D8B3C613275C80F27313440000DA
:10186800F661F8440000DD1E8F1AFEFDE02EA80286
:1018780012A800085CDF08B800C3C1300700F7FDF4
:1018880023131004EF03E19804300300F7FDC51398
:101898001004C3C1AEF816318303ED291931931D25
:1018A800DBEAFDAFE8FD334400001361F84479003A
:1018B800DE0BE91AFEA80070636148DD4E300600B1
:1018C800F7FDC51314605C21DD1015085CDE08C344
:1018D800C1300600F7FD23131004300800F7FDC5DA
:1018E8001314605C07DD1015085CF808C3C13008E4
:1018F80000F7FD23131004A8009F1AFEAEF8040495
:1019080000163183068F1AFEFDE02EA80212A800E9
:10191800085CFC08B800C3C1300300F7FD231310AE
:1019280004300600F7FDC5131004C3C1AEF8163124
:10193800857C300500F7FDC513B80613B808A80262
:101948001613275C80F27313440000F661F8440014
:1019580000DF5B8800311A5C0F9F1AFEAEF80404A2
:1019680000163183068F1AFEFDE02EA80212A80089
:10197800085CFE08B800086C2008B800C3C130062F
:1019880000F7FD2313300800F7FDC513B80433B87A
:1019980006625C061004DD16A80212A800085CF9AD
:1019A80008B800C3C1300800F7FD2313100430083D
:1019B80000F7FDC5131004C3C1AEF816318303ED5B
:1019C800541B300500F7FDC513B80613B808A80264
:1019D80012A800085CE008BFF8FD13BFFAFDA808CC
:1019E80012A80622F8FD61D8B33322FAFD3316AEE9
:1019F800F804060037A7B80613A7B808A731F503F7
:101A0800EDCF1CA80212A800085CFE08B800086CFC
:101A18000408B800C3C1300800F7FD2313300A00DA
:101A2800F7FDC513B80433B8061331CE609F1BFE0B
:101A3800625C0F9F1CFE1004EF26C3C6A80827B8D7
:101A480008FBFAFD1307BFFAFDA01BFEB01CFEDF62
:101A58000FA80031CE609F1BFE88005C0F9F1CFE04
:101A68008F1BFE311A70F1040B001231FF33FDC5D4
:101A780013B80A33B80C361BFE318506F6B80A13BC
:101A8800B80CF6B80AAEF804060016A80C4E0312F5
:101A9800DF0B624E02DF06F14E0161F84DDC9B8FD1
:101AA8001BFE4C08DE18300900F7FDC513B80613F5
:101AB800B80851072F1BFE312974A806EF1CDF0D4B
:101AC800A80212A800541CFDF02860EF13401BFE6A
:101AD80009DF12A80212A8005418FDF028605C0F54
:101AE8009F1AFEEF04CF1AFE0FD91AFEF1318D129C
:101AF80031FF33C3C1A80612A8045CF0FDB9291050
:101B080004B80013B802A800C3C1300A00F7FD23C7
:101B1800131004AEF8040400163183068F1AFEFD74
:101B2800E02E300600F7FDC5131004C3C1AEF81649
:101B380031D303EDCF1CA800085CDF08B800C3C18F
:101B4800300600F7FD23131004EDCF1C88005C0657
:101B58004C0661E8EDCF1C8F1BFE4C0A61C8EDCB2B
:101B68001C311A70F1040B001231FF33FDC513B894
:101B78000633B808361BFE318506F6B80613B808D2
:101B8800A80812F602F8FD3302FAFD33B80633B896
:101B980008C1C3300500F7FDC513C42561D8B3C615
:101BA80013275C80F273F633440000F661F84400B2
:101BB8000061E8EDCF1C500AFDC5131004C3C1EF46
:101BC8000615B80617B808A80812A806BFF8FD1326
:101BD800BFFAFDA01BFEB01CFEDF0FA80031CE60CF
:101BE8009F1BFE88005C0F9F1CFE8F1BFE311A7026
:101BF800F1040B001231FF33FDC513B80A33B80CDA
:101C0800361BFE318506F6B80A13B80CA80C12F676
:101C180002F8FD3302FAFD33B80A33B80CC1C330F9
:101C28000500F7FDC513C42561D8B3C613275C802A
:101C3800F273F633440000F661F8440000DD828F49
:101C48001BFE4C08DE17300900FDC513B80613B893
:101C58000851072F1BFE312974A806EF1CDF0DA8B9
:101C68000212A800541CFDF02860EF13401BFE0967
:101C7800DF12A80212A8005418FDF028605C0F9F1C
:101C88001AFEEF04CF1AFE0FD91AFEF1318D123168
:101C9800FF33C3C1A80612A8045CF0FDB9291004DB
:101CA800B80013B802A800C3C1300A00F7FD231317
:101CB8001004AEF80404001631830C8F1AFEFDE000
:101CC8002EEF04CF1AFE0FCEABACF1FDF624D51DD6
:101CD800FEDF098E515CB261F8ED231561EDED2D43
:101CE800157120F000E6FDDC1DF6BF2601E6BF24D5
:101CF80001710AE5710BE15007BF08015020BF10C0
:101D0800013007F0BF1801C9100002AF28015CFEBE
:101D1800085CFE08BF2801E6BF2A01BF2201D74C94
:101D280001DF1F7112027100240171020171220189
:101D380071002A01AF18016C40BF180136220171E9
:101D480082D771002401362A01718371030171233E
:101D580001711302D7C3C5C17113026073A80A4485
:101D68000000DD3F16A80437B800A804440000DFCF
:101D780004F410EF0D44FF00DF05CD10FFEF038BD7
:101D88009D1000000000AF0001603163F9A8024413
:101D980000008D1061E899A800B1440000A5A7B81B
:101DA80000DFC7D361F87112021006CEABACD77151
:101DB80070F000CB900000713AE6713BE2713AEEA8
:101DC800713AEACB90FF0EAE906C80BE90713BE604
:101DD800713BE2D7360600377100F000BFB6011735
:101DE80036000037BF900117360100C9187D00374B
:101DF800BFB20117440000DD1EB1FB8001DB80018A
:101E0800374317DCEFEB8001334513DCE7FB800138
:101E1800354715DCDFEFE6E6BFB4017108F000D7FF
:101E2800A01FFE61FCEF0300000091DFFAD7C3C5D5
:101E38002004C8020030843AEF1CA7A7A7A78EFD8C
:101E480070C1C7A80416118C029EFC11AB61CA10A0
:101E580004C7C4980215B800A8001688029EFD8E13
:101E6800FD4C00DF041744AC3ADFCF1004C4C2D7DE
:10200000FFFF0000FFFFFFFFFFFFFFFFFFFFF0FCF0
:10201000FF0000F8000000000000FFE00000FFA04B
:102020000000001C0000000000FF0FF00000000096
:1020300000000000000000000000000000000000A0
:10204000FFFFFFFF00000000000000000000000094
:1020500000000000FFFFFFFF000000000000000084
:10206000FF00000000000000480BC40A8012983AEC
:10207000711200711204D7C3C12004F198007113CA
:102080000451140091DFFC71130051140091DFFC26
:102090005182FD01244C01DF1FA80660FD01244C84
:1020A00001DF15A804FD01244C01DF0C8804FD01AB
:1020B000244C01DF03E19800A80E12A80C5418FD6F
:1020C000F02860FD01249803A80E60FD0124980209
:1020D000A80CFD01249801880CFD012471130470E3
:1020E00051140091DFFC71120051140091DFFC715A
:1020F000120451140091DFFC880173880272880376
:10210000758800615D615A615B10086158D7C3C171
:10211000C52006F19800F6B802B8047113045114F2
:102120000091DFFC71130051140091DFFCF350802B
:10213000605C82DD05711204EF0371130460311AD3
:102140007112007051140091DFFC51140091DFFCFA
:1021500071130051140091DFFCD0DFD471120471AF
:102160001A2451140091DFFC31120401E3711B2485
:1021700071120051140091DFFC51140091DFFC71C9
:10218000130051140091DFFCD361F8EDBA22A80AC4
:1021900012F63360725080626158DD05711204EFEF
:1021A0000371130460311A7112007051140091DF31
:1021B000FC51140091DFFC71130051140091DFFCFD
:1021C000D0DFD4711204711A2451140091DFFC3154
:1021D000120401E3711B2471120051140091DFFC01
:1021E00051140091DFFC71130051140091DFFCD3F6
:1021F00061F8EDBA22A80872F35080626158DD05DB
:10220000711204EF0371130460311A7112007051DE
:10221000140091DFFC51140091DFFC711300511484
:102220000091DFFCD0DFD4711204711A2451140024
:1022300091DFFC31120401E3711B2471120051146F
:102240000091DFFC51140091DFFC71130051140068
:1022500091DFFCD3DD64880872F35080626158DD41
:1022600005711204EF0371130460311A71120070CA
:1022700051140091DFFC51140091DFFC71130051E7
:10228000140091DFFCD0DFD4711204711A245114B0
:102290000091DFFC31120401E3711B247112005123
:1022A000140091DFFC51140091DFFC7113005114F4
:1022B0000091DFFCD3DD03E1980071130451140099
:1022C00091DFFC71120051140091DFFC7112045176
:1022D000140091DFFCAEF816318303EDD4237113A3
:1022E0000451140091DFFC71130051140091DFFCC4
:1022F000F35080605C83DD05711204EF03711304F9
:1023000060311A7112007051140091DFFC511400F9
:1023100091DFFC71130051140091DFFCD0DFD47108
:102320001204711A2451140091DFFC31120401E3EC
:10233000711B2471120051140091DFFC51140091A3
:10234000DFFC71130051140091DFFCD361F8EDD470
:1023500023F1DBF8FF9801A3FD5F244C019800DF17
:1023600012880170F1318DDBF8FFB804A3F1FD5F35
:1023700024980088004C01DF1E880170F112F6C31A
:10238000C1A80812F6FDB929100413DBF8FFB80440
:10239000A3F1FD5F24980088004C01DF1E880170C6
:1023A000F1F7318DC3C1A80812F6FDB9291004DB7D
:1023B000F8FFB802A3E1FD5F24980088004C01DF1C
:1023C000138801F770F1C3C1A80812A806FDB92946
:1023D0001004B80271130451140091DFFC71120053
:1023E00051140091DFFC71120451140091DFFCA81C
:1023F0000412A80216A80637BB13BC028800100CF2
:10240000D772F35080626158DD05711204EF0371D9
:10241000130460311A7112007051140091DFFC51E5
:10242000140091DFFC71130051140091DFFCD0DF28
:10243000D4711204711A2451140091DFFC3112047A
:1024400001E3711B2471120051140091DFFC51143F
:102450000091DFFC71130051140091DFFC63D7C3BE
:10246000C6711204711A24755380F0F2540171126E
:1024700000711A203112000880604C40DCF65400D4
:10248000711B2051140091DFFC3114040462616B54
:102490007263311A7113007351140091DFFCD3DFA2
:1024A000CD65D1711B24DF05711304EF0371120494
:1024B00051140091DFFC7112003112000880604C51
:1024C00040DCF6540051140091DFFC64D17113001C
:1024D000DD02629B64D7CF18FE02717BFAD517FE2E
:1024E000DF10711A22712304F1FD271D711B22F5E3
:1024F00016FE717AFAD74C01DF214016FE01DD1677
:10250000711A22E1FD271D712204301400FDDC1D2B
:10251000711B22E516FECF17FE0AD7717BFAD5177D
:10252000FEDF10711A22712304F1FD271D711B2299
:10253000F516FE717AFAD7C3C1C54016FE01200A0E
:10254000DD16711A22E1FD271D712204301400FDF1
:10255000DC1D711B22E516FECF17FE0AAF06FEB189
:10256000F7FD5D2AB80633B808C1C3A81814A8122D
:1025700012A8100561D8A324010061D8B3FDE22997
:10258000C3C1A810C1A810C1A81A12A818FDE22939
:102590001004FD252A1008DD4EFB06FEB7A80C61CD
:1025A0005F08615E0816AF06FE27B800C1A80C14CC
:1025B000A81012A80EFD3725A80C4400001002DD5B
:1025C00008A80016A80A07B80AA80016A81427C168
:1025D000A80CC1C7C4A81212A8100561D8A3C4FDD5
:1025E00037251002ED7A2651069802E6C1F614AEA0
:1025F000F804040012F0E1FD5D1D5102980440183A
:10260000FE031002DF11A80E609803A80C98046066
:102610009805300400EF0AA80C9803609804300372
:1026200000C1F614AEF804040012E1E0FD5D1D10D7
:1026300002A814C1F614A80C12F0E1FD5D1D510BA7
:1026400098021002EF04E6FDDC1D5105980251FFCF
:102650009803300200C1AEF804040014AEF804047C
:102660000012F0E1FD5D1DAEF80405001671841046
:1026700002DE078800919800DFCC1010D7C3C1C5D7
:102680004016FE012004DD16711A22E1FD271D719E
:102690002204301400FDDC1D711B22E516FE5103DF
:1026A000CF17FE0A98004018FE03DF11A8086098B3
:1026B00001A8069802609803300400EF0AA8069863
:1026C00001609802300300C1F614AEF80402001253
:1026D000E1E0FD5D1D1002F7A80EC1A80614F0E1AF
:1026E000FD5D1D100CD7C3C1C54016FE012008DDDD
:1026F00016711A22E1FD271D712204301400FDDC41
:102700001D711B22E516FE5103CF17FE0A980040EB
:1027100018FE03DF11A80C609801A80A98026098BF
:1027200003300400EF0AA80A980160980230030001
:10273000C1F614AEF804020012E1E0FD5D1D1002C6
:10274000300400C1AEF804060014F0F7E1FD5D1D91
:102750008809F770F1C3C1880C70F1318DC3C1884D
:102760000F70F112F6C3C1881270F1318D12F6FDAF
:10277000B9291004FDB9291004FDB92916A80E378E
:102780001014BB13BC02D7C3C1200E5418A81812D2
:10279000A816FDF028609806A818609807A8169853
:1027A000086098094016FE01DD16711A22E1FD2726
:1027B0001D712204301400FDDC1D711B22E516FE84
:1027C000CF17FE0AAF06FEB1F7FD5D2AB80A33B88F
:1027D0000CC1C3A81412A81204030061D8A3FDE21F
:1027E00029C3C1A814C1A814C1A81C12A81AFDE2CB
:1027F000291004FD252A1008DD47FB06FEB7A80EA8
:10280000615F08615E0816AF06FE27B800C1AEF82A
:1028100004080014A81212A810FD3725A8021630CB
:10282000040027C1C7C4AEF8040A0005C1C7C4A884
:102830001612A8140561D8A3C4FD37251004EDD8DD
:102840002851069802E6C1F614AEF804040012F00E
:10285000E1FD5D1D510298044018FE031002DF11D6
:10286000A810609803A80E9804609805300400EF43
:102870000AA80E9803609804300300C1F614AEF85D
:1028800004040012E1E0FD5D1D1002300400C1F6F9
:1028900014AEF804080012F0E1FD5D1D510B980222
:1028A0001002EF04E6FDDC1D5105980251FF98036C
:1028B000300200C1AEF804040014AEF804040012A3
:1028C000F0E1FD5D1DAEF80405001671841002DE16
:1028D000078800919800DFCC1012D7C58494DD06DC
:1028E0000161FE94DFFA146168616B616A15C4D7F7
:1028F000C58494DD0D33311E3361FB0861FB089400
:10290000DFF3146168616B616A15C4D7C5C7200421
:10291000C3C1AEF81404100016AD20C1AD22C1F43D
:1029200022F7F4208D20819D218BB77089A5D603D5
:102930001261D8A422B421DFF0C7AEF806201662D7
:102940009C0A6372E822F42215C416A5A42031243F
:1029500020D2C0BD22C0BD201004C0C2C6C4D7C58D
:102960003335C7FE1001FE430165616C616A616B1E
:102970003533C6C4D7C53335C7FEFA00C1C7C1AEAB
:10298000F816C0617D61AD05C6618D61DCDE0A614E
:10299000FB618DFEF000EE040061FB618D3175037B
:1029A000FEF400FE0601C0317503FED90065616CBE
:1029B000616A616B3533C6C4D7C53335C7AEF81607
:1029C000618A6E08618A618B6E09618B618C6E0A07
:1029D000618C618D6E0B75616C616A616B3533C69C
:1029E000C4D7C53335C7FBF8FF625E0872635E0962
:1029F00073645E0A70655E0B33C6C4D7C53335C7D2
:102A0000AEF816618A7E08618A618B7E09618B61EE
:102A10008C7E0A618C618D7E0B75616C616A616B65
:102A20003533C6C4D7C53335C7AEF816622E087025
:102A3000633E096160643E0A6160653E0B6160351A
:102A400033C6C4D7C535F6612C08613D35F6613A09
:102A500008613B126168616D616C15C4D7C5087C63
:102A6000FF087CFF1413087CFF087CFF126168617B
:102A70006D616C15C4D7AEF8168C0C088C0DC18C2A
:102A80000E708C0FC6D7C1F6612A08613B12F66141
:102A90003C08613D14C0D7C312F6612E08613F1691
:102AA000706178613A706178613BC2D7C1C7C5C3B4
:102AB000AEF8168C046E056E066E07DF09F734005B
:102AC00000C6C6EE6C005220F61461AC610161AC28
:102AD00061AD0161DC61AD0161AD0261DC61AD023E
:102AE00061AD0361DC61AD03618C61DC618C618D82
:102AF00061DC618D0861DC0861DC4E07DF04084E93
:102B00000608DC29DF10618D4E05618DDF06618CC2
:102B10004E04618CDC17618C2E04618C618D3E0546
:102B2000618D083E06083E0761AC8161AC92DF9A78
:102B3000C2C4C6C6D77140F00071783002715AE540
:102B4000715BE1715BED715BE95A06FC8E266C03EB
:102B50009E2636310271B2CF320226CF33022B715C
:102B600083CF340240711A52710A52B771C371B2E5
:102B700071A2715BE571F271E28E265CFC9E26D734
:102B8000C1C3C5C7AEFCC1C1D51DFEDD0F401DFED2
:102B900006DD098E50980136300271D2717831020B
:102BA00000000000008E519800AEF81631852136E5
:102BB000300271C3401DFE05DF08FD0010A01EFE9F
:102BC000EF08401DFE0661F871D2F51DFEEDC02C28
:102BD000D51DFEDF2E31D50836300271E2EDC02C56
:102BE00031C303EDC02C7140300231B507CF1DFE5B
:102BF00006ED9B2C36300271D2E51DFEF6BFFCFDC2
:102C0000EDB62C401DFE01DF0FCF1DFE02880170C6
:102C1000F1BFFCFDF6EDB62C401DFE02DF06CF1D18
:102C2000FE03EF0A401DFE03DF2FCF1DFE04DBFE77
:102C3000FDAFFCFD318C16318E031217318DBFFCB8
:102C4000FD13BFFEFD8801FBFEFD70F1EBFCFDF7FF
:102C50000561D8A3330733EF59401DFE04DD06405C
:102C60001DFE05DF2D401DFE04DF09DBFEFDAFFC70
:102C7000FDFDE20F8801FDED0FDBFEFDAFFCFD0465
:102C8000010061D8A3BFFCFD13BFFEFDCF1DFE05F3
:102C9000EF2E401DFE06DF2831A520DBFEFDAFFC38
:102CA000FDFD91129E50DBFEFDAFFCFD04010061B5
:102CB000D8A3BFFCFD13BFFEFDEF0536300271D275
:102CC0001002C0C6C4C2BEFCC061FC1630FFFFBB10
:102CD000BC02D7F3C113318D12F6C3C1A80416ACE0
:102CE0000212ABFDFC2913BC0255081004A7A7A7CC
:102CF00031F51D30C104C130B71DC1A80416AC02A6
:102D000012AB0161FEFDFC29BB13BC021004EF0EE7
:102D1000A80016AC0212AB0161FEBB13BC0295DF2A
:102D2000CC1002D7717BFA5100718C7109FECBF87F
:102D300004FA3604F9320001D261E88351CD9BA731
:102D400092DFFB93DFF8CEFC00FD62146168DD0FBB
:102D5000FC361E003620FE5304F19BA793DFFBFDDB
:102D60006714FDCC2DC3C12004300200F7FDC5134C
:102D70001004C3C13344ADDE1361F844EFBEDF0578
:102D8000F6B800B802A806C1A806C1A80612A80491
:102D9000FDB9291004C3C1300200F7FD2313100C44
:102DA000D7D2DD040192DFFC440000D7C7C3C612AE
:102DB0007066D660731367D6636108731366D66155
:102DC0000BF743C7C2C6D7C1C0FDD22DFDC72DD753
:102DD00061FCEFFE300080BFECFDF6BFEEFD504021
:102DE000BF06FED724A000F513FEDD43240100DD5D
:102DF0004D240100DD5C240200DD70240C00DD2A7E
:102E0000240100DD34240100DD3F240200DD5324D1
:102E10001C00DD11240100DD1B240100DD2524023E
:102E200000DD39EF50F512FEEF6BF512FEEF1EF5E7
:102E300012FEEF22E512FEEF5CE512FEEF0FE51247
:102E4000FEEF13CF12FE02EF4CCF12FE02E513FE8F
:102E5000EF43CF12FE02CF13FE02EF39CF12FE0373
:102E6000EF20CF12FE03E513FEEF17CF12FE03CFC4
:102E700013FE02EF0D300010F7FD652D4012FE032A
:102E8000DF13F6BFECFDA1A1BFEEFD300001BF06D0
:102E9000FECF18FE03D912FEF10104682016F7AB2D
:102EA000C3C1DBEEFDAFECFDFD5F29609F14FED5D5
:102EB00013FE1004DD05311A9F14FE8F14FE4C0B17
:102EC00061C8CF14FE0AF7D912FEF1C3C1D913FEAF
:102ED000318DFDB9291004C3C1F6FD23131004D7A9
:102EE000C1202A51FF9808882B4F14FE61C8ED4C71
:102EF00036300200F7FDC513618A5C1F6CA0618A41
:102F0000C3C1300200F7FD2313E1FDF624F1980D53
:102F10001004EF044C02DE1F713202E6FDDC1D716D
:102F20003302CEABAC880970F132E803FDAC2D045E
:102F3000E803FDDC1DEF36713202710202713300CD
:102F40005164FD2D1E7133025164FD2D1E7132023C
:102F50005164FD2D1E7133025164FD2D1E7132022C
:102F60005164FD2D1E7133025164FD2D1E7132021C
:102F7000E6FDDC1DF6B81EB82051069800511798E2
:102F800001980298037133017103025106FDD63690
:102F90007132018801FDD6367132018802FDD636C4
:102FA0007132018803FDD63671320171020251047B
:102FB000CEABAC9800713301710302FDD63671328D
:102FC00001710202CEABAC31120C1DF91FFE3112A1
:102FD0000C1E61ED00CEABACC3C65700D91FFEF18D
:102FE000277C80441080DCE6300040B820ED0234BD
:102FF000F19800D513FEDF0451DFEF02510F980165
:10300000510B9802713301710302F1FDD636713212
:10301000018801FDD6367132018802FDD636713243
:10302000017102025161CEABAC9800E6148F12FE22
:10303000D1DD0B91DD1391DD1B91DD27EF3551982B
:103040009801F198025198EF1451689801F1980293
:1030500051D4EF0951809801E19802512898035406
:1030600004EF10E1980151909802E19803512C98D7
:1030700004540571330164D1710302DD20AEF8B848
:103080001815B816A818168BFDD636713201A81877
:10309000A1B818A816B1440000B816DFE771020203
:1030A0005150CEABAC9800D513FEDF045197EF0220
:1030B000517798017133017103025150FDD6367179
:1030C00032018801FDD636713201710202CEABACFD
:1030D000D513FEDF045113EF025110980071330134
:1030E0007103028800FDD636713201710202CEAB47
:1030F000ACD912FEF10104682014F7A9B826F6B87D
:1031000028A9B81633B818D513FEDF13C1C3F78842
:103110002F70F1FD0C291004B81A13B81CEF2BA85E
:1031200026F70161FEC3C1F7882F70F1FD0C29104D
:1031300004B81A13B81CA82614A81A0561D8A30449
:10314000000861D8A3B82213B824A81C12A81A0436
:10315000000861D8A3B81A13B81C713201A816442C
:10316000000061F8EDED31300400C1AEF8040C0050
:1031700014A81E12A81CFD7D26A81E12A81C04045B
:103180000061D8A31002B81A13B81C880A7CFF98F3
:103190000A880B7CFF980B880C7CFF980C880D7CB0
:1031A000FF980D710302880AFDD636713201880B33
:1031B000FDD636713201880CFDD636713201880D8C
:1031C000FDD636713201710202CEABACA81812A83E
:1031D0001624040061D8B3B81613B818A8163344DF
:1031E00000001361F844000061E8ED6731D513FE7B
:1031F00061F8EDAD3251139800713301710302FD96
:10320000D636713201710202CEABAC713201D912E5
:10321000FEF10104682016ABB816F6B818A81644DB
:10322000000061F8EDAD32300400C1AEF8040C00CE
:1032300014A82612A824FD7D26A82612A82404047A
:103240000061D8A31002B82213B824880A7CFF9822
:103250000A880B7CFF980B880C7CFF980C880D7CEF
:10326000FF980D710302880AFDD636713201880B72
:10327000FDD636713201880CFDD636713201880DCB
:10328000FDD636713201710202CEABACA81812A87D
:103290001624040061D8B3B81613B818A81633441E
:1032A00000001361F844000061E8ED2732511298E4
:1032B00000713301710302FDD636713201710202D1
:1032C000CEABACE6FDDC1DAEF8040E001430800180
:1032D000F7FD0E214C01DF2CA81012A80E6C04C3C0
:1032E000C1308001F7FD77204C011004DF16A810D3
:1032F00012A80E618A6C04618AC3C1308001F7FD97
:1033000077201004F91FFE31120C1B61ED00CEABCB
:10331000ACC3C65700D91FFEF1277C8044F080DC87
:10332000E6300010B820A81012A80E6C04C3C130FB
:103330008001F7FD7720AEF804160014308401F701
:10334000FD0E214C011004DF1DA81412F633F1B854
:1033500012F6B814880870F1C3C1A816FD252A100A
:1033600004DE036098085150980051D798017133DA
:10337000017103025150FDD6367132018801FDD62C
:10338000367132017102025182CEABAC9800F198D5
:10339000017133017103025182FDD6367132018809
:1033A00001FDD636713201710202CEABAC300A009B
:1033B000FDDC1DE19800F1980198029803980498AB
:1033C00005713301710302E1FDD6367132018801C6
:1033D000FDD6367132018802FDD63671320188037E
:1033E000FDD6367132018804FDD63671320188056A
:1033F000FDD636713201710202CEABAC300A00FD4F
:10340000DC1D7133017103025171FDD63671320139
:10341000CEABAC710302712A20F25080710200F130
:1034200071240061DC73623119616B7260311A7052
:10343000D0710300DFE6712B20710202F313F7CE87
:10344000ABACC3C15019FD23135151980471330122
:10345000710302FDD636713201CEABAC710302713D
:103460002A20F350801004710200F171240061DC05
:1034700072633119616A7360311A70D0710300DFB1
:10348000E663981A712B207102025102CEABAC9800
:1034900000713301710302FDD636713201710202EF
:1034A000CEABAC303200FDDC1DA82012F633440058
:1034B00000F661F8440000DD0C8809814C0398098E
:1034C00061D8ED142F300200FDC513618A5C1F61C5
:1034D0008AB81613B818A81631DE33161337313DE3
:1034E00007F1B812F6B814A82012F63344000033DE
:1034F00061F8440000DD25618A6CC0618AC3C1A8FF
:103500001C12A81AFDB929100413B818A81244FFF8
:1035100000DE13A112B812629800EF0AA818126216
:103520006CE07213B818A81216313E121731DDC3C1
:10353000C130E0FFC130FF1FC1A82012A81EFDE26C
:10354000291004FDB9291004C3C1300200F7FD237E
:1035500013300A00FDDC1D7123007103007133017B
:103560007103025107FDD63671320151A5FDD636E1
:10357000713201710202CEABAC71330171030230C2
:103580001000F7FDC513B81A13B81CA81A040100DF
:1035900061D8A31004B81613B818A816C3C1301008
:1035A00000F7FD2313A81C12A81AC3C1300405F7A5
:1035B000FD8727301200F7FDC513B81613B8188819
:1035C00022D1100813DF046CC0EF025CBFB810A852
:1035D00020440000F661F8440000A810DD046C30BF
:1035E000EF025CEFB8108808F770F1C3C1A814129D
:1035F000A812F0FDB9291004F7B80EF008C3C1886D
:103600000C70F1FD252A1004DE1260318DC3C1A8B3
:103610001412A812F1FDB9291004B80EA81012A8AE
:103620000EC3C1301200F7FD2313882F9804880CB5
:10363000980588169806300300C1AEF804060014F9
:10364000300005F7FD3725E515FE1006102CD74F85
:1036500014FE200672DE7CD912FEF10104682016E9
:10366000ABB800D513FEDD0301B800A80014F6C105
:10367000F3C513F7FD0C291004B80213B804FB06B8
:10368000FE1547DC33AF06FEC1F614A80612A804E7
:1036900004000861D8A3FD3725A806EB06FE12A892
:1036A000040561D8A31002B80213B804A8002206CA
:1036B000FEB800C5C647DECDA800440000DD14F109
:1036C000C1F614A80612A80404000861D8A3FD37A7
:1036D0002510021006D771FC7121007102007103E0
:1036E0000071EC71210071020071030071DC712125
:1036F0000071020071030071CC7121007102007130
:10370000030071BC71210071020071030071AC7182
:103710002100710200710300719C7121007102008F
:10372000710300718C712100710200710300D7C315
:10373000C1F63360201CF05C0F08B804F6B806A888
:103740001CF05C0F08B810F6B812D914FEC3C1A85B
:1037500008FD252A100461C8EDE738D914FEC3C15D
:10376000A814FD252A100461C8EDE738E1FDF62410
:10377000D912FEF10104682014F7A9B800F6B802C6
:10378000A9B81833B81AD513FEDF23C1C3F7A808A8
:10379000FD0C291004B80C13B80EF6C1F7A802C12D
:1037A000A814FD0C291004B80413B806EF35A800BE
:1037B000F70161FEC3C1F7A808FD0C291004B80C7D
:1037C00013B80EA800F70161FEC3C1F7A814FD0CE1
:1037D000291004B80413B806A818F70161FEB81838
:1037E00013B81AA80E12A80C04000861D8A3B80CCC
:1037F00013B80EA80612A80404000861D8A3B804E0
:1038000013B806A818B810A81AB81212A810334492
:1038100000001361F844000061F8EDE738A810B823
:1038200000A812B80212A800334400001361F84443
:103830000500DC08300400B800F6B802A800C1AEEC
:10384000F8040A0014A81012A80EFD7D261002AE7E
:10385000F8041C0016319534A800C1AEF804160017
:1038600014A80812A806FD7D26881670880A6168CB
:10387000980A881716AEF8040B00376DA7980B88C6
:10388000186DA7980C88196D980D1002A800C1AE8C
:10389000F8040A0014A80812A806FD3725A8041683
:1038A000A80214A81012A80E0561D8A333071002AD
:1038B00033B80C13B80EA80612A8040561D8A333B8
:1038C0000733B80413B806A81212A8102561D8B39C
:1038D000332733B81013B812CEABACA81061F8443C
:1038E000000061E8ED1D381020D7C3C1201AAEF8E2
:1038F000041200FDCB2CE1FDF624F6B80AB80CD971
:1039000014FE44000061F8ED733A880A7230000139
:10391000FDA12D16A81A615F08615E0844000061D0
:10392000F8ED4D3AD912FEF10104682014F7A9B858
:103930000EF6B810A9B80033B802D513FEDF13C1D4
:10394000C3A81012A80EFD0C291004B80613B8085D
:10395000EF22A80EF70161FEC3C1A81012A80EFD48
:103960000C291004B80613B808A800F70161FEB8C6
:103970000013B802A80812A80604000861D8A3B86A
:103980000613B808A800B80EA802B81012A80E3383
:103990004400001361F844000061F8ED4D3AA80EB0
:1039A000B802A810B80412A802334400001361F84A
:1039B000440500DC08300400B802F6B804A802C1CF
:1039C000AEF804180014A80A12A808FD7D26F19884
:1039D00002A80612A8043344000010021361F84440
:1039E0000000DD35880076AEF85700041600071693
:1039F0008B72AEF8041200FDD32C8800819800AEC3
:103A0000F804020016880070F14E03DF0A4E02DF50
:103A1000064E01DF02604DDCCBA80416A80214A8F4
:103A20000812A8060561D8A3330733B80613B808EF
:103A3000A81012A80E2561D8B3332733B80E13B8D7
:103A400010A80E61F844000061E8ED9E39A80C1240
:103A5000A80A04010061D8A3B80A13F7B80CD91456
:103A6000FEF1C3C1A81012A80EFD252A100461D8CA
:103A7000ED0A39A81412A812C3C1301500F7FD23AE
:043A8000131022D726
:103A84004E3B00000400000020FE0F004E3B0000EF
:103A94001C04000004FA0F00B03A00000400000007
:0C3AA400AC3A000000F90F00FFFFFFFF2C
:103AB000C3C5200CA8141688169EFD11ABB80811BA
:103AC000AC02B80AC7C4118A06980611AA04B80441
:103AD000118A0A980211AA08B800EF4FA8041688A4
:103AE000069EFD118B73A8001688029EFD618B1146
:103AF0009BA8041488069EFDE605A561D8A0FDFFDD
:103B00008EFD980615B804C7C4639EFDE605A56141
:103B1000D8A0FDFF8EFD980215B800A80A12A808CB
:103B200024010061D8B3B80813B80AA80A12A8087B
:103B30003344000013DF02F743DFA1A814168816F0
:103B40009EFD17040C00168EFD100CC4C2D7C3C511
:103B50002008A8101688129EFD11ABB80411AC0203
:103B6000B806C7C4118A06980211AA04B800A800B2
:103B70001688029EFDF1119BC7C4E605A561D8A079
:103B8000FDFF8EFD980215B800A80612A8042401B6
:103B90000061D8B3B80413B806A804334400001376
:103BA000DF02F743DFC8A8101688129EFD1704082D
:093BB00000168EFD1008C4C2D7F6
:0400000500002D24A6
:00000001FF
