:02000000012ECF
:02001E00B22B03
:02002A009A2D0D
:0400C0007FFFAA0410
:0A00C4000000000000000000000032
:1000D8002014E19800AEF804040014F6F7FDFD269C
:1000E800A804B808A806B80AAEF804040014300436
:1000F80000F7FDFD26A80616A80414A80A12A808E9
:100108000561D8A3330733B80813B80A300800B814
:100118000CF6B80E15F114604C3FDE681501DD4190
:10012800B802AEF804040014A80E12A80CFDFD26AF
:10013800A80616A80414A80A12A8080561D8A333AB
:100148000733B80813B80AA80E12A80C04040061F3
:10015800D8A3B80C13B80EA802B1440000B802DF47
:10016800C1AEF804100014A80E12A80CFDFD26A8B4
:1001780012C1A812C1A80E12A80CFD822AFD442A99
:100188001004DD03F1980088001014D72014E198BA
:1001980000AEF804040014300004F7FDFD26A8049E
:1001A800B808A806B80AAEF804040014300404F726
:1001B800FDFD26A80616A80414A80A12A8080561B9
:1001C800D8A3330733B80813B80A300804B80CF6B4
:1001D800B80E15F101DD41B802AEF804040014A808
:1001E8000E12A80CFDFD26A80616A80414A80A12CB
:1001F800A8080561D8A3330733B80813B80AA80EAE
:1002080012A80C04040061D8A3B80C13B80EA802F5
:10021800B1440000B802DFC1AEF804100014A80E03
:1002280012A80CFDFD26A812C1A812C1A80E12A87A
:100238000CFD822AFD442A1004DD03F19800ED8F9D
:10024800012018E19800AEF804040014300002F709
:10025800FDFD26A804B80CA806B80EA804F7F1B846
:100268000433B80688044C4061C8EDFE023004022D
:10027800B808F6B80AB80213440000DD56AEF80410
:10028800100014A80A12A808FDFD26A81216A81026
:1002980014A80E12A80C0561D8A3330733B80C13A1
:1002A800B80EA80A12A80804040061D8A3B8081355
:1002B800B80AA802A1B802AEF804040016A802F70A
:1002C800618B4E03DF0B4E02DF07634E01DF0260D6
:1002D8004DDCAAAEF804140014A80A12A808FDFD03
:1002E80026A816C1A816C1A81212A810FD822AFDB8
:1002F800442A1004DD03F1980088001018D7201A4A
:10030800F6B80EB810E19800E6C1AEF8040600147D
:10031800300302F7FD9226880670F11002F7A1B8A3
:100328000A33B80C13444000DE72300003B806F6F6
:10033800B80813440000DD41B802AEF804120014F6
:10034800A80812A806FDFD26A81416A81214A810BD
:1003580012A80E0561D8A3330733B80E13B810A836
:100368000812A80604040061D8A3B80613B808A8A0
:1003780002B1440000B802DFC1AEF804160014A8A8
:100388000812A806FDFD26A818C1A818C1A81412AD
:10039800A812FD822AFD442A1004DD03F198008882
:1003A80000101AD7201EFDF309301800F7FD4E1370
:1003B800B80E13F3B81013B810FDD8004C0198000C
:1003C80061E8EDCC07A81012531013B810300200E2
:1003D800C1AEF804040014300200F7FD9226880527
:1003E80070F1F7318DC3C1880870F1318D12F6FDB7
:1003F800D8291006B80413B806A804C3C1F6F7FD37
:100408007720880776880670318D08616E08FD525E
:100418002EAEF8041A0014300400F7FDFD2610046F
:10042800300800B812F6B814A816F1B816F6B818BD
:10043800B808A81644000061F8ED2805AEF8040ACB
:100448000014A81412A812FDFD26A81412A812045C
:10045800040061D8A3B81213B814AEF80404001449
:10046800A812FDFD26A81412A81204040061D8A33E
:10047800B81213B814A80C12A80A5418FD0F296052
:1004880075A80C12F313B80C654C41DF13A80612BB
:10049800A804C3C1A81012A80EFD77201004EF5CB1
:1004A8004C20DF50A80612A804C3C1A81012A80E39
:1004B800312E3316312E333731ED07FDBF12A81018
:1004C80012A80E3344000010041361F8446000DFE2
:1004D8002B30FF00C13000FFC1A80A12A808FD0197
:1004E8002AC3C1A81812A816FDD8291008B80E13D7
:1004F800B810EF08D1DF05A804FD4E2DA808A1B853
:1005080008AEF804160016A808F7618B4E03DF0B37
:100518004E02DF07634E01DF02604D61D8ED4404EF
:10052800FD94014C01980061E8ED9906A8106C80D3
:10053800B810300200C1AEF804040014300004F70B
:10054800FD92268805F770F1C3C1880870F1318DD6
:10055800FDD8291006B804F6B806A804C3C130901F
:1005680011FD7720AEF804080014300204F7FDFDF1
:1005780026A80A12A808C3C1309411F7FD7720E60F
:10058800C1AEF8040C0014300704F7FD9226100AD7
:10059800300804B812F6B814880270F1B816F6B824
:1005A80018B808A81644000061F8ED9906AEF804DA
:1005B8000A0014A81412A812FDFD26A81412A812E5
:1005C80004040061D8A3B81213B814AEF8040400E8
:1005D80014A812FDFD26A81412A81204040061D85C
:1005E800A3B81213B814A80C12A80A5418FD0F299E
:1005F8006075A80C12F313B80C654C41DF13A806FC
:1006080012A804C3C1A81012A80EFD77201004EF89
:100618005C4C20DF50A80612A804C3C1A81012A879
:100628000E312E3316312E333731ED07FDBF12A8A8
:100638001012A80E3344000010041361F84460003F
:10064800DF2B30FF00C13000FFC1A80A12A808FD47
:10065800012AC3C1A81812A816FDD8291008B80E77
:1006680013B810EF08D1DF05A804FD4E2DA808A186
:10067800B808AEF804160016A808F7618B4E03DF19
:100688000B4E02DF07634E01DF02604D61D8EDB506
:1006980005E6C1AEF804040014300303F7FD922602
:1006A8001002AEF804020016318303EDCC07E6C150
:1006B800AEF804040014300302F7FD9226880410F3
:1006C8000270F1B816F6B818FD49024C019800DF1F
:1006D8000BA8106C20B810FD0603980088004C0188
:1006E80061E8EDCC07A8106C40B810300402B812CD
:1006F800F6B814300403B81AF6B81CB808A81812CB
:10070800A816334400001361F844000061F8EDCCEA
:1007180007AEF8040A0014A81412A812FDFD26A8B2
:100728001412A81204040061D8A3B81213B814AEA6
:10073800F804040014A81C12A81AFDFD26A81C120F
:10074800A81A04040061D8A3B81A13B81CA80C127C
:10075800A80A5418FD0F296075A80C12F313B80CD9
:10076800654C41DF11A80612A804C3C1A81012A83D
:100778000EFD7720EF1E4C20DF1EA80612A804C32A
:10078800C1A81012A80E312E3316312E333731ED91
:1007980007FDBF121004EF08D1DF05A804FD4E2D98
:1007A800A808A1B808AEF804160016A808F7618BC7
:1007B8004E03DF0B4E02DF07634E01DF02604D611F
:1007C800D8ED1907AEF8040E0016A731957530025A
:1007D80000C1AEF804040014300005F7FD92268825
:1007E80005100270F1B80AF6B80C8802FD522F30D5
:1007F8001200F7FD4E13B80413B806A804F116AE9C
:10080800F804040037B804F6B806A80C12A80A6160
:100818008B4E03DF0C624E02DF07634E01DF02607E
:100828004DDE20A80C16A80A14A804F72561D8B331
:1008380033274400001361F8440D00DC06A8106C4F
:1008480002B810301800F7FD4E1336FF00C7360007
:10085800FFC7FD012AC3C1A81812F6F2FDD8296105
:100868008B6C011008618BC3C1301800F7FDBF12F3
:1008780088041022D72022F6B80AB80CFD49024C89
:100888000161E8EDF009E6C1AEF804060014300392
:1008980002F7FD922688069804FD060398031002C5
:1008A800300402B81AF6B81C300403B806F6B808C3
:1008B8008802D161F8ED94099800AEF8040E00148E
:1008C800A81C12A81AFDFD2688014C01DF0EAEF8FF
:1008D80004160014A80812A806FDFD26A81012A8E0
:1008E8000E5418FD0F296075A81012F313B810657F
:1008F8004C41DF0DAEF804120014A80EFD0E21EFD6
:10090800194C20DF15A80E312E3316312E3337310E
:10091800ED07FD4E13B81213B81488014C01DF120D
:10092800A818C1A818C1A81812A816FD442A1004AE
:10093800DD19A81412A812C3C1A80C12A80AFDA098
:1009480027A816B81AA818B81C1004A81816A816AC
:1009580014A80C12A80A0561D8A3330733B80A13E0
:10096800B80CA81C12A81A04040061D8A3B81A135A
:10097800B81CA80812A80604040061D8A3B8061376
:10098800B808880091980061E8EDC208A80C12A880
:100998000A04010061D8A3FD822AB80A13B80C889A
:1009A800014C01DF20AEF8041E0014A80812A806A6
:1009B800FDFD26A820C1A820C1A81012A80EFD443C
:1009C8002A1004DD23E19804E6C1AEF804060014F9
:1009D800300303F7FD4A25A80E12A80CC3C1A80EC0
:1009E80012A80CFDA02710061022D72004F19802A7
:1009F8008F18FE9803F1500298009801CF18FE0254
:100A0800C1AEF804020014F6F7FD922688024C42A3
:100A18001002DF0A88014C2ADF045102EF2330025A
:100A280000CF18FE03C1AEF804020014F6F7FD92D9
:100A38002688024C421002DF0C88014C2ADF06513E
:100A4800039802EF0588039F18FE88021004D7C197
:100A58002006E6B800F6B802B804A800880761586E
:100A6800DD20300001C1F614A80612A804FD4A25AD
:100A7800A80612A80404000161D8A31002B8021342
:100A8800B804A80001B800DFD11008D7200E717B88
:100A9800FA3620FDF6BB51E9BC02717AFAE6C1AE1E
:100AA800F804020014300205F7FD9226880270F15E
:100AB800315D146C80717BFAF0F708C3C16470F182
:100AC800318DC40561D8A3C6318C16318E03121737
:100AD800318DBF24FD33BF26FD717AFA8EA8D198D7
:100AE80002100261F8EDEA0B717BFA13B80AAF261F
:100AF800FDB80C717AFA12A80A318E3316318E338A
:100B080037318D07B80613B808880674A806318EE1
:100B18003316318E3337318D07B806F6B80888009A
:100B280070F1C3C1A80AF008C3C1880E70F1C3C12F
:100B3800C3C5A81C12A81A318C16318E031217319E
:100B48008DC4C605318C318DC40561D8A3C6318CDE
:100B580016318E031217318DC40561D8A3C6F0FD76
:100B6800D829618B6C801004618BB80213B8048893
:100B78000275A802318E3316318E3337318D07B89E
:100B88000213B804880274A802318E3316318E33EA
:100B980037318D07B802F6B804717BFAA802F0085D
:100BA800C3C1880670F1C3C16470F1C3C16570F137
:100BB800318DC40561D8A3C6318C16318E03121746
:100BC800318DC40561D8A3C6318C16318E03121736
:100BD800318DC40561D8A3C6BF24FD13BF26FD719E
:100BE8007AFA717BFA3648FD300001BBBC02717A93
:100BF800FA717BFA364CFDBBBC02717AFA717BFA4A
:100C08003650FDBBBC02717AFA717BFA3654FDBBD3
:100C1800BC02717AFA717BFA3658FDBBBC02717A54
:100C2800FA717BFA3660FDF6BB305208BC02717A65
:100C3800FA717BFA3664FDF6BB50FFBC02717AFA92
:100C48005004C1345CFD5105F7FD92261010D720E1
:100C58001A717BFADB7AFD717AFA139808ED830D25
:100C6800717BFAAF30FDB804AF32FDB80688047561
:100C7800A80612A804318E3316318E3337318D070A
:100C8800B80413B806880474A804318E3316318E5C
:100C98003337318D07B804F6B806A804F008C3C185
:100CA800880870F1C3C16470F1C3C16570F1318DFA
:100CB800C40561D8A3C6318C16318E031217318D45
:100CC800C40561D8A3C6318C16318E031217318D35
:100CD800C40561D8A304FA0061D8A3C6B80013B844
:100CE80002880075A800318E3316318E3337318D66
:100CF80007B80013B802880074A800318E33163183
:100D08008E3337318D07B800F6B802A800F008C353
:100D1800C1880470F1C3C16470F1C3C16570F13159
:100D28008DC40561D8A3C6318C16318E03121731D4
:100D38008DC40561D8A3C6318C16318E03121731C4
:100D48008DC40561D8A3C6BF30FD13BF32FDD517CA
:100D5800FE61E8B017FEB01FFE717AFAAFE8FDDB5E
:100D6800EAFD04010061D8A3BFE8FD13BFEAFDA0B6
:100D780019FEA208FEA20AFEA20EFED51FFE61E819
:100D8800ED680CF1ED280E607CFF7365615B7560A2
:100D9800311A70D0DF3B6473AEF8040A001665841C
:100DA80061D9644C10DF26301000C1AEF8040C0085
:100DB80014A80812A806FD4A25A80812A8060410B7
:100DC8000061D8A310025400B80413B80650805527
:100DD800008802D161E8ED4D0F880191980161E822
:100DE800ED3D0F64D1DF05604C80DD24604C80DD73
:100DF8000C6473AEF8040A00166561D9845500C501
:100E0800AEF8040C0014A80812A806FD4A25100222
:100E1800AF02FE440001DC04F6BF02FE88000C04A9
:100E28009800717BFA8800765700AF04FE27BF044C
:100E3800FEAF04FE717AFA440000DF03101AD7DB14
:100E480002FE49E8FB9800A202FEEB02FEA202FEA7
:100E5800FB02FEA202FEDB02FE49E8FBF770F1C3CB
:100E6800C1C7C249E8FBF770F1C3C1C5C249E8FB75
:100E780070F1F7318DFDD82916318E1217318D108A
:100E880004FDD8291004B80413B806A202FEA80469
:100E980024000861D8B3334400001361F844000803
:100EA800DE34880070F1C1AF02FE04E8FB14A80824
:100EB80012A80624000861D8B3FD4A25880270F1FB
:100EC8000202FEBF02FEAF02FE440001100261D81A
:100ED800ED240EED200E8808D1DF24A80612A80400
:100EE800334409003361F8440000DE71880070F172
:100EF800C1AF02FE04E8FB14A8062400F8EFB74CC3
:100F08000161E8ED240EA80612A804334401003359
:100F180061F844000061D8ED240E2400F861D8B3CC
:100F2800B80413B8068800D150805400550061F801
:100F3800ED180E9801DB02FE49E8FB98035C7F81FF
:100F4800A202FE9802880291980216AEF8040300E5
:100F58003731F303ED8F0D656168ED960D2400F8C8
:100F680061D8B33324080033EFB6BFE4FD13BFE6FE
:100F7800FDF510FED7708F10FE4C30DE0873601838
:100F880084FDA010FED78F10FED1200674F510FE48
:100F980061F8ED4B11DBE6FDAFE4FD3344000033AF
:100FA80061F8440008DE0C3600FA30FFFFBBBC02D3
:100FB800ED6710AF02FAC1AF00FAC1AFE4FDFD441E
:100FC8002A1004DF48644F11FEDF425500EF0D730D
:100FD8000984FD7009B4FD6140DF328565614CDE2E
:100FE80024730984FD7009B4FD6140DF20856561C3
:100FF8004CDE12730984FD7009B4FD6140DF0E8573
:1010080065614CDCCA65614C61F8ED4B11DBE6FDAE
:10101800AFE4FDBF00FA13BF02FA649F11FE5C0340
:10102800550070DD0C6573850984FD9018B4FDDFEB
:10103800F464312A70D0DD276573850984FD18B4FE
:10104800FD6573850984FD18B4FD6573850984FD04
:1010580018B4FD6573850984FD9018B4FDDFD9AF18
:10106800E4FDDBE6FD24000861D8B3334400001337
:1010780061F8440008DC15DBE6FDAFE4FD3344000D
:10108800003361F84400F861D8ED4E116470F10244
:1010980004FE04040044010161C8ED4B11DB00FEAD
:1010A8006448E8FBA200FEAFE6FDDB00FE6048E80E
:1010B800FBA200FEDB00FEAFE4FD48E8FBA200FE59
:1010C800DB00FE8FE4FD48E8FB645C03A200FE55EC
:1010D8000070DD126573850984FDDB00FE9048E829
:1010E800FBA200FEDFEE64312A70D0DD3F65738518
:1010F8000984FDDB00FE48E8FB65A200FE73850954
:1011080084FDDB00FE48E8FB65A200FE73850984C8
:10111800FDDB00FE48E8FB65A200FE73850984FD3F
:10112800DB00FE9048E8FBA200FEDFC1AF00FE44F2
:101138000001DC04F6BF00FE640C0470F10204FE3A
:10114800BF04FE1006D7334400003361F844C06082
:10115800DF2636E4FD301400BBF6BC028F88FD9F05
:1011680084FD8F89FD9F85FD8F8AFD9F86FD8F8B6E
:10117800FD54049F87FDEF16334400001361F844C3
:101188007C00DF0A36E4FD301C00BBF6BC0230846C
:10119800FDB804AFE4FD041CFDB802AFE4FD040093
:1011A800205500B800EF49CF18FE02A800168B7C26
:1011B800FF73A80416635D7016A80037C7C216A887
:1011C80002378BC3C65D616873A80216639BAFE4E0
:1011D800FDDBE6FD04010061D8A3BFE4FD13BFE613
:1011E800FDA800A1B80017A1B802A804A185B804F9
:1011F80065614C61C8ED4B11DBE6FDAFE4FD33449E
:1012080000003361F844680061C8ED4B11334400B5
:10121800001361F8446200DF92A80416318588CF74
:1012280018FE03EF86C3C1C1F19800A80233440039
:10123800003361F84400F8DC1E2400F861D8B3B824
:101248000213B804AFEEFDC1AFECFDC1A806FD4422
:101258002A1004DE5AEF3324000861D8B33344005F
:10126800001361F8440008A80412A802DE30240024
:101278000861D8B3B80213B804AFEEFDC1AFECFDF6
:10128800C1A806FD442A1004DE25E6C1AEF8040212
:101298000014A80612A804FD92261002EF11334488
:1012A80000001361F8446800DE05491CFD9800F54C
:1012B80011FE88001006D7C3C13344000020041370
:1012C80061F8441A00DE7CA80E12A80C318E331681
:1012D800318E3337318D07B80013B802880074A8EF
:1012E80000318E3316318E3337318D07B800F6B89A
:1012F80002717BFAA800F008C3C15500880470F198
:10130800C3C1C3C5881870F1318DC40561D8A3C69F
:10131800318C16318E031217318DC40561D8A3C6DE
:10132800318C16318E031217318DC40561D8A3C6CE
:10133800C3C1A808312D041CFD16C0C2BB13BC02D2
:10134800717AFA1008D7C3C12008F6B804B806A8FD
:1013580008334400001361F8441A00DE7C717BFAFC
:10136800312D041CFD16ABB804AC02B806717AFA2C
:1013780012A804318E3316318E3337318D07B800F9
:1013880013B802880074A800318E3316318E3337B3
:10139800318D07B800F6B802A800F008C3C155009F
:1013A800880470F1C3C1C3C5881070F1318DC405BC
:1013B80061D8A3C6318C16318E031217318DC4053E
:1013C80061D8A3C6318C16318E031217318DC4052E
:1013D80061D8A3C6B80413B806A80612A804100C4E
:1013E800D7E6F504FAD7200E717BFACF770000CF45
:1013F800760000CFA80002CEA000717AA1714BA49C
:10140800CFF30010710BA1CD0008CE20F0CF500013
:1014180002CF300002CD0115CE21E2CF310000CF3E
:10142800510000CF410000CF610000CD0206CF7609
:101438000001CE2200CD0404CE24F8CF340002CF20
:10144800540002CF640000F406CE2603CF3C0011FE
:10145800712AE4712BE0713AE4713BE0714AE4715E
:101468004BE0715AE4715BE0FD292DFD711CFD70A4
:1014780020EBF8FFF6F7FD0E21D1DF07300008F763
:10148800FD3F1D712304FD672BFDE924FD940AFD32
:10149800422ECF1AFEFFCF780080717AFAFDAC0396
:1014A800EF0B36310271F200000061FD00D51EFE1F
:1014B800DD0B717BFAB01EFE717AFAEF08D51FFEBC
:1014C80061F8ED571CFD570C8F19FE4CF1DC4EEB03
:1014D800F8FF30A001F7FD0E21F6C1302303C1F655
:1014E800C1304502C1F6C130E803C1A80E12F63377
:1014F800F1FD2B292485C061D8B333B1331004FD25
:101508002B291004FD942904204E61D8A31004C38C
:10151800C1301100F7FDBF12F519FE100430180094
:10152800F7FD4E131004C3C188005C07DD34AEF824
:101538001631A505FD7D08EF0C318505FDAC03EFDF
:1015480004319501FF301800F7FD4E131004C3C194
:10155800F0C3C1301800F7FDBF12F6BF0EFE10042D
:10156800EF16AF0EFE44100EDC0EAEF816A731A52E
:1015780003FD7D08F6BF0EFEAF0AFE44600961D880
:10158800ED1816F6BF0AFEEBF8FF301812F7FD0E3D
:1015980021A80212A800334400001361F844000097
:1015A800DF06F6BF0CFEEF68EBF8FF30AC11F7FD75
:1015B8000E21AFF2FDC1AFF0FDC1A80612A804FDCF
:1015C800442A1004AF0CFEDF21442001DE36A1447A
:1015D8002001A20CFEDF2D300006C130CF6AC130D9
:1015E8001412F7FD77201004EF1A442001DC1130A3
:1015F8000006C1300E04C1301412F7FD7720100424
:10160800F6BF0CFEA80212A800BFF0FD13BFF2FD42
:10161800AF08FE444138DC2EEBF8FF301812F7FD16
:101628000E21A80212A800334400001361F84400F8
:1016380000DF0FF6C130A107C1301812F7FD77207F
:101648001004F6BF08FE300400F7FD4E131004C363
:10165800C1AEF81631855231A33BF19804D514FE7A
:10166800DD38880474300001F7FDF728C3C1A806E7
:1016780012A804FD012A3344000010041361F84441
:101688000000DD058804FDBC3688048198044F14E9
:10169800FEDE07EFCDA800FD570AF6B800B802C174
:1016A800C15004F7FDBF121004301300F7FD4E13AC
:1016B8001004C3C1AEF81631851BA800FD9D37A8DC
:1016C8000212A800085CFE08B800C3C1301300F776
:1016D800FDBF121004301400F7FD4E131004C3C1EF
:1016E800AEF81631851BA800FD4A39A80212A800D9
:1016F800085CFE08B800C3C1301400F7FDBF121023
:10170800044015FE01DF0D36E8FDF6BBBC02F515F9
:10171800FEED571CDBEAFDAFE8FD33440000136122
:10172800F844150061D8ED571CF198045007F7FDEF
:101738004E131004C3C1AEF8163185668800311AFD
:101748005C0FFD522FA80212A800085CBE08B80062
:10175800086C2008B800C3C1300700F7FDBF12307D
:101768000500F7FD4E13B80813B80A30FF03C1305F
:1017780000FCC1A80A12A808316E3316316E33373F
:1017880031AD07FD012A14A80E16A80C350561D83D
:10179800A3330733BFF4FD13BFF6FDE1980C10081F
:1017A800EF2231E51F31D5068F1AFEFD522FA80210
:1017B80012A800085C9F08B800C3C1300700F7FDF5
:1017C800BF121004AEF81631D547300500F7FD4EAC
:1017D80013C314AFF4FDDBF6FD2561D8B3C6132798
:1017E8005C80F27313440000F661F8440000DD1ECB
:1017F8008F1AFEFD522FA80212A800085CDF08B855
:1018080000C3C1300700F7FDBF121004EF03E198D1
:1018180004300300F7FD4E131004C3C1AEF81631AF
:101828008303EDB11831931DDBEAFDAFE8FD3344C6
:1018380000001361F8447900DE0BE91AFEA8007075
:10184800636148DD4E300600F7FD4E1314605C21DD
:10185800DD1015085CDE08C3C1300600F7FDBF12B5
:101868001004300800F7FD4E1314605C07DD1015F6
:10187800085CF808C3C1300800F7FDBF121004A8BF
:10188800009F1AFEAEF8040400163183068F1AFE74
:10189800FD522FA80212A800085CFC08B800C3C1BA
:1018A800300300F7FDBF121004300600F7FD4E1399
:1018B8001004C3C1AEF81631857A300500F7FD4E25
:1018C80013B80613B808A8021613275C80F273131E
:1018D800440000F661F8440000DF598800311A5CC2
:1018E8000F9F1AFEAEF8040400163183068F1AFE05
:1018F800FD522FA80212A800085CFE08B800086C68
:101908002008B800C3C1300600F7FDBF1230080038
:10191800F7FD4E13B80413B80688045C061004DDFE
:1019280013A800085CF908B800C3C1300800F7FD27
:10193800BF121004300800F7FD4E131004C3C1AEE7
:10194800F816318303EDDC1A300500F7FD4E13B8A5
:101958000613B808A80212A800085CE008BFF8FD42
:1019680013BFFAFDA80812A80622F8FD61D8B33300
:1019780022FAFD3316AEF804060037A7B80613A7F7
:10198800B808A731F503ED571CA80212A800085C97
:10199800FE08B800086C0408B800C3C1300800F796
:1019A800FDBF12300A00F7FD4E13B80413B806A89D
:1019B8000431CE609F1BFE88045C0F9F1CFE100440
:1019C800EF26C3C6A80827B808FBFAFD1307BFFA15
:1019D800FDA01BFEB01CFEDF0FA80031CE609F1BD0
:1019E800FE88005C0F9F1CFE8F1BFE311A70F104ED
:1019F8000B001231FF33FD4E13B80A33B80C361BF7
:101A0800FE318506F6B80A13B80CF6B80AAEF80423
:101A1800060016A80C4E0312DF0B624E02DF06F614
:101A28004E0161F84DDC9B8F1BFE4C08DE18300917
:101A380000F7FD4E13B80613B80851072F1BFE31E7
:101A48002974A806EF1CDF0DA80212A800541CFD7B
:101A58000F2960EF13401BFE09DF12A80212A8002D
:101A68005418FD0F29605C0F9F1AFEEF04CF1AFE71
:101A78000F8F1AFE70318D1231FF33C3C1A80612C1
:101A8800A8045CF0FDD8291004B80013B802A80017
:101A9800C3C1300A00F7FDBF121004AEF8040400F9
:101AA800163183068F1AFEFD522F300600F7FD4EC1
:101AB800131004C3C1AEF81631D303ED571CA800A8
:101AC800085CDF08B800C3C1300600F7FDBF12107C
:101AD80004ED571C88005C064C0661E8ED571C8F26
:101AE8001BFE4C0A61C8ED531C311A70F1040B003F
:101AF8001231FF33FD4E13B80633B808361BFE31DA
:101B08008506F6B80613B808A80812F602F8FD33D9
:101B180002FAFD33B80633B808C1C3300500F7FD33
:101B28004E13C42561D8B3C613275C80F273F6330D
:101B3800440000F661F844000061E8ED571C500AC3
:101B4800FD4E131004C3C1EF0615B80617B808A850
:101B58000812A806BFF8FD13BFFAFDA01BFEB01CB3
:101B6800FEDF0FA80031CE609F1BFE88005C0F9F30
:101B78001CFE8F1BFE311A70F1040B001231FF336B
:101B8800FD4E13B80A33B80C361BFE318506F6B87D
:101B98000A13B80CA80C12F602F8FD3302FAFD334A
:101BA800B80A33B80CC1C3300500F7FD4E13C4257D
:101BB80061D8B3C613275C80F273F633440000F68D
:101BC80061F8440000DD828F1BFE4C08DE173009E7
:101BD80000FD4E13B80613B80851072F1BFE312914
:101BE80074A806EF1CDF0DA80212A800541CFD0FF4
:101BF8002960EF13401BFE09DF12A80212A8005447
:101C080018FD0F29605C0F9F1AFEEF04CF1AFE0F14
:101C18008F1AFE70318D1231FF33C3C1A80612A886
:101C2800045CF0FDD8291004B80013B802A800C35A
:101C3800C1300A00F7FDBF121004AEF80404001604
:101C480031830C8F1AFEFD522FEF04CF1AFE0FCEF0
:101C5800ABACF1FD0925D51DFEDF098E515CB261E3
:101C6800F8EDAA1461EDEDB4147120F000E6FD4E14
:101C78002DF6BF2601E6BF2401710AE5710BE1507C
:101C880007BF08015020BF10013007F0BF1801C975
:101C9800100002AF28015CFE085CFE08BF2801E6C0
:101CA800BF2A01BF2201D74C01DF1F711202710048
:101CB800240171020171220171002A01AF18016C1F
:101CC80040BF18013622017182D771002401362ADB
:101CD800017183710301712301711302D7C3C5C157
:101CE8007113026073A80A440000DD3F16A8043788
:101CF800B800A804440000DF04F410EF0D44FF000E
:101D0800DF05CD10FFEF038B9D1000000000AF0032
:101D180001603163F9A8024400008D1061E899A8B8
:101D280000B1440000A5A7B800DFC7D361F871125D
:101D3800021006CEABACD7C3C12004300200F7FDB9
:101D48004E131004C3C13344ADDE1361F844EFBE33
:101D5800DF05F6B800B802A806C1A806C1A8061291
:101D6800A804FDD8291004C3C1300200F7FDBF1232
:101D7800100CD7D2DD040192DFFC440000D7C7C3A2
:101D8800C6127066D660731367D6636108731366EC
:101D9800D6610BF743C7C2C6D7C1C0FDA91DEDA1C7
:031DA8001DEFFE2E
:041DAB00FFFFFFFF38
:101DAF00C3C52004C8020030E83AEF1CA7A7A7A7B5
:101DBF008EFD08C1C7A80416118C029EFC11AB61E1
:101DCF00CA1004C7C4980215B800A8001688029E4E
:101DDF00FD8EFD4C00DF041744103BDFCF1004C411
:021DEF00C2D759
:10200000FFFF0000FFFFFFFFFFFFFFFFFFFFF0FCF0
:10201000FF0000F8000000000000FFE00000FFA04B
:102020000000001C0000000000FF0FF00000000096
:1020300000000000000000000000000000000000A0
:10204000FFFFFFFF00000000000000000000000094
:1020500000000000FFFFFFFF000000000000000084
:10206000FF00000000000000480BC40A8012983AEC
:10207000711200711204D7C3C12004F198007113CA
:102080000451140091DFFC71130051140091DFFC26
:102090005182FD14244C01DF1FA80660FD14244C5E
:1020A00001DF15A804FD14244C01DF0C8804FD1485
:1020B000244C01DF03E19800A80E12A80C5418FD6F
:1020C0000F2960FD14249803A80E60FD14249802C3
:1020D000A80CFD14249801880CFD142471130470BD
:1020E00051140091DFFC71120051140091DFFC715A
:1020F000120451140091DFFC880173880272880376
:10210000758800615D615A615B10086158D7C3C171
:10211000C52006F19800F6B802B8047113045114F2
:102120000091DFFC71130051140091DFFCF350802B
:10213000605C82DD05711204EF0371130460311AD3
:102140007112007051140091DFFC51140091DFFCFA
:1021500071130051140091DFFCD0DFD471120471AF
:102160001A2451140091DFFC31120401E3711B2485
:1021700071120051140091DFFC51140091DFFC71C9
:10218000130051140091DFFCD361F8EDC822A80AB6
:102190006073F198015080636158DD05711204EF9E
:1021A0000371130460311A7112007051140091DF31
:1021B000FC51140091DFFC71130051140091DFFCFD
:1021C000D0DFD4711204711A2451140091DFFC3154
:1021D000120403E19801711B247112005114009143
:1021E000DFFC51140091DFFC71130051140091DFEA
:1021F000FCAEF816A7318303EDC822A80873F69841
:10220000015080636158DD05711204EF03711304FE
:1022100060311A7112007051140091DFFC511400EA
:1022200091DFFC71130051140091DFFCD0DFD471F9
:102230001204711A2451140091DFFC31120403E1DD
:102240009801711B2471120051140091DFFC51148C
:102250000091DFFC71130051140091DFFC3185689F
:10226000880873F198015080636158DD057112048C
:10227000EF0371130460311A711200705114009150
:10228000DFFC51140091DFFC71130051140091DF49
:10229000FCD0DFD4711204711A2451140091DFFCB8
:1022A00031120403E19801711B24711200511400D2
:1022B00091DFFC51140091DFFC7113005114009167
:1022C000DFFC318503E1980071130451140091DFA4
:1022D000FC71120051140091DFFC711204511400C2
:1022E00091DFFCAEF816318303EDE723711304513F
:1022F000140091DFFC71130051140091DFFCF19880
:10230000015080605C83DD05711204EF03711304DA
:1023100060311A7112007051140091DFFC511400E9
:1023200091DFFC71130051140091DFFCD0DFD471F8
:102330001204711A2451140091DFFC31120403E1DC
:102340009801711B2471120051140091DFFC51148B
:102350000091DFFC71130051140091DFFCA7318361
:1023600003EDE723F1DBF8FF9801A3FD72244C0194
:102370009800DF12880170F1318DDBF8FFB804A3FB
:10238000F6FD7224980088004C01DF1E880170F170
:1023900012F6C3C1A80812F6FDD829100413DBF801
:1023A000FFB804A3F1FD7224980088004C01DF1EE1
:1023B000880170F1F7318DC3C1A80812F6FDD82944
:1023C0001004DBF8FFB802A3E1FD72249800880036
:1023D0004C01DF138801F770F1C3C1A80812A806E9
:1023E000FDD8291004B80271130451140091DFFCC8
:1023F00071120051140091DFFC711204511400910C
:10240000DFFCA80412A80216A80637BB13BC02887A
:1024100000100CD772F35080626158DD0571120410
:10242000EF0371130460311A71120070511400919E
:10243000DFFC51140091DFFC71130051140091DF97
:10244000FCD0DFD4711204711A2451140091DFFC06
:1024500031120401E3711B2471120051140091DF49
:10246000FC51140091DFFC71130051140091DFFC4A
:1024700063D7C3C6711204711A24755380F0F254E5
:1024800001711200711A203112000880604C40DC8A
:10249000F65400711B2051140091DFFC3114040428
:1024A00062616B7263311A7113007351140091DF12
:1024B000FCD3DFCD65D1711B24DF05711304EF035D
:1024C00071120451140091DFFC71120031120008E6
:1024D00080604C40DCF6540051140091DFFC64D164
:1024E000711300DD02629B64D7CF18FE02717BFA84
:1024F000D517FEDF10711A22712304F1FDAF1C7194
:102500001B22F516FE717AFAD74C01DF214016FE28
:1025100001DD16711A22E1FDAF1C71220430140096
:10252000FD4E2D711B22E516FECF17FE0AD7717BDB
:10253000FAD517FEDF10711A22712304F1FDAF1CCA
:10254000711B22F516FE717AFAD7C3C1C54016FE7B
:1025500001200ADD16711A22E1FDAF1C7122043040
:102560001400FD4E2D711B22E516FECF17FE0AAF9B
:1025700006FEB1F7FD822AB80633B808C1C3A81811
:1025800014A81212A8100561D8A324010061D8B3C1
:10259000FD012AC3C1A810C1A810C1A81A12A81809
:1025A000FD012A1004FD442A1008DD4EFB06FEB78B
:1025B000A80C615F08615E0816AF06FE27B800C16F
:1025C000A80C14A81012A80EFD4A25A80C4400005F
:1025D0001002DD08A80016A80A07B80AA80016A865
:1025E0001427C1A80CC1C7C4A81212A8100561D82D
:1025F000A3C4FD4A251002ED8F2651069802E6C1BC
:10260000F614AEF804040012F6E1FDE51C51029840
:10261000044018FE031002DF12A80E609803A80CF5
:102620009804880C9805300400EF0BA80C980388D8
:102630000C9804300300C1F614AEF804040012E153
:10264000E0FDE51C1002A814C1F614A80C12F6E176
:10265000FDE51C510B98021002EF04E6FD4E2D51D2
:1026600005980251FF9803300200C1AEF80404003F
:1026700014AEF804040012F6E1FDE51CAEF8040502
:10268000001671841002DE078800919800DFCC10DC
:1026900010D7C3C1C54016FE012004DD16711A22F1
:1026A000E1FDAF1C712204301400FD4E2D711B2280
:1026B000E516FE5103CF17FE0A98004018FE03DF0F
:1026C00012A808609801A8069802880698033004AA
:1026D00000EF0BA806980188069802300300C1F6A7
:1026E00014AEF804020012E1E0FDE51C1002A80E91
:1026F000C1F7A80614F6E1FDE51C100CD7C3C1C54F
:102700004016FE012008DD16711A22E1FDAF1C7192
:102710002204301400FD4E2D711B22E516FE5103DC
:10272000CF17FE0A98004018FE03DF12A80C60982D
:1027300001A80A9802880A9803300400EF0BA80A3F
:102740009801880A9802300300C1F614AEF804021A
:102750000012E1E0FDE51C1002300400C1AEF804F7
:10276000060014F6F7E1FDE51C8809F770F1C3C116
:10277000880C70F1318DC3C1880F70F112F6C3C19E
:10278000881270F1318D12F6FDD8291004FDD82978
:102790001004FDD82916A80E371014BB13BC02D79D
:1027A000C3C1200E5418A81812A816FD0F2960984E
:1027B00006A818609807A816980888169809401661
:1027C000FE01DD16711A22E1FDAF1C7122043014E6
:1027D00000FD4E2D711B22E516FECF17FE0AAF0637
:1027E000FEB1F7FD822AB80A33B80CC1C3A814128F
:1027F000A81204030061D8A3FD012AC3C1A814C113
:10280000A814C1A81C12A81AFD012A1004FD442A0C
:102810001008DD47FB06FEB7A80E615F08615E0881
:1028200016AF06FE27B800C1AEF804080014A812BF
:1028300012A810FD4A25A8021630040027C1C7C4FB
:10284000AEF8040A0005C1C7C4A81612A814056191
:10285000D8A3C4FD4A251004EDF42851069802E6D9
:10286000C1F614AEF804040012F6E1FDE51C5102B5
:1028700098044018FE031002DF12A810609803A805
:102880000E9804880E9805300400EF0BA80E9803EC
:10289000880E9804300300C1F614AEF80404001248
:1028A000E1E0FDE51C1002300400C1F614AEF804AE
:1028B000080012F6E1FDE51C510B98021002EF042E
:1028C000E6FD4E2D5105980251FF9803300200C1DC
:1028D000AEF804040014AEF804040012F6E1FDE5BD
:1028E0001CAEF80405001671841002DE0788009102
:1028F0009800DFCC1012D7C5618CD1618CDD060148
:1029000061FE94DFFA146168616B616A15C4D7C512
:102910008494DD0D33311E3361FB0861FB0894DFC5
:10292000F3146168616B616A15C4D7C5C72004C31D
:10293000C1AEF81404100016AD20C1AD22C1F422BE
:10294000F7F4208D20819D218BB77089A5D60312C5
:1029500061D8A422B421DFF0C7AEF8062016629C2D
:102960000A6372E822F42215C416A5A4203124209B
:10297000D2C0BD22C0BD201004C0C2C6C4D7C5335A
:1029800035C7FD9B2AFDDA2A65616C616A616B358A
:1029900033C6C4D7C53335C7FD9B2AC1C7C1AEF8FE
:1029A00016C0617D61AD05C6618D61DCDE0A61FB2B
:1029B000618DFDAB2AEE040061FB618D317503FD75
:1029C000C22AFDDA2AC0317503FDAB2A65616C614C
:1029D0006A616B3533C6C4D7C53335C7AEF81661E7
:1029E0008A6E08618A618B6E09618B618C6E0A61E7
:1029F0008C618D6E0B75616C616A616B3533C6C419
:102A0000D7C53335C7FBF8FF625E0872635E097392
:102A1000645E0A70655E0B33C6C4D7C53335C7AE76
:102A2000F816618A7E08618A618B7E09618B618CF0
:102A30007E0A618C618D7E0B75616C616A616B359C
:102A400033C6C4D7C53335C7AEF816622E087063D7
:102A50003E096160643E0A6160653E0B616035332A
:102A6000C6C4D7C53530000008612C08613D35303B
:102A7000000008613A08613B126168616D616C1584
:102A8000C4D7C5087CFF087CFF1413087CFF087CB2
:102A9000FF126168616D616C15C4D7AEF8168C0CBD
:102AA000088C0DC18C0E708C0FC6D7C13000000889
:102AB000612A08613B1230000008613C08613D1446
:102AC000C0D7C31230000008612E08613F16706144
:102AD00078613A706178613BC2D7C1C7C5C3AEF8AF
:102AE000168C046E056E066E07DF0B320000340094
:102AF00000C6C6EE6E0052203000001461AC6101C9
:102B000061AC61AD0161DC61AD0161AD0261DC61AF
:102B1000AD0261AD0361DC61AD03618C61DC618C90
:102B2000618D61DC618D0861DC0861DC4E07DF04CA
:102B3000084E0608DC29DF10618D4E05618DDF0629
:102B4000618C4E04618CDC17618C2E04618C618D6C
:102B50003E05618D083E06083E0761AC8161AC927E
:102B6000DF9AC2C4C6C6D77140F0007178300271D6
:102B70005AE5715BE1715BED715BE95A06FC8E26EB
:102B80006C039E2636310271B2CF320226CF330259
:102B90002B7183CF340240711A52710A52B771C33C
:102BA00071B271A2715BE571F271E28E265CFC9EDE
:102BB00026D7C1C3C5C7AEFCC1C1D51DFEDD0F40C0
:102BC0001DFE06DD098E50980136300271D27178F3
:102BD000310200000000008E519800AEF8163185D9
:102BE0002136300271C3401DFE05DF08FD8E0FA0A7
:102BF0001EFEEF08401DFE0661F871D2F51DFEEDC8
:102C00001E2DD51DFEDF3031D50836300271E2EDC4
:102C10001E2D31C303ED1E2D7140300231B507CF9B
:102C20001DFE06EDF92C36FCFD71503002E51DFE4F
:102C3000F6BBBC02ED1E2D401DFE01DF0FCF1DFEB9
:102C400002880170F1BFFCFDF6ED142D401DFE025F
:102C5000DF30CF1DFE03DBFEFDAFFCFD318C1631F6
:102C60008E031217318DBFFCFD13BFFEFD8801FBE3
:102C7000FEFD70F1EBFCFDF70561D8A3330733EDE2
:102C8000102D401DFE03DF2FCF1DFE04DBFEFDAF28
:102C9000FCFD318C16318E031217318DBFFCFD13F4
:102CA000BFFEFD8801FBFEFD70F1EBFCFDF7056149
:102CB000D8A3330733EF59401DFE04DD06401DFE47
:102CC00005DF2D401DFE04DF09DBFEFDAFFCFDFD31
:102CD000720F8801FD7D0FDBFEFDAFFCFD040100DE
:102CE00061D8A3BFFCFD13BFFEFDCF1DFE05EF2E77
:102CF000401DFE06DF2831A520DBFEFDAFFCFDFDFB
:102D00002D129E50DBFEFDAFFCFD04010061D8A337
:102D1000BFFCFD13BFFEFDEF0536300271D210027D
:102D2000C0C6C4C2BEFCC061FC7170F000CB900094
:102D300000713AE6713BE2713AEE713AEACB90FFEC
:102D40000EAE906C80BE90713BE6713BE2D73606CA
:102D500000377100F000BFB6011736000037BF9092
:102D60000117360100C9187D0037BFB201174400B2
:102D700000DD1EB1FB8001DB8001374317DCEFEB88
:102D80008001334513DCE7FB8001354715DCDFEFBD
:102D9000E6E6BFB4017108F000D7A01FFE61FCEFAA
:102DA0000300000091DFFAD71630FFFFBBBC02D74B
:102DB000F3C113318D12F6C3C1A80416AC0212ABD5
:102DC000FD1B2A13BC0255081004A7A7A731F51D47
:102DD00030C104C130B71DC1A80416AC0212AB014A
:102DE00061FEFD1B2ABB13BC021004EF0EA80016E7
:102DF000AC0212AB0161FEBB13BC0295DFCC10022A
:102E0000D7717BFA5100718C7109FECBF800FA364C
:102E100000F9320001D261E88351CD9BA792DFFB1C
:102E200093DFF8CEFC00FDE9136168DD0FFCAF1DF8
:102E3000003620FE5304F19BA793DFFBFDEE13FD4C
:102E4000A61D36ECFD300080BBF6BC025040BF062C
:102E5000FED724A000F513FEDD43240100DD4D2440
:102E60000100DD5C240200DD70240C00DD2A240159
:102E700000DD34240100DD3F240200DD53241C006A
:102E8000DD11240100DD1B240100DD25240200DD0D
:102E900039EF50F512FEEF6BF512FEEF1EF512FE44
:102EA000EF22E512FEEF5CE512FEEF0FE512FEEFFA
:102EB00013CF12FE02EF4CCF12FE02E513FEEF43DA
:102EC000CF12FE02CF13FE02EF39CF12FE03EF2026
:102ED000CF12FE03E513FEEF17CF12FE03CF13FE52
:102EE00002EF0D300010F7FD3F1D4012FE03DF130F
:102EF00036ECFDF6BBA1A1BC02300001BF06FECF3F
:102F000018FE038F12FE70F10104682016F7ABC3A0
:102F1000C1DBEEFDAFECFDFD7E29609F14FED513F5
:102F2000FE1004DD05311A9F14FE8F14FE4C0B6158
:102F3000C8CF14FE0A8F12FEF770F1C3C18F13FEC3
:102F400070F1318DFDD8291004C3C1F6FDBF1210F8
:102F500004D7C1202A51FF9808882B4F14FE61C85E
:102F6000EDB936300200F7FD4E13618A5C1F6CA08C
:102F7000618AC3C1300200F7FDBF12E1FD0925F1EE
:102F8000980D1004EF044C02DE1F713202E6FD4E74
:102F90002D713302CEABAC880970F132E803FD86A7
:102FA0001D04E803FD4E2DEF3671320271020271ED
:102FB00033005164FD9F2D7133025164FD9F2D71CB
:102FC00032025164FD9F2D7133025164FD9F2D71BA
:102FD00032025164FD9F2D7133025164FD9F2D71AA
:102FE0003202E6FD4E2DF6B81EB82051069800516B
:102FF000179801980298037133017103025106FD7D
:1030000044377132018801FD44377132018802FD75
:1030100044377132018803FD443771320171020275
:103020005104CEABAC9800713301710302FD4437FB
:10303000713201710202CEABAC31120C1EF91FFECF
:1030400031120C1F61ED00CEABACC38F1FFEC65713
:103050000070F1277C80441080DCE5300040B8200F
:10306000ED7134F19800D513FEDF0451DFEF02510A
:103070000F9801510B9802713301710302F1FD4465
:10308000377132018801FD44377132018802FD44F5
:10309000377132017102025161CEABAC9800E61477
:1030A0008F12FED1DD0B91DD1391DD1B91DD27EF3A
:1030B0003551989801F698025198EF14516898018B
:1030C000F6980251D4EF0951809801E198025128F5
:1030D00098035404EF10E1980151909802E198038D
:1030E000512C9804540571330164D1710302DD2021
:1030F000AEF8B81815B816A818168BFD44377132FB
:1031000001A818A1B818A816B1440000B816DFE746
:103110007102025150CEABAC9800D513FEDF0451C2
:1031200097EF02517798017133017103025150FDFD
:1031300044377132018801FD443771320171020256
:10314000CEABACD513FEDF045113EF025110980043
:103150007133017103028800FD443771320171023D
:1031600002CEABAC8F12FE70F10104682014F7A9F7
:10317000B826F6B828A9B81633B818D513FEDF1349
:10318000C1C3F7882F70F1FD2B291004B81A13B8AA
:103190001CEF2BA826F70161FEC3C1F7882F70F141
:1031A000FD2B291004B81A13B81CA82614A81A0558
:1031B00061D8A304000861D8A3B82213B824A81CBE
:1031C00012A81A04000861D8A3B81A13B81C7132E7
:1031D00001A81644000061F8ED6132300400C1AE70
:1031E000F8040C0014A81E12A81CFD9226A81E129A
:1031F000A81C04040061D8A31002B81A13B81C88D4
:103200000A7CFF980A880B7CFF980B880C7CFF983F
:103210000C880D7CFF980D710302880AFD443771FC
:103220003201880BFD4437713201880CFD4437713F
:103230003201880DFD4437713201710202CEABAC10
:10324000A81812A81624040061D8B3B81613B81829
:10325000A816334400001361F844000061E8EDDB78
:10326000314013FE0161E8ED2333511398007133AF
:1032700001710302FD4437713201710202CEABAC21
:103280007132018F12FE70F10104682016ABB8167E
:10329000F6B818A81644000061F8ED233330040096
:1032A000C1AEF8040C0014A82612A824FD9226A88A
:1032B0002612A82404040061D8A31002B82213B86F
:1032C00024880A7CFF980A880B7CFF980B880C7C6A
:1032D000FF980C880D7CFF980D710302880AFD444D
:1032E00037713201880BFD4437713201880CFD447F
:1032F00037713201880DFD4437713201710202CEFF
:10330000ABACA81812A81624040061D8B3B81613E1
:10331000B818A816334400001361F844000061E8AF
:10332000ED9D3251129800713301710302FD443753
:10333000713201710202CEABACE6FD4E2DAEF80447
:103340000E0014308001F7FD0E214C01DF2CA81077
:1033500012A80E6C04C3C1308001F7FD77204C0128
:103360001004DF16A81012A80E618A6C04618AC3CB
:10337000C1308001F7FD77201004F91FFE31120CD7
:103380001C61ED00CEABACC38F1FFEC6570070F1C1
:10339000277C8044F080DCE5300010B820A81012B3
:1033A000A80E6C04C3C1308001F7FD7720AEF8048D
:1033B000160014308401F7FD0E214C011004DF15B6
:1033C000A814F1B812F6B81488127088086140DEAB
:1033D00004881298085150980051D7980171330110
:1033E0007103025150FD44377132018801FD4437A9
:1033F0007132017102025182CEABAC9800F198019A
:103400007133017103025182FD4437713201880129
:10341000FD4437713201710202CEABAC300A00FDBF
:103420004E2DE19800F198019802980398049805B0
:10343000713301710302E1FD44377132018801FDEE
:1034400044377132018802FD44377132018803FD2F
:1034500044377132018804FD44377132018805FD1B
:103460004437713201710202CEABAC300A00FD4E1E
:103470002D7133017103025171FD4437713201CE58
:10348000ABAC710302712A20F25080710200F1711D
:10349000240061DC73623119616B7260311A70D083
:1034A000710300DFE6712B20710202F313F7CEAB3C
:1034B000ACC3C15019FDBF12515198047133017151
:1034C0000302FD4437713201CEABAC710302712AA5
:1034D00020F350801004710200F171240061DC724D
:1034E000633119616A7360311A70D0710300DFE6CD
:1034F00063981A712B207102025102CEABAC980076
:10350000713301710302FD4437713201710202CE41
:10351000ABAC303200FD4E2DA82012F63344000033
:10352000F661F8440000DD0C8809814C03980961BC
:10353000D8ED862F300200FD4E13618A5C1F618A30
:10354000B81613B818A81631DE33161337313D07F5
:10355000F1B812F6B814A82012F633440000336113
:10356000F8440000DD25618A6CC0618AC3C1A81CD3
:1035700012A81AFDD829100413B818881281DD1575
:10358000A812A1B81288129800EF0AA81812626C4B
:10359000E07213B818A81216313E121731DDC3C1FC
:1035A00030E0FFC130FF1FC1A82012A81EFD012A74
:1035B0001004FDD8291004C3C1300200F7FDBF126A
:1035C000300A00FD4E2D712300710300713301712B
:1035D00003025107FD443771320151A5FD44377193
:1035E0003201710202CEABAC7133017103023010B3
:1035F00000F7FD4E13B81A13B81CA81A0401006195
:10360000D8A31004B81613B818A816C3C1301000F8
:10361000F7FDBF12A81C12A81AC3C1300405F7FD9C
:10362000A027301200F7FD4E13B81613B8188822E1
:10363000D1100863DF066CC07313EF025CBFB810D3
:10364000A820440000F661F8440000A810DD046CD6
:1036500030EF025CEFB8108808F770F1C3C1A8140E
:1036600012A812F0FDD8291004B80E880873A80E0D
:1036700070636148DE1370F7318DC3C1A81412A8BE
:1036800012F1FDD8291004B80EA81012A80EC3C15B
:10369000301200F7FDBF12882F9804880C98058817
:1036A000169806300300C1AEF80406001430000579
:1036B000F7FD4A25E515FE1006102CD74F14FE2005
:1036C0000672DE7D8F12FE70F10104682016ABB821
:1036D00000D513FEDD0301B800A80014F6C1F3C540
:1036E00013F7FD2B291004B80213B804FB06FE15CE
:1036F00047DC33AF06FEC1F614A80612A804040086
:103700000861D8A3FD4A25A806EB06FE12A8040509
:1037100061D8A31002B80213B804A8002206FEB8AC
:1037200000C5C647DECDA800440000DD14F1C1F697
:1037300014A80612A80404000861D8A3FD4A2510A5
:10374000021006D771FC7121007102007103007133
:10375000EC71210071020071030071DC71210071B4
:10376000020071030071CC7121007102007103002D
:1037700071BC71210071020071030071AC712100F4
:10378000710200710300719C7121007102007103CC
:1037900000718C712100710200710300D7C3C11345
:1037A00060201CF05C0F08B804F6B806A81CF05C9A
:1037B0000F08B810F6B81288044F14FE61C8ED4720
:1037C0003988104F14FE61C8ED4739E1FD09258F96
:1037D00012FE70F10104682014F7A9B800F6B802CF
:1037E000A9B81833B81AD513FEDF23C1C3F7A80848
:1037F000FD2B291004B80C13B80EF6C1F7A802C1AE
:10380000A814FD2B291004B80413B806EF35A8003E
:10381000F70161FEC3C1F7A808FD2B291004B80CFD
:1038200013B80EA800F70161FEC3C1F7A814FD2B61
:10383000291004B80413B806A818F70161FEB818D7
:1038400013B81AA80E12A80C04000861D8A3B80C6B
:1038500013B80EA80612A80404000861D8A3B8047F
:1038600013B806A818B810A81AB81212A810334432
:1038700000001361F844000061F8ED4739A810B862
:1038800000A812B80212A800334400001361F844E3
:103890000500DC08300400B800F6B802A800C1AE8C
:1038A000F8040A0014A81012A80EFD92261002AE09
:1038B000F8041C0016319534A800C1AEF8041600B7
:1038C00014A80812A806FD9226881670880A616856
:1038D000980A881716AEF8040B00376DA7980B8866
:1038E000186DA7980C88196D980D1002A800C1AE2C
:1038F000F8040A0014A80812A806FD4A25A8041610
:10390000A80214A81012A80E0561D8A3330710024C
:1039100033B80C13B80EA80612A8040561D8A33357
:103920000733B80413B806A81212A8102561D8B33B
:10393000332733B81013B812CEABACA81061F844DB
:10394000000061E8ED7D381020D7C3C1201AAEF821
:10395000041200FDA82DE1FD0925F6B80AB80C8F68
:1039600014FE70F144000061F8EDD73A880A723015
:103970000001FD7B1D16A81A615F08615E08440006
:103980000061F8EDB03A8F12FE70F1010468201466
:10399000F7A9B80EF6B810A9B80033B802D513FECF
:1039A000DF13C1C3A81012A80EFD2B291004B806FE
:1039B00013B808EF22A80EF70161FEC3C1A81012C8
:1039C000A80EFD2B291004B80613B808A800F701AB
:1039D00061FEB80013B802A80812A8060400086126
:1039E000D8A3B80613B808A800B80EA802B81012D9
:1039F000A80E334400001361F844000061F8EDB0F4
:103A00003AA80EB802A810B80412A8023344000065
:103A10001361F8440500DC08300400B802F6B8046D
:103A2000A802C1AEF804180014A80A12A808FD9252
:103A300026F19802A80612A80433440000100213CD
:103A400061F8440000DD35880076AEF857000416B2
:103A50000007168B72AEF8041200FDB02D880081AD
:103A60009800AEF804020016880070F14E03DF0AD9
:103A70004E02DF064E01DF02604DDCCBA80416A823
:103A80000214A80812A8060561D8A3330733B806A4
:103A900013B808A81012A80E2561D8B3332733B87D
:103AA0000E13B810A80E61F844000061E8ED013A69
:103AB000A80C12A80A04010061D8A3B80A13B80C14
:103AC0008F14FEF770F1C3C1A81012A80EFD442A8E
:103AD000100461D8ED6C39A81412A812C3C13015B6
:083AE00000F7FDBF121022D710
:103AE800AE3B00000400000020FE0F00AE3B0000CB
:103AF8001C04000004FA0F00103B00000400000042
:083B0800AB1D000000FA0F00E4
:103B1000C3C5200CA8141688169EFD11ABB8081159
:103B2000AC02B80AC7C4118A06980611AA04B804E0
:103B3000118A0A980211AA08B800EF4FA804168843
:103B4000069EFD118B73A8001688029EFD63119BD3
:103B5000A8041488069EFDE605A561D8A0FDFF8E89
:103B6000FD980615B804C7C488029EFDE605A56148
:103B7000D8A0FDFF8EFD980215B800A80A12A8086B
:103B800024010061D8B3B80813B80AA80A12A8081B
:103B90003344000013DF02F743DFA1A81416881690
:103BA0009EFD17040C00168EFD100CC4C2D7C3C5B1
:103BB0002008A8101688129EFD11ABB80411AC02A3
:103BC000B806C7C4118A06980211AA04B800A80052
:103BD0001688029EFDF1119BC7C4E605A561D8A019
:103BE000FDFF8EFD980215B800A80612A804240156
:103BF0000061D8B3B80413B806A804334400001316
:103C0000DF02F743DFC8A8101688129EFD170408CC
:093C100000168EFD1008C4C2D795
:0400000500002E01C8
:00000001FF
